<?xml version="1.0" encoding="UTF-8" standalone="no"?><svg xmlns="http://www.w3.org/2000/svg" xmlns:xlink="http://www.w3.org/1999/xlink" contentStyleType="text/css" height="518px" preserveAspectRatio="none" style="width:913px;height:518px;background:#FFFFFF;" version="1.1" viewBox="0 0 913 518" width="913px" zoomAndPan="magnify"><defs/><g><!--MD5=[02e4b9b7573f1156f41e60aa5b4e25a4]
class Company--><g id="elem_Company"><rect codeLine="3" fill="#F1F1F1" height="57.6094" id="Company" rx="2.5" ry="2.5" style="stroke:#181818;stroke-width:0.5;" width="101" x="7" y="161.46"/><ellipse cx="26.05" cy="177.46" fill="#ADD1B2" rx="11" ry="11" style="stroke:#181818;stroke-width:1.0;"/><path d="M28.05,173.96 Q28.2531,173.46 28.4875,173.21 Q28.7219,172.96 28.9875,172.96 Q29.4563,172.96 29.7531,173.2412 Q30.05,173.5225 30.05,174.1787 L30.05,175.7412 Q30.05,176.3975 29.7688,176.6787 Q29.4875,176.96 29.05,176.96 Q28.6594,176.96 28.4094,176.7881 Q28.1594,176.6162 28.05,176.1631 Q28.0031,175.8506 27.8313,175.6787 Q27.5188,175.3506 26.9563,175.1631 Q26.3938,174.96 25.8313,174.96 Q25.1281,174.96 24.5344,175.2412 Q23.9563,175.5225 23.5031,176.1475 Q23.05,176.7725 23.05,177.6319 L23.05,178.5537 Q23.05,179.585 23.8938,180.2725 Q24.7375,180.96 26.2375,180.96 Q27.1281,180.96 27.7531,180.7569 Q28.1125,180.6475 28.5188,180.2881 Q28.7844,180.085 28.925,180.0225 Q29.0656,179.96 29.2375,179.96 Q29.5656,179.96 29.8,180.2256 Q30.05,180.4756 30.05,180.835 Q30.05,181.1787 29.7063,181.585 Q29.2063,182.1787 28.4094,182.5069 Q27.3625,182.96 26.0813,182.96 Q24.5813,182.96 23.3781,182.3662 Q22.4094,181.8975 21.7219,180.8819 Q21.05,179.8662 21.05,178.6631 L21.05,177.5694 Q21.05,176.3194 21.6438,175.2256 Q22.2531,174.1319 23.3,173.5537 Q24.3625,172.96 25.55,172.96 Q26.2688,172.96 26.8938,173.21 Q27.5188,173.46 28.05,173.96 Z " fill="#000000"/><text fill="#000000" font-family="sans-serif" font-size="14" lengthAdjust="spacing" textLength="60" x="40.95" y="183.1885">Company</text><line style="stroke:#181818;stroke-width:0.5;" x1="8" x2="107" y1="193.46" y2="193.46"/><rect fill="none" height="6" style="stroke:#C82930;stroke-width:1.0;" width="6" x="15" y="201.46"/><text fill="#000000" font-family="sans-serif" font-size="14" lengthAdjust="spacing" textLength="75" x="27" y="211.9932">Designation</text></g><!--MD5=[2d935fd2dd068a13da1ae531f9857c4f]
class CenterCoordinator--><g id="elem_CenterCoordinator"><rect codeLine="7" fill="#F1F1F1" height="92.8281" id="CenterCoordinator" rx="2.5" ry="2.5" style="stroke:#181818;stroke-width:0.5;" width="150" x="234" y="143.96"/><ellipse cx="249" cy="159.96" fill="#ADD1B2" rx="11" ry="11" style="stroke:#181818;stroke-width:1.0;"/><path d="M251,156.46 Q251.2031,155.96 251.4375,155.71 Q251.6719,155.46 251.9375,155.46 Q252.4063,155.46 252.7031,155.7412 Q253,156.0225 253,156.6787 L253,158.2412 Q253,158.8975 252.7188,159.1787 Q252.4375,159.46 252,159.46 Q251.6094,159.46 251.3594,159.2881 Q251.1094,159.1162 251,158.6631 Q250.9531,158.3506 250.7813,158.1787 Q250.4688,157.8506 249.9063,157.6631 Q249.3438,157.46 248.7813,157.46 Q248.0781,157.46 247.4844,157.7412 Q246.9063,158.0225 246.4531,158.6475 Q246,159.2725 246,160.1319 L246,161.0537 Q246,162.085 246.8438,162.7725 Q247.6875,163.46 249.1875,163.46 Q250.0781,163.46 250.7031,163.2569 Q251.0625,163.1475 251.4688,162.7881 Q251.7344,162.585 251.875,162.5225 Q252.0156,162.46 252.1875,162.46 Q252.5156,162.46 252.75,162.7256 Q253,162.9756 253,163.335 Q253,163.6787 252.6563,164.085 Q252.1563,164.6787 251.3594,165.0069 Q250.3125,165.46 249.0313,165.46 Q247.5313,165.46 246.3281,164.8662 Q245.3594,164.3975 244.6719,163.3819 Q244,162.3662 244,161.1631 L244,160.0694 Q244,158.8194 244.5938,157.7256 Q245.2031,156.6319 246.25,156.0537 Q247.3125,155.46 248.5,155.46 Q249.2188,155.46 249.8438,155.71 Q250.4688,155.96 251,156.46 Z " fill="#000000"/><text fill="#000000" font-family="sans-serif" font-size="14" lengthAdjust="spacing" textLength="118" x="263" y="165.6885">CenterCoordinator</text><line style="stroke:#181818;stroke-width:0.5;" x1="235" x2="383" y1="175.96" y2="175.96"/><rect fill="none" height="6" style="stroke:#C82930;stroke-width:1.0;" width="6" x="242" y="183.96"/><text fill="#000000" font-family="sans-serif" font-size="14" lengthAdjust="spacing" textLength="36" x="254" y="194.4932">Name</text><rect fill="none" height="6" style="stroke:#C82930;stroke-width:1.0;" width="6" x="242" y="201.5694"/><text fill="#000000" font-family="sans-serif" font-size="14" lengthAdjust="spacing" textLength="13" x="254" y="212.1026">ID</text><rect fill="none" height="6" style="stroke:#C82930;stroke-width:1.0;" width="6" x="242" y="219.1787"/><text fill="#000000" font-family="sans-serif" font-size="14" lengthAdjust="spacing" textLength="61" x="254" y="229.712">Password</text></g><!--MD5=[72be06cc7ae02ccc98efe28a50e62246]
class SNSUser--><g id="elem_SNSUser"><rect codeLine="13" fill="#F1F1F1" height="57.6094" id="SNSUser" rx="2.5" ry="2.5" style="stroke:#181818;stroke-width:0.5;" width="99" x="807" y="397.46"/><ellipse cx="826.95" cy="413.46" fill="#ADD1B2" rx="11" ry="11" style="stroke:#181818;stroke-width:1.0;"/><path d="M828.95,409.96 Q829.1531,409.46 829.3875,409.21 Q829.6219,408.96 829.8875,408.96 Q830.3563,408.96 830.6531,409.2413 Q830.95,409.5225 830.95,410.1788 L830.95,411.7413 Q830.95,412.3975 830.6688,412.6788 Q830.3875,412.96 829.95,412.96 Q829.5594,412.96 829.3094,412.7881 Q829.0594,412.6163 828.95,412.1631 Q828.9031,411.8506 828.7313,411.6788 Q828.4188,411.3506 827.8563,411.1631 Q827.2938,410.96 826.7313,410.96 Q826.0281,410.96 825.4344,411.2413 Q824.8563,411.5225 824.4031,412.1475 Q823.95,412.7725 823.95,413.6319 L823.95,414.5538 Q823.95,415.585 824.7938,416.2725 Q825.6375,416.96 827.1375,416.96 Q828.0281,416.96 828.6531,416.7569 Q829.0125,416.6475 829.4188,416.2881 Q829.6844,416.085 829.825,416.0225 Q829.9656,415.96 830.1375,415.96 Q830.4656,415.96 830.7,416.2256 Q830.95,416.4756 830.95,416.835 Q830.95,417.1788 830.6063,417.585 Q830.1063,418.1788 829.3094,418.5069 Q828.2625,418.96 826.9813,418.96 Q825.4813,418.96 824.2781,418.3663 Q823.3094,417.8975 822.6219,416.8819 Q821.95,415.8663 821.95,414.6631 L821.95,413.5694 Q821.95,412.3194 822.5438,411.2256 Q823.1531,410.1319 824.2,409.5538 Q825.2625,408.96 826.45,408.96 Q827.1688,408.96 827.7938,409.21 Q828.4188,409.46 828.95,409.96 Z " fill="#000000"/><text fill="#000000" font-family="sans-serif" font-size="14" lengthAdjust="spacing" textLength="56" x="842.05" y="419.1885">SNSUser</text><line style="stroke:#181818;stroke-width:0.5;" x1="808" x2="905" y1="429.46" y2="429.46"/><rect fill="none" height="6" style="stroke:#C82930;stroke-width:1.0;" width="6" x="815" y="437.46"/><text fill="#000000" font-family="sans-serif" font-size="14" lengthAdjust="spacing" textLength="73" x="827" y="447.9932">CC Number</text></g><!--MD5=[4765fcf5d6db66eebf98d526c81910ad]
class SNSUserDTO--><g id="elem_SNSUserDTO"><rect codeLine="16" fill="#F1F1F1" height="128.0469" id="SNSUserDTO" rx="2.5" ry="2.5" style="stroke:#181818;stroke-width:0.5;" width="139" x="566" y="245.46"/><ellipse cx="590.45" cy="261.46" fill="#ADD1B2" rx="11" ry="11" style="stroke:#181818;stroke-width:1.0;"/><path d="M592.45,257.96 Q592.6531,257.46 592.8875,257.21 Q593.1219,256.96 593.3875,256.96 Q593.8563,256.96 594.1531,257.2413 Q594.45,257.5225 594.45,258.1788 L594.45,259.7413 Q594.45,260.3975 594.1688,260.6788 Q593.8875,260.96 593.45,260.96 Q593.0594,260.96 592.8094,260.7881 Q592.5594,260.6163 592.45,260.1631 Q592.4031,259.8506 592.2313,259.6788 Q591.9188,259.3506 591.3563,259.1631 Q590.7938,258.96 590.2313,258.96 Q589.5281,258.96 588.9344,259.2413 Q588.3563,259.5225 587.9031,260.1475 Q587.45,260.7725 587.45,261.6319 L587.45,262.5538 Q587.45,263.585 588.2938,264.2725 Q589.1375,264.96 590.6375,264.96 Q591.5281,264.96 592.1531,264.7569 Q592.5125,264.6475 592.9188,264.2881 Q593.1844,264.085 593.325,264.0225 Q593.4656,263.96 593.6375,263.96 Q593.9656,263.96 594.2,264.2256 Q594.45,264.4756 594.45,264.835 Q594.45,265.1788 594.1063,265.585 Q593.6063,266.1788 592.8094,266.5069 Q591.7625,266.96 590.4813,266.96 Q588.9813,266.96 587.7781,266.3663 Q586.8094,265.8975 586.1219,264.8819 Q585.45,263.8663 585.45,262.6631 L585.45,261.5694 Q585.45,260.3194 586.0438,259.2256 Q586.6531,258.1319 587.7,257.5538 Q588.7625,256.96 589.95,256.96 Q590.6688,256.96 591.2938,257.21 Q591.9188,257.46 592.45,257.96 Z " fill="#000000"/><text fill="#000000" font-family="sans-serif" font-size="14" lengthAdjust="spacing" textLength="86" x="606.55" y="267.1885">SNSUserDTO</text><line style="stroke:#181818;stroke-width:0.5;" x1="567" x2="704" y1="277.46" y2="277.46"/><rect fill="none" height="6" style="stroke:#C82930;stroke-width:1.0;" width="6" x="574" y="285.46"/><text fill="#000000" font-family="sans-serif" font-size="14" lengthAdjust="spacing" textLength="36" x="586" y="295.9932">Name</text><rect fill="none" height="6" style="stroke:#C82930;stroke-width:1.0;" width="6" x="574" y="303.0694"/><text fill="#000000" font-family="sans-serif" font-size="14" lengthAdjust="spacing" textLength="23" x="586" y="313.6026">Sex</text><rect fill="none" height="6" style="stroke:#C82930;stroke-width:1.0;" width="6" x="574" y="320.6788"/><text fill="#000000" font-family="sans-serif" font-size="14" lengthAdjust="spacing" textLength="63" x="586" y="331.212">Birth Date</text><rect fill="none" height="6" style="stroke:#C82930;stroke-width:1.0;" width="6" x="574" y="338.2881"/><text fill="#000000" font-family="sans-serif" font-size="14" lengthAdjust="spacing" textLength="113" x="586" y="348.8213">SNS User Number</text><rect fill="none" height="6" style="stroke:#C82930;stroke-width:1.0;" width="6" x="574" y="355.8975"/><text fill="#000000" font-family="sans-serif" font-size="14" lengthAdjust="spacing" textLength="94" x="586" y="366.4307">Phone Number</text></g><!--MD5=[a5ad3856b0c65e07b10297b4477b22bb]
class SNSUserStore--><g id="elem_SNSUserStore"><rect codeLine="23" fill="#F1F1F1" height="40" id="SNSUserStore" rx="2.5" ry="2.5" style="stroke:#181818;stroke-width:0.5;" width="122" x="414" y="471.46"/><ellipse cx="429" cy="487.46" fill="#ADD1B2" rx="11" ry="11" style="stroke:#181818;stroke-width:1.0;"/><path d="M431,483.96 Q431.2031,483.46 431.4375,483.21 Q431.6719,482.96 431.9375,482.96 Q432.4063,482.96 432.7031,483.2413 Q433,483.5225 433,484.1788 L433,485.7413 Q433,486.3975 432.7188,486.6788 Q432.4375,486.96 432,486.96 Q431.6094,486.96 431.3594,486.7881 Q431.1094,486.6163 431,486.1631 Q430.9531,485.8506 430.7813,485.6788 Q430.4688,485.3506 429.9063,485.1631 Q429.3438,484.96 428.7813,484.96 Q428.0781,484.96 427.4844,485.2413 Q426.9063,485.5225 426.4531,486.1475 Q426,486.7725 426,487.6319 L426,488.5538 Q426,489.585 426.8438,490.2725 Q427.6875,490.96 429.1875,490.96 Q430.0781,490.96 430.7031,490.7569 Q431.0625,490.6475 431.4688,490.2881 Q431.7344,490.085 431.875,490.0225 Q432.0156,489.96 432.1875,489.96 Q432.5156,489.96 432.75,490.2256 Q433,490.4756 433,490.835 Q433,491.1788 432.6563,491.585 Q432.1563,492.1788 431.3594,492.5069 Q430.3125,492.96 429.0313,492.96 Q427.5313,492.96 426.3281,492.3663 Q425.3594,491.8975 424.6719,490.8819 Q424,489.8663 424,488.6631 L424,487.5694 Q424,486.3194 424.5938,485.2256 Q425.2031,484.1319 426.25,483.5538 Q427.3125,482.96 428.5,482.96 Q429.2188,482.96 429.8438,483.21 Q430.4688,483.46 431,483.96 Z " fill="#000000"/><text fill="#000000" font-family="sans-serif" font-size="14" lengthAdjust="spacing" textLength="90" x="443" y="493.1885">SNSUserStore</text><line style="stroke:#181818;stroke-width:0.5;" x1="415" x2="535" y1="503.46" y2="503.46"/></g><!--MD5=[4470f398350dbdcb65208a86d6ef793f]
class BubbleSort--><g id="elem_BubbleSort"><rect codeLine="24" fill="#F1F1F1" height="40" id="BubbleSort" rx="2.5" ry="2.5" style="stroke:#181818;stroke-width:0.5;" width="102" x="584.5" y="95.46"/><ellipse cx="599.5" cy="111.46" fill="#ADD1B2" rx="11" ry="11" style="stroke:#181818;stroke-width:1.0;"/><path d="M601.5,107.96 Q601.7031,107.46 601.9375,107.21 Q602.1719,106.96 602.4375,106.96 Q602.9063,106.96 603.2031,107.2412 Q603.5,107.5225 603.5,108.1787 L603.5,109.7412 Q603.5,110.3975 603.2188,110.6787 Q602.9375,110.96 602.5,110.96 Q602.1094,110.96 601.8594,110.7881 Q601.6094,110.6162 601.5,110.1631 Q601.4531,109.8506 601.2813,109.6787 Q600.9688,109.3506 600.4063,109.1631 Q599.8438,108.96 599.2813,108.96 Q598.5781,108.96 597.9844,109.2412 Q597.4063,109.5225 596.9531,110.1475 Q596.5,110.7725 596.5,111.6319 L596.5,112.5537 Q596.5,113.585 597.3438,114.2725 Q598.1875,114.96 599.6875,114.96 Q600.5781,114.96 601.2031,114.7569 Q601.5625,114.6475 601.9688,114.2881 Q602.2344,114.085 602.375,114.0225 Q602.5156,113.96 602.6875,113.96 Q603.0156,113.96 603.25,114.2256 Q603.5,114.4756 603.5,114.835 Q603.5,115.1787 603.1563,115.585 Q602.6563,116.1787 601.8594,116.5069 Q600.8125,116.96 599.5313,116.96 Q598.0313,116.96 596.8281,116.3662 Q595.8594,115.8975 595.1719,114.8819 Q594.5,113.8662 594.5,112.6631 L594.5,111.5694 Q594.5,110.3194 595.0938,109.2256 Q595.7031,108.1319 596.75,107.5537 Q597.8125,106.96 599,106.96 Q599.7188,106.96 600.3438,107.21 Q600.9688,107.46 601.5,107.96 Z " fill="#000000"/><text fill="#000000" font-family="sans-serif" font-size="14" lengthAdjust="spacing" textLength="70" x="613.5" y="117.1885">BubbleSort</text><line style="stroke:#181818;stroke-width:0.5;" x1="585.5" x2="685.5" y1="127.46" y2="127.46"/></g><!--MD5=[5411d87cf5f29f99ea2788f27fb5f7d4]
class InsertionSort--><g id="elem_InsertionSort"><rect codeLine="25" fill="#F1F1F1" height="40" id="InsertionSort" rx="2.5" ry="2.5" style="stroke:#181818;stroke-width:0.5;" width="112" x="579.5" y="170.46"/><ellipse cx="594.5" cy="186.46" fill="#ADD1B2" rx="11" ry="11" style="stroke:#181818;stroke-width:1.0;"/><path d="M596.5,182.96 Q596.7031,182.46 596.9375,182.21 Q597.1719,181.96 597.4375,181.96 Q597.9063,181.96 598.2031,182.2412 Q598.5,182.5225 598.5,183.1787 L598.5,184.7412 Q598.5,185.3975 598.2188,185.6787 Q597.9375,185.96 597.5,185.96 Q597.1094,185.96 596.8594,185.7881 Q596.6094,185.6162 596.5,185.1631 Q596.4531,184.8506 596.2813,184.6787 Q595.9688,184.3506 595.4063,184.1631 Q594.8438,183.96 594.2813,183.96 Q593.5781,183.96 592.9844,184.2412 Q592.4063,184.5225 591.9531,185.1475 Q591.5,185.7725 591.5,186.6319 L591.5,187.5537 Q591.5,188.585 592.3438,189.2725 Q593.1875,189.96 594.6875,189.96 Q595.5781,189.96 596.2031,189.7569 Q596.5625,189.6475 596.9688,189.2881 Q597.2344,189.085 597.375,189.0225 Q597.5156,188.96 597.6875,188.96 Q598.0156,188.96 598.25,189.2256 Q598.5,189.4756 598.5,189.835 Q598.5,190.1787 598.1563,190.585 Q597.6563,191.1787 596.8594,191.5069 Q595.8125,191.96 594.5313,191.96 Q593.0313,191.96 591.8281,191.3662 Q590.8594,190.8975 590.1719,189.8819 Q589.5,188.8662 589.5,187.6631 L589.5,186.5694 Q589.5,185.3194 590.0938,184.2256 Q590.7031,183.1319 591.75,182.5537 Q592.8125,181.96 594,181.96 Q594.7188,181.96 595.3438,182.21 Q595.9688,182.46 596.5,182.96 Z " fill="#000000"/><text fill="#000000" font-family="sans-serif" font-size="14" lengthAdjust="spacing" textLength="80" x="608.5" y="192.1885">InsertionSort</text><line style="stroke:#181818;stroke-width:0.5;" x1="580.5" x2="690.5" y1="202.46" y2="202.46"/></g><!--MD5=[c58fdcae378c37e7b89ecb70b8238a20]
class VacCenter--><g id="elem_VacCenter"><rect fill="#F1F1F1" height="40" id="VacCenter" rx="2.5" ry="2.5" style="stroke:#181818;stroke-width:0.5;" width="99" x="807" y="28.46"/><ellipse cx="822" cy="44.46" fill="#ADD1B2" rx="11" ry="11" style="stroke:#181818;stroke-width:1.0;"/><path d="M824,40.96 Q824.2031,40.46 824.4375,40.21 Q824.6719,39.96 824.9375,39.96 Q825.4063,39.96 825.7031,40.2412 Q826,40.5225 826,41.1787 L826,42.7412 Q826,43.3975 825.7188,43.6787 Q825.4375,43.96 825,43.96 Q824.6094,43.96 824.3594,43.7881 Q824.1094,43.6162 824,43.1631 Q823.9531,42.8506 823.7813,42.6787 Q823.4688,42.3506 822.9063,42.1631 Q822.3438,41.96 821.7813,41.96 Q821.0781,41.96 820.4844,42.2412 Q819.9063,42.5225 819.4531,43.1475 Q819,43.7725 819,44.6319 L819,45.5537 Q819,46.585 819.8438,47.2725 Q820.6875,47.96 822.1875,47.96 Q823.0781,47.96 823.7031,47.7569 Q824.0625,47.6475 824.4688,47.2881 Q824.7344,47.085 824.875,47.0225 Q825.0156,46.96 825.1875,46.96 Q825.5156,46.96 825.75,47.2256 Q826,47.4756 826,47.835 Q826,48.1787 825.6563,48.585 Q825.1563,49.1787 824.3594,49.5069 Q823.3125,49.96 822.0313,49.96 Q820.5313,49.96 819.3281,49.3662 Q818.3594,48.8975 817.6719,47.8819 Q817,46.8662 817,45.6631 L817,44.5694 Q817,43.3194 817.5938,42.2256 Q818.2031,41.1319 819.25,40.5537 Q820.3125,39.96 821.5,39.96 Q822.2188,39.96 822.8438,40.21 Q823.4688,40.46 824,40.96 Z " fill="#000000"/><text fill="#000000" font-family="sans-serif" font-size="14" lengthAdjust="spacing" textLength="67" x="836" y="50.1885">VacCenter</text><line style="stroke:#181818;stroke-width:0.5;" x1="808" x2="905" y1="60.46" y2="60.46"/></g><!--MD5=[30a739c1afedca5b7ab0cfb7cf711dcd]
link Company to CenterCoordinator--><g id="link_Company_CenterCoordinator"><path codeLine="27" d="M108.09,190.46 C144.05,190.46 193.28,190.46 233.89,190.46 " fill="none" id="Company-CenterCoordinator" style="stroke:#181818;stroke-width:1.0;"/><polygon fill="#000000" points="148,181.6358,138.9549,178.6969,138.9549,184.5747,148,181.6358" style="stroke:#000000;stroke-width:1.0;"/><text fill="#000000" font-family="sans-serif" font-size="13" lengthAdjust="spacing" textLength="51" x="152" y="186.9551">Employs</text></g><!--MD5=[f23d1b7c77cd5f9bf576e436c20a3a52]
link CenterCoordinator to SNSUserDTO--><g id="link_CenterCoordinator_SNSUserDTO"><path codeLine="28" d="M384.04,217.61 C438.66,237.64 512.44,264.7 565.77,284.25 " fill="none" id="CenterCoordinator-SNSUserDTO" style="stroke:#181818;stroke-width:1.0;"/><polygon fill="#000000" points="427.3057,217.9144,434.786,223.7877,436.8096,218.2692,427.3057,217.9144" style="stroke:#000000;stroke-width:1.0;"/><text fill="#000000" font-family="sans-serif" font-size="13" lengthAdjust="spacing" textLength="81" x="441" y="224.9551">Data Imported</text></g><!--MD5=[d4f9ef9ed5b24eee4abbc1d430c2e78e]
link CenterCoordinator to SNSUser--><g id="link_CenterCoordinator_SNSUser"><path codeLine="29" d="M347.65,237.28 C393.09,289.89 474.86,372.73 566,409.46 C645.62,441.55 747.6,438.44 806.84,432.78 " fill="none" id="CenterCoordinator-SNSUser" style="stroke:#181818;stroke-width:1.0;"/><polygon fill="#000000" points="616.1004,402.5944,608.9294,396.3472,606.6269,401.7553,616.1004,402.5944" style="stroke:#000000;stroke-width:1.0;"/><text fill="#000000" font-family="sans-serif" font-size="13" lengthAdjust="spacing" textLength="43" x="620.5" y="405.9551">Imports</text></g><!--MD5=[1bd9080c7e199931e49bc5a1616681ac]
link Company to SNSUserStore--><g id="link_Company_SNSUserStore"><path codeLine="30" d="M96.37,219.51 C160.78,268.66 296.14,370.83 414,452.46 C423.09,458.76 433.11,465.39 442.32,471.36 " fill="none" id="Company-SNSUserStore" style="stroke:#181818;stroke-width:1.0;"/><polygon fill="#000000" points="161.0423,247.5786,155.4594,239.879,152,244.631,161.0423,247.5786" style="stroke:#000000;stroke-width:1.0;"/><text fill="#000000" font-family="sans-serif" font-size="13" lengthAdjust="spacing" textLength="23" x="166" y="249.9551">Has</text></g><!--MD5=[675075d142f36dc20e6791c71313032a]
link Company to VacCenter--><g id="link_Company_VacCenter"><path codeLine="31" d="M108.21,167.5 C197.5,127.77 391.97,48.11 566,23.46 C658.86,10.31 684.5,6 777,21.46 C786.81,23.1 797.03,25.82 806.73,28.91 " fill="none" id="Company-VacCenter" style="stroke:#181818;stroke-width:1.0;"/><polygon fill="#000000" points="445.9044,19.6627,436.4603,18.5403,437.6042,24.3057,445.9044,19.6627" style="stroke:#000000;stroke-width:1.0;"/><text fill="#000000" font-family="sans-serif" font-size="13" lengthAdjust="spacing" textLength="63" x="450" y="25.9551">Property of</text></g><!--MD5=[712ce01df5a03012f9e943220a1e4d4a]
link CenterCoordinator to VacCenter--><g id="link_CenterCoordinator_VacCenter"><path codeLine="32" d="M362.2,143.91 C377.96,131.83 395.9,119.87 414,111.46 C546.19,50.06 722.71,44.89 806.88,46.46 " fill="none" id="CenterCoordinator-VacCenter" style="stroke:#181818;stroke-width:1.0;"/><polygon fill="#000000" points="611.3841,39.5654,601.9196,38.6309,603.1778,44.3725,611.3841,39.5654" style="stroke:#000000;stroke-width:1.0;"/><text fill="#000000" font-family="sans-serif" font-size="13" lengthAdjust="spacing" textLength="53" x="615.5" y="45.9551">Works at</text></g><!--MD5=[6d31e07117e94da5e107d42812da7219]
link BubbleSort to VacCenter--><g id="link_BubbleSort_VacCenter"><path codeLine="33" d="M686.74,100.09 C722.86,89.04 771.28,74.22 807,63.3 " fill="none" id="BubbleSort-VacCenter" style="stroke:#181818;stroke-width:1.0;"/><polygon fill="#000000" points="744.7813,64.1731,735.2721,64.0088,736.9916,69.6295,744.7813,64.1731" style="stroke:#000000;stroke-width:1.0;"/><text fill="#000000" font-family="sans-serif" font-size="13" lengthAdjust="spacing" textLength="27" x="749" y="70.9551">Data</text></g><!--MD5=[56da5c1687482fed03925532bfa59806]
link InsertionSort to VacCenter--><g id="link_InsertionSort_VacCenter"><path codeLine="34" d="M673.2,170.29 C683.51,164.57 694.72,158.31 705,152.46 C737.2,134.14 746.39,131.33 777,110.46 C796.09,97.45 816.53,81.22 831.77,68.64 " fill="none" id="InsertionSort-VacCenter" style="stroke:#181818;stroke-width:1.0;"/><polygon fill="#000000" points="744.2094,98.9374,735.0085,101.3446,738.1806,106.293,744.2094,98.9374" style="stroke:#000000;stroke-width:1.0;"/><text fill="#000000" font-family="sans-serif" font-size="13" lengthAdjust="spacing" textLength="27" x="749" y="106.9551">Data</text></g><!--MD5=[b01d27099955aced792f1ce85db49798]
link SNSUserStore to SNSUser--><g id="link_SNSUserStore_SNSUser"><path codeLine="35" d="M536.44,496.38 C583,498.74 648.7,498.95 705,487.46 C740.36,480.25 777.98,465 806.77,451.55 " fill="none" id="SNSUserStore-SNSUser" style="stroke:#181818;stroke-width:1.0;"/><polygon fill="#000000" points="612.4326,477.8178,603.0286,476.3982,603.9902,482.1969,612.4326,477.8178" style="stroke:#000000;stroke-width:1.0;"/><text fill="#000000" font-family="sans-serif" font-size="13" lengthAdjust="spacing" textLength="51" x="616.5" y="483.9551">Contains</text></g><!--MD5=[1b9ec935a83426f0b76f890e6fdd1e2f]
link SNSUserDTO to SNSUser--><g id="link_SNSUserDTO_SNSUser"><path codeLine="36" d="M705.19,346.16 C738.18,363.78 776.94,384.49 806.84,400.46 " fill="none" id="SNSUserDTO-SNSUser" style="stroke:#181818;stroke-width:1.0;"/></g><!--MD5=[714a50bb734ee8c6b925300918fed75b]
link CenterCoordinator to BubbleSort--><g id="link_CenterCoordinator_BubbleSort"><path codeLine="37" d="M384.08,171.69 C394.13,169.21 404.31,166.75 414,164.46 C472.39,150.68 539.75,135.86 584.5,126.18 " fill="none" id="CenterCoordinator-BubbleSort" style="stroke:#181818;stroke-width:1.0;"/><polygon fill="#000000" points="433.8759,127.5286,424.4046,126.6655,425.7061,132.3975,433.8759,127.5286" style="stroke:#000000;stroke-width:1.0;"/><text fill="#000000" font-family="sans-serif" font-size="13" lengthAdjust="spacing" textLength="87" x="438" y="133.9551">Data Sorted by</text></g><!--MD5=[8e4058137b1cebbb4bf73a43a341a699]
link CenterCoordinator to InsertionSort--><g id="link_CenterCoordinator_InsertionSort"><path codeLine="38" d="M384.04,190.46 C443.52,190.46 525.73,190.46 579.49,190.46 " fill="none" id="CenterCoordinator-InsertionSort" style="stroke:#181818;stroke-width:1.0;"/><polygon fill="#000000" points="434,181.6358,424.9549,178.6969,424.9549,184.5747,434,181.6358" style="stroke:#000000;stroke-width:1.0;"/><text fill="#000000" font-family="sans-serif" font-size="13" lengthAdjust="spacing" textLength="87" x="438" y="186.9551">Data Sorted by</text></g><!--MD5=[05efbd378a35b06ae7cc73ad3162b47d]
@startuml
hide methods
left to right direction
class Company {
    -Designation
}

class CenterCoordinator {
-Name
-ID
-Password
}

class  SNSUser {
-CC Number
}
class SNSUserDTO{
    -Name
    -Sex
    -Birth Date
    -SNS User Number
    -Phone Number
}
class SNSUserStore
class BubbleSort{}
class InsertionSort{}

Company  - -  CenterCoordinator : Employs >
CenterCoordinator - - SNSUserDTO : Data Imported <
CenterCoordinator - - SNSUser : Imports >
Company - - SNSUserStore: Has >
Company - - VacCenter: Property of >
CenterCoordinator - - VacCenter: Works at >
BubbleSort - - VacCenter:  Data >
InsertionSort - - VacCenter:  Data >
SNSUserStore - - SNSUser: Contains >
SNSUserDTO - - SNSUser
CenterCoordinator - - BubbleSort : Data Sorted by >
CenterCoordinator - - InsertionSort : Data Sorted by >

@enduml

PlantUML version 1.2022.4(Sat Apr 09 14:29:17 BST 2022)
(GPL source distribution)
Java Runtime: OpenJDK Runtime Environment
JVM: OpenJDK 64-Bit Server VM
Default Encoding: Cp1252
Language: pt
Country: PT
--></g></svg>