<?xml version="1.0" encoding="UTF-8" standalone="no"?><svg xmlns="http://www.w3.org/2000/svg" xmlns:xlink="http://www.w3.org/1999/xlink" contentStyleType="text/css" height="474px" preserveAspectRatio="none" style="width:913px;height:474px;background:#FFFFFF;" version="1.1" viewBox="0 0 913 474" width="913.2px" zoomAndPan="magnify"><defs/><g><!--MD5=[64e2e010ba86d7988e5cd73bd64f61f9]
cluster ui--><g id="cluster_ui"><path d="M239.1,3.6 L248.1,3.6 A2.25,2.25 0 0 1 249.6,5.1 L253.8,17.093 L360.9,17.093 A1.5,1.5 0 0 1 362.4,18.593 L362.4,101.7 A1.5,1.5 0 0 1 360.9,103.2 L239.1,103.2 A1.5,1.5 0 0 1 237.6,101.7 L237.6,5.1 A1.5,1.5 0 0 1 239.1,3.6 " style="stroke:#000000;stroke-width:0.8999999999999999;fill:none;"/><line style="stroke:#000000;stroke-width:0.8999999999999999;fill:none;" x1="237.6" x2="253.8" y1="17.093" y2="17.093"/><text fill="#000000" font-family="sans-serif" font-size="8.4" font-weight="bold" lengthAdjust="spacing" textLength="8.4" x="240" y="12.9211">ui</text></g><!--MD5=[11b63f87f9efce6fda9831b98bfa73ba]
cluster gui--><g id="cluster_gui"><path d="M253.5,29.4 L267.9,29.4 A2.25,2.25 0 0 1 269.4,30.9 L273.6,42.893 L346.5,42.893 A1.5,1.5 0 0 1 348,44.393 L348,87.3 A1.5,1.5 0 0 1 346.5,88.8 L253.5,88.8 A1.5,1.5 0 0 1 252,87.3 L252,30.9 A1.5,1.5 0 0 1 253.5,29.4 " style="stroke:#000000;stroke-width:0.8999999999999999;fill:none;"/><line style="stroke:#000000;stroke-width:0.8999999999999999;fill:none;" x1="252" x2="273.6" y1="42.893" y2="42.893"/><text fill="#000000" font-family="sans-serif" font-size="8.4" font-weight="bold" lengthAdjust="spacing" textLength="13.8" x="254.4" y="38.7211">gui</text></g><!--MD5=[10ea673caf457862023e152271927b45]
cluster controller--><g id="cluster_controller"><path d="M480.9,123 L523.5,123 A2.25,2.25 0 0 1 525,124.5 L529.2,136.493 L644.7,136.493 A1.5,1.5 0 0 1 646.2,137.993 L646.2,200.7 A1.5,1.5 0 0 1 644.7,202.2 L480.9,202.2 A1.5,1.5 0 0 1 479.4,200.7 L479.4,124.5 A1.5,1.5 0 0 1 480.9,123 " style="stroke:#000000;stroke-width:0.8999999999999999;fill:none;"/><line style="stroke:#000000;stroke-width:0.8999999999999999;fill:none;" x1="479.4" x2="529.2" y1="136.493" y2="136.493"/><text fill="#000000" font-family="sans-serif" font-size="8.4" font-weight="bold" lengthAdjust="spacing" textLength="42" x="481.8" y="132.3211">controller</text></g><!--MD5=[27f772719433d509ddbc20ff768eba08]
cluster domain--><g id="cluster_domain"><path d="M356.7,222 L389.7,222 A2.25,2.25 0 0 1 391.2,223.5 L395.4,235.493 L907.5,235.493 A1.5,1.5 0 0 1 909,236.993 L909,468.3 A1.5,1.5 0 0 1 907.5,469.8 L356.7,469.8 A1.5,1.5 0 0 1 355.2,468.3 L355.2,223.5 A1.5,1.5 0 0 1 356.7,222 " style="stroke:#000000;stroke-width:0.8999999999999999;fill:none;"/><line style="stroke:#000000;stroke-width:0.8999999999999999;fill:none;" x1="355.2" x2="395.4" y1="235.493" y2="235.493"/><text fill="#000000" font-family="sans-serif" font-size="8.4" font-weight="bold" lengthAdjust="spacing" textLength="32.4" x="357.6" y="231.3211">domain</text></g><!--MD5=[5d4cd377749310b66bf14896f5cd8d9b]
cluster model--><g id="cluster_model"><path d="M371.1,376.2 L398.7,376.2 A2.25,2.25 0 0 1 400.2,377.7 L404.4,389.693 L893.1,389.693 A1.5,1.5 0 0 1 894.6,391.193 L894.6,453.9 A1.5,1.5 0 0 1 893.1,455.4 L371.1,455.4 A1.5,1.5 0 0 1 369.6,453.9 L369.6,377.7 A1.5,1.5 0 0 1 371.1,376.2 " style="stroke:#000000;stroke-width:0.8999999999999999;fill:none;"/><line style="stroke:#000000;stroke-width:0.8999999999999999;fill:none;" x1="369.6" x2="404.4" y1="389.693" y2="389.693"/><text fill="#000000" font-family="sans-serif" font-size="8.4" font-weight="bold" lengthAdjust="spacing" textLength="27" x="372" y="385.5211">model</text></g><!--MD5=[c23849cc5f4a85746a20de4317c530fc]
cluster store--><g id="cluster_store"><path d="M468.9,247.8 L491.7,247.8 A2.25,2.25 0 0 1 493.2,249.3 L497.4,261.293 L621.9,261.293 A1.5,1.5 0 0 1 623.4,262.793 L623.4,345.3 A1.5,1.5 0 0 1 621.9,346.8 L468.9,346.8 A1.5,1.5 0 0 1 467.4,345.3 L467.4,249.3 A1.5,1.5 0 0 1 468.9,247.8 " style="stroke:#000000;stroke-width:0.8999999999999999;fill:none;"/><line style="stroke:#000000;stroke-width:0.8999999999999999;fill:none;" x1="467.4" x2="497.4" y1="261.293" y2="261.293"/><text fill="#000000" font-family="sans-serif" font-size="8.4" font-weight="bold" lengthAdjust="spacing" textLength="22.2" x="469.8" y="257.1211">store</text></g><!--MD5=[e484dff12bc7e3f9ae9e3c87a060152b]
cluster mappers--><g id="cluster_mappers"><path d="M5.1,262.8 L42.9,262.8 A2.25,2.25 0 0 1 44.4,264.3 L48.6,276.293 L339.3,276.293 A1.5,1.5 0 0 1 340.8,277.793 L340.8,468.3 A1.5,1.5 0 0 1 339.3,469.8 L5.1,469.8 A1.5,1.5 0 0 1 3.6,468.3 L3.6,264.3 A1.5,1.5 0 0 1 5.1,262.8 " style="stroke:#000000;stroke-width:0.8999999999999999;fill:none;"/><line style="stroke:#000000;stroke-width:0.8999999999999999;fill:none;" x1="3.6" x2="48.6" y1="276.293" y2="276.293"/><text fill="#000000" font-family="sans-serif" font-size="8.4" font-weight="bold" lengthAdjust="spacing" textLength="37.2" x="6" y="272.1211">mappers</text></g><!--MD5=[e6eced616a98d47334dd1aaaa829ffd5]
cluster dto--><g id="cluster_dto"><path d="M19.5,376.2 L34.5,376.2 A2.25,2.25 0 0 1 36,377.7 L40.2,389.693 L324.9,389.693 A1.5,1.5 0 0 1 326.4,391.193 L326.4,453.9 A1.5,1.5 0 0 1 324.9,455.4 L19.5,455.4 A1.5,1.5 0 0 1 18,453.9 L18,377.7 A1.5,1.5 0 0 1 19.5,376.2 " style="stroke:#000000;stroke-width:0.8999999999999999;fill:none;"/><line style="stroke:#000000;stroke-width:0.8999999999999999;fill:none;" x1="18" x2="40.2" y1="389.693" y2="389.693"/><text fill="#000000" font-family="sans-serif" font-size="8.4" font-weight="bold" lengthAdjust="spacing" textLength="14.4" x="20.4" y="385.5211">dto</text></g><!--MD5=[4e2a4ce1e31641be4d5bcc692a2dac11]
class MainMenuGUI--><g id="elem_MainMenuGUI"><rect codeLine="4" fill="#F1F1F1" height="28.8" id="MainMenuGUI" rx="1.5" ry="1.5" style="stroke:#181818;stroke-width:0.3;" width="76.2" x="261.9" y="50.4"/><ellipse cx="270.9" cy="60" fill="#ADD1B2" rx="6.6" ry="6.6" style="stroke:#181818;stroke-width:0.6;"/><path d="M272.6839,63.3858 Q272.3353,63.5651 271.9518,63.6548 Q271.5683,63.7444 271.1449,63.7444 Q269.6408,63.7444 268.8489,62.7533 Q268.057,61.7622 268.057,59.8896 Q268.057,58.0119 268.8489,57.0208 Q269.6408,56.0297 271.1449,56.0297 Q271.5683,56.0297 271.9567,56.1193 Q272.3452,56.209 272.6839,56.3883 L272.6839,58.0219 Q272.3054,57.6732 271.9493,57.5114 Q271.5932,57.3495 271.2146,57.3495 Q270.4078,57.3495 269.9969,57.9895 Q269.586,58.6295 269.586,59.8896 Q269.586,61.1446 269.9969,61.7846 Q270.4078,62.4246 271.2146,62.4246 Q271.5932,62.4246 271.9493,62.2627 Q272.3054,62.1009 272.6839,61.7522 Z " fill="#000000"/><text fill="#000000" font-family="sans-serif" font-size="8.4" lengthAdjust="spacing" textLength="57" x="279.3" y="63.1746">MainMenuGUI</text><line style="stroke:#181818;stroke-width:0.3;" x1="262.5" x2="337.5" y1="69.6" y2="69.6"/><line style="stroke:#181818;stroke-width:0.3;" x1="262.5" x2="337.5" y1="74.4" y2="74.4"/></g><!--MD5=[f4b2f2d63a2975abc9018a7fca404971]
class VaccineCounterController--><g id="elem_VaccineCounterController"><rect codeLine="10" fill="#F1F1F1" height="48.5859" id="VaccineCounterController" rx="1.5" ry="1.5" style="stroke:#181818;stroke-width:0.3;" width="147" x="489.3" y="144"/><ellipse cx="507.75" cy="153.6" fill="#ADD1B2" rx="6.6" ry="6.6" style="stroke:#181818;stroke-width:0.6;"/><path d="M509.5339,156.9858 Q509.1853,157.1651 508.8018,157.2548 Q508.4183,157.3444 507.9949,157.3444 Q506.4908,157.3444 505.6989,156.3533 Q504.907,155.3622 504.907,153.4896 Q504.907,151.6119 505.6989,150.6208 Q506.4908,149.6297 507.9949,149.6297 Q508.4183,149.6297 508.8067,149.7193 Q509.1952,149.809 509.5339,149.9883 L509.5339,151.6219 Q509.1554,151.2732 508.7993,151.1114 Q508.4432,150.9495 508.0646,150.9495 Q507.2578,150.9495 506.8469,151.5895 Q506.436,152.2295 506.436,153.4896 Q506.436,154.7446 506.8469,155.3846 Q507.2578,156.0246 508.0646,156.0246 Q508.4432,156.0246 508.7993,155.8627 Q509.1554,155.7009 509.5339,155.3522 Z " fill="#000000"/><text fill="#000000" font-family="sans-serif" font-size="8.4" lengthAdjust="spacing" textLength="106.8" x="518.25" y="156.7746">VaccineCounterController</text><line style="stroke:#181818;stroke-width:0.3;" x1="489.9" x2="635.7" y1="163.2" y2="163.2"/><line style="stroke:#181818;stroke-width:0.3;" x1="489.9" x2="635.7" y1="168" y2="168"/><ellipse cx="495.9" cy="174.6" fill="#84BE84" rx="1.8" ry="1.8" style="stroke:#038048;stroke-width:0.6;"/><text fill="#000000" font-family="sans-serif" font-size="8.4" lengthAdjust="spacing" textLength="78" x="501.3" y="178.5211">readConfig(config)</text><ellipse cx="495.9" cy="184.493" fill="#84BE84" rx="1.8" ry="1.8" style="stroke:#038048;stroke-width:0.6;"/><text fill="#000000" font-family="sans-serif" font-size="8.4" lengthAdjust="spacing" textLength="131.4" x="501.3" y="188.4141">generateReport(CounterReport)</text></g><!--MD5=[02e4b9b7573f1156f41e60aa5b4e25a4]
class Company--><g id="elem_Company"><rect codeLine="19" fill="#F1F1F1" height="48.5859" id="Company" rx="1.5" ry="1.5" style="stroke:#181818;stroke-width:0.3;" width="98.4" x="496.2" y="397.2"/><ellipse cx="523.35" cy="406.8" fill="#ADD1B2" rx="6.6" ry="6.6" style="stroke:#181818;stroke-width:0.6;"/><path d="M525.1339,410.1858 Q524.7853,410.3651 524.4018,410.4548 Q524.0183,410.5444 523.5949,410.5444 Q522.0908,410.5444 521.2989,409.5533 Q520.507,408.5622 520.507,406.6896 Q520.507,404.8119 521.2989,403.8208 Q522.0908,402.8297 523.5949,402.8297 Q524.0183,402.8297 524.4067,402.9193 Q524.7952,403.009 525.1339,403.1883 L525.1339,404.8219 Q524.7554,404.4732 524.3993,404.3114 Q524.0432,404.1495 523.6646,404.1495 Q522.8578,404.1495 522.4469,404.7895 Q522.036,405.4295 522.036,406.6896 Q522.036,407.9446 522.4469,408.5846 Q522.8578,409.2246 523.6646,409.2246 Q524.0432,409.2246 524.3993,409.0627 Q524.7554,408.9009 525.1339,408.5522 Z " fill="#000000"/><text fill="#000000" font-family="sans-serif" font-size="8.4" lengthAdjust="spacing" textLength="39" x="535.65" y="409.9746">Company</text><line style="stroke:#181818;stroke-width:0.3;" x1="496.8" x2="594" y1="416.4" y2="416.4"/><line style="stroke:#181818;stroke-width:0.3;" x1="496.8" x2="594" y1="421.2" y2="421.2"/><ellipse cx="502.8" cy="427.8" fill="#84BE84" rx="1.8" ry="1.8" style="stroke:#038048;stroke-width:0.6;"/><text fill="#000000" font-family="sans-serif" font-size="8.4" lengthAdjust="spacing" textLength="81" x="508.2" y="431.7211">getVaccenterStore()</text><ellipse cx="502.8" cy="437.693" fill="#84BE84" rx="1.8" ry="1.8" style="stroke:#038048;stroke-width:0.6;"/><text fill="#000000" font-family="sans-serif" font-size="8.4" lengthAdjust="spacing" textLength="82.8" x="508.2" y="441.6141">getVacCenterStore()</text></g><!--MD5=[2d79038c47220fe42289d1af94ce7ddb]
class CounterReport--><g id="elem_CounterReport"><rect codeLine="23" fill="#F1F1F1" height="28.8" id="CounterReport" rx="1.5" ry="1.5" style="stroke:#181818;stroke-width:0.3;" width="80.4" x="615.6" y="407.1"/><ellipse cx="624.6" cy="416.7" fill="#ADD1B2" rx="6.6" ry="6.6" style="stroke:#181818;stroke-width:0.6;"/><path d="M626.3839,420.0858 Q626.0353,420.2651 625.6518,420.3548 Q625.2683,420.4444 624.8449,420.4444 Q623.3408,420.4444 622.5489,419.4533 Q621.757,418.4622 621.757,416.5896 Q621.757,414.7119 622.5489,413.7208 Q623.3408,412.7297 624.8449,412.7297 Q625.2683,412.7297 625.6567,412.8193 Q626.0452,412.909 626.3839,413.0883 L626.3839,414.7219 Q626.0054,414.3732 625.6493,414.2114 Q625.2932,414.0495 624.9146,414.0495 Q624.1078,414.0495 623.6969,414.6895 Q623.286,415.3295 623.286,416.5896 Q623.286,417.8446 623.6969,418.4846 Q624.1078,419.1246 624.9146,419.1246 Q625.2932,419.1246 625.6493,418.9627 Q626.0054,418.8009 626.3839,418.4522 Z " fill="#000000"/><text fill="#000000" font-family="sans-serif" font-size="8.4" lengthAdjust="spacing" textLength="61.2" x="633" y="419.8746">CounterReport</text><line style="stroke:#181818;stroke-width:0.3;" x1="616.2" x2="695.4" y1="426.3" y2="426.3"/><line style="stroke:#181818;stroke-width:0.3;" x1="616.2" x2="695.4" y1="431.1" y2="431.1"/></g><!--MD5=[5ef73c6abc8944ef07d55bb94472fc3c]
class FinalReport--><g id="elem_FinalReport"><rect codeLine="27" fill="#F1F1F1" height="28.8" id="FinalReport" rx="1.5" ry="1.5" style="stroke:#181818;stroke-width:0.3;" width="66.6" x="818.1" y="407.1"/><ellipse cx="827.1" cy="416.7" fill="#ADD1B2" rx="6.6" ry="6.6" style="stroke:#181818;stroke-width:0.6;"/><path d="M828.8839,420.0858 Q828.5353,420.2651 828.1518,420.3548 Q827.7683,420.4444 827.3449,420.4444 Q825.8408,420.4444 825.0489,419.4533 Q824.257,418.4622 824.257,416.5896 Q824.257,414.7119 825.0489,413.7208 Q825.8408,412.7297 827.3449,412.7297 Q827.7683,412.7297 828.1567,412.8193 Q828.5452,412.909 828.8839,413.0883 L828.8839,414.7219 Q828.5054,414.3732 828.1493,414.2114 Q827.7932,414.0495 827.4146,414.0495 Q826.6078,414.0495 826.1969,414.6895 Q825.786,415.3295 825.786,416.5896 Q825.786,417.8446 826.1969,418.4846 Q826.6078,419.1246 827.4146,419.1246 Q827.7932,419.1246 828.1493,418.9627 Q828.5054,418.8009 828.8839,418.4522 Z " fill="#000000"/><text fill="#000000" font-family="sans-serif" font-size="8.4" lengthAdjust="spacing" textLength="47.4" x="835.5" y="419.8746">FinalReport</text><line style="stroke:#181818;stroke-width:0.3;" x1="818.7" x2="884.1" y1="426.3" y2="426.3"/><line style="stroke:#181818;stroke-width:0.3;" x1="818.7" x2="884.1" y1="431.1" y2="431.1"/></g><!--MD5=[c58fdcae378c37e7b89ecb70b8238a20]
class VacCenter--><g id="elem_VacCenter"><rect codeLine="31" fill="#F1F1F1" height="48.5859" id="VacCenter" rx="1.5" ry="1.5" style="stroke:#181818;stroke-width:0.3;" width="95.4" x="379.5" y="397.2"/><ellipse cx="403.89" cy="406.8" fill="#ADD1B2" rx="6.6" ry="6.6" style="stroke:#181818;stroke-width:0.6;"/><path d="M405.6739,410.1858 Q405.3253,410.3651 404.9418,410.4548 Q404.5583,410.5444 404.1349,410.5444 Q402.6308,410.5444 401.8389,409.5533 Q401.047,408.5622 401.047,406.6896 Q401.047,404.8119 401.8389,403.8208 Q402.6308,402.8297 404.1349,402.8297 Q404.5583,402.8297 404.9467,402.9193 Q405.3352,403.009 405.6739,403.1883 L405.6739,404.8219 Q405.2954,404.4732 404.9393,404.3114 Q404.5832,404.1495 404.2046,404.1495 Q403.3978,404.1495 402.9869,404.7895 Q402.576,405.4295 402.576,406.6896 Q402.576,407.9446 402.9869,408.5846 Q403.3978,409.2246 404.2046,409.2246 Q404.5832,409.2246 404.9393,409.0627 Q405.2954,408.9009 405.6739,408.5522 Z " fill="#000000"/><text fill="#000000" font-family="sans-serif" font-size="8.4" lengthAdjust="spacing" textLength="42" x="415.71" y="409.9746">VacCenter</text><line style="stroke:#181818;stroke-width:0.3;" x1="380.1" x2="474.3" y1="416.4" y2="416.4"/><line style="stroke:#181818;stroke-width:0.3;" x1="380.1" x2="474.3" y1="421.2" y2="421.2"/><ellipse cx="386.1" cy="427.8" fill="#84BE84" rx="1.8" ry="1.8" style="stroke:#038048;stroke-width:0.6;"/><text fill="#000000" font-family="sans-serif" font-size="8.4" lengthAdjust="spacing" textLength="42.6" x="391.5" y="431.7211">getName()</text><ellipse cx="386.1" cy="437.693" fill="#84BE84" rx="1.8" ry="1.8" style="stroke:#038048;stroke-width:0.6;"/><text fill="#000000" font-family="sans-serif" font-size="8.4" lengthAdjust="spacing" textLength="79.8" x="391.5" y="441.6141">getRecoveryRoom()</text></g><!--MD5=[f24502e7c9b1056c4d1f73c3d80dda4c]
class RecoveryRoom--><g id="elem_RecoveryRoom"><rect codeLine="36" fill="#F1F1F1" height="28.8" id="RecoveryRoom" rx="1.5" ry="1.5" style="stroke:#181818;stroke-width:0.3;" width="79.8" x="717.3" y="407.1"/><ellipse cx="726.3" cy="416.7" fill="#ADD1B2" rx="6.6" ry="6.6" style="stroke:#181818;stroke-width:0.6;"/><path d="M728.0839,420.0858 Q727.7353,420.2651 727.3518,420.3548 Q726.9683,420.4444 726.5449,420.4444 Q725.0408,420.4444 724.2489,419.4533 Q723.457,418.4622 723.457,416.5896 Q723.457,414.7119 724.2489,413.7208 Q725.0408,412.7297 726.5449,412.7297 Q726.9683,412.7297 727.3567,412.8193 Q727.7452,412.909 728.0839,413.0883 L728.0839,414.7219 Q727.7054,414.3732 727.3493,414.2114 Q726.9932,414.0495 726.6146,414.0495 Q725.8078,414.0495 725.3969,414.6895 Q724.986,415.3295 724.986,416.5896 Q724.986,417.8446 725.3969,418.4846 Q725.8078,419.1246 726.6146,419.1246 Q726.9932,419.1246 727.3493,418.9627 Q727.7054,418.8009 728.0839,418.4522 Z " fill="#000000"/><text fill="#000000" font-family="sans-serif" font-size="8.4" lengthAdjust="spacing" textLength="60.6" x="734.7" y="419.8746">RecoveryRoom</text><line style="stroke:#181818;stroke-width:0.3;" x1="717.9" x2="796.5" y1="426.3" y2="426.3"/><line style="stroke:#181818;stroke-width:0.3;" x1="717.9" x2="796.5" y1="431.1" y2="431.1"/></g><!--MD5=[9aa93189374d0270a8601841466c0d9a]
class VacCenterStore--><g id="elem_VacCenterStore"><rect codeLine="45" fill="#F1F1F1" height="68.3719" id="VacCenterStore" rx="1.5" ry="1.5" style="stroke:#181818;stroke-width:0.3;" width="136.2" x="477.3" y="268.8"/><ellipse cx="511.05" cy="278.4" fill="#ADD1B2" rx="6.6" ry="6.6" style="stroke:#181818;stroke-width:0.6;"/><path d="M512.8339,281.7858 Q512.4853,281.9651 512.1018,282.0548 Q511.7183,282.1444 511.2949,282.1444 Q509.7908,282.1444 508.9989,281.1533 Q508.207,280.1622 508.207,278.2896 Q508.207,276.4119 508.9989,275.4208 Q509.7908,274.4297 511.2949,274.4297 Q511.7183,274.4297 512.1067,274.5193 Q512.4952,274.609 512.8339,274.7883 L512.8339,276.4219 Q512.4554,276.0732 512.0993,275.9114 Q511.7432,275.7495 511.3646,275.7495 Q510.5578,275.7495 510.1469,276.3895 Q509.736,277.0295 509.736,278.2896 Q509.736,279.5446 510.1469,280.1846 Q510.5578,280.8246 511.3646,280.8246 Q511.7432,280.8246 512.0993,280.6627 Q512.4554,280.5009 512.8339,280.1522 Z " fill="#000000"/><text fill="#000000" font-family="sans-serif" font-size="8.4" lengthAdjust="spacing" textLength="63.6" x="523.35" y="281.5746">VacCenterStore</text><line style="stroke:#181818;stroke-width:0.3;" x1="477.9" x2="612.9" y1="288" y2="288"/><line style="stroke:#181818;stroke-width:0.3;" x1="477.9" x2="612.9" y1="292.8" y2="292.8"/><ellipse cx="483.9" cy="299.4" fill="#84BE84" rx="1.8" ry="1.8" style="stroke:#038048;stroke-width:0.6;"/><text fill="#000000" font-family="sans-serif" font-size="8.4" lengthAdjust="spacing" textLength="106.8" x="489.3" y="303.3211">countVaccines(VacCenter)</text><ellipse cx="483.9" cy="309.293" fill="#84BE84" rx="1.8" ry="1.8" style="stroke:#038048;stroke-width:0.6;"/><text fill="#000000" font-family="sans-serif" font-size="8.4" lengthAdjust="spacing" textLength="110.4" x="489.3" y="313.2141">getVaccinationCenter(vcId)</text><ellipse cx="483.9" cy="319.1859" fill="#84BE84" rx="1.8" ry="1.8" style="stroke:#038048;stroke-width:0.6;"/><text fill="#000000" font-family="sans-serif" font-size="8.4" lengthAdjust="spacing" textLength="108" x="489.3" y="323.107">getVaccinationCenterList()</text><ellipse cx="483.9" cy="329.0789" fill="#84BE84" rx="1.8" ry="1.8" style="stroke:#038048;stroke-width:0.6;"/><text fill="#000000" font-family="sans-serif" font-size="8.4" lengthAdjust="spacing" textLength="120.6" x="489.3" y="333">getRecoveryRoom(vacCenter)</text></g><!--MD5=[f7c67bc1ef36d5d8df4ebb55a80953b6]
class VaccinationCenterMapper--><g id="elem_VaccinationCenterMapper"><rect codeLine="60" fill="#F1F1F1" height="38.693" id="VaccinationCenterMapper" rx="1.5" ry="1.5" style="stroke:#181818;stroke-width:0.3;" width="130.2" x="200.7" y="283.8"/><ellipse cx="211.86" cy="293.4" fill="#ADD1B2" rx="6.6" ry="6.6" style="stroke:#181818;stroke-width:0.6;"/><path d="M213.6439,296.7858 Q213.2953,296.9651 212.9118,297.0548 Q212.5283,297.1444 212.1049,297.1444 Q210.6008,297.1444 209.8089,296.1533 Q209.017,295.1622 209.017,293.2896 Q209.017,291.4119 209.8089,290.4208 Q210.6008,289.4297 212.1049,289.4297 Q212.5283,289.4297 212.9167,289.5193 Q213.3052,289.609 213.6439,289.7883 L213.6439,291.4219 Q213.2654,291.0732 212.9093,290.9114 Q212.5532,290.7495 212.1746,290.7495 Q211.3678,290.7495 210.9569,291.3895 Q210.546,292.0295 210.546,293.2896 Q210.546,294.5446 210.9569,295.1846 Q211.3678,295.8246 212.1746,295.8246 Q212.5532,295.8246 212.9093,295.6627 Q213.2654,295.5009 213.6439,295.1522 Z " fill="#000000"/><text fill="#000000" font-family="sans-serif" font-size="8.4" lengthAdjust="spacing" textLength="106.2" x="220.74" y="296.5746">VaccinationCenterMapper</text><line style="stroke:#181818;stroke-width:0.3;" x1="201.3" x2="330.3" y1="303" y2="303"/><line style="stroke:#181818;stroke-width:0.3;" x1="201.3" x2="330.3" y1="307.8" y2="307.8"/><ellipse cx="207.3" cy="314.4" fill="#84BE84" rx="1.8" ry="1.8" style="stroke:#038048;stroke-width:0.6;"/><text fill="#000000" font-family="sans-serif" font-size="8.4" lengthAdjust="spacing" textLength="114.6" x="212.7" y="318.3211">toDto(vaccinationCenterlist)</text></g><!--MD5=[2b8f4030bc1ab3df70a349533220d56a]
class VaccinationCenterDto--><g id="elem_VaccinationCenterDto"><rect codeLine="66" fill="#F1F1F1" height="48.5859" id="VaccinationCenterDto" rx="1.5" ry="1.5" style="stroke:#181818;stroke-width:0.3;" width="288.6" x="27.9" y="397.2"/><ellipse cx="124.95" cy="406.8" fill="#ADD1B2" rx="6.6" ry="6.6" style="stroke:#181818;stroke-width:0.6;"/><path d="M126.7339,410.1858 Q126.3853,410.3651 126.0018,410.4548 Q125.6183,410.5444 125.1949,410.5444 Q123.6908,410.5444 122.8989,409.5533 Q122.107,408.5622 122.107,406.6896 Q122.107,404.8119 122.8989,403.8208 Q123.6908,402.8297 125.1949,402.8297 Q125.6183,402.8297 126.0067,402.9193 Q126.3952,403.009 126.7339,403.1883 L126.7339,404.8219 Q126.3554,404.4732 125.9993,404.3114 Q125.6432,404.1495 125.2646,404.1495 Q124.4578,404.1495 124.0469,404.7895 Q123.636,405.4295 123.636,406.6896 Q123.636,407.9446 124.0469,408.5846 Q124.4578,409.2246 125.2646,409.2246 Q125.6432,409.2246 125.9993,409.0627 Q126.3554,408.9009 126.7339,408.5522 Z " fill="#000000"/><text fill="#000000" font-family="sans-serif" font-size="8.4" lengthAdjust="spacing" textLength="89.4" x="137.25" y="409.9746">VaccinationCenterDto</text><line style="stroke:#181818;stroke-width:0.3;" x1="28.5" x2="315.9" y1="416.4" y2="416.4"/><line style="stroke:#181818;stroke-width:0.3;" x1="28.5" x2="315.9" y1="421.2" y2="421.2"/><ellipse cx="34.5" cy="427.8" fill="#84BE84" rx="1.8" ry="1.8" style="stroke:#038048;stroke-width:0.6;"/><text fill="#000000" font-family="sans-serif" font-size="8.4" lengthAdjust="spacing" textLength="240" x="39.9" y="431.7211">create(vaccinationCenterName, vaccinationCenterAddress,</text><text fill="#000000" font-family="sans-serif" font-size="8.4" lengthAdjust="spacing" textLength="273" x="39.9" y="441.6141">vaccinationCenterPhoneNumber, vaccinationCenterPhoneNumber)</text></g><!--MD5=[57546963cc44a5b992b609e170624c29]
link MainMenuGUI to VaccineCounterController--><g id="link_MainMenuGUI_VaccineCounterController"><path codeLine="80" d="M335.718,79.302 C377.52,95.574 447.54,122.832 498.798,142.788 " fill="none" id="MainMenuGUI-to-VaccineCounterController" style="stroke:#181818;stroke-width:0.6;stroke-dasharray:7.0,7.0;"/><polygon fill="#181818" points="501.684,143.91,497.5235,139.7135,498.8886,142.821,495.7811,144.1861,501.684,143.91" style="stroke:#181818;stroke-width:0.6;"/></g><!--MD5=[3e98268e0d3711c01ea11776e2b02420]
link MainMenuGUI to VaccinationCenterDto--><g id="link_MainMenuGUI_VaccinationCenterDto"><path codeLine="81" d="M284.022,79.374 C257.118,104.046 203.586,158.304 181.8,217.2 C159.594,277.23 163.962,354.066 168.45,394.032 " fill="none" id="MainMenuGUI-to-VaccinationCenterDto" style="stroke:#181818;stroke-width:0.6;stroke-dasharray:7.0,7.0;"/><polygon fill="#181818" points="168.798,397.074,170.5657,391.4353,168.4554,394.0936,165.7971,391.9834,168.798,397.074" style="stroke:#181818;stroke-width:0.6;"/></g><!--MD5=[79889cbbc1d67bef527848f925c44ff0]
link VaccineCounterController to Company--><g id="link_VaccineCounterController_Company"><path codeLine="82" d="M600.516,192.612 C609.126,199.596 617.472,207.894 623.4,217.2 C659.976,274.596 702.84,316.296 657,366.6 C649.242,375.114 616.044,367.008 605.4,371.4 C592.404,376.764 580.05,385.95 569.97,394.968 " fill="none" id="VaccineCounterController-to-Company" style="stroke:#181818;stroke-width:0.6;stroke-dasharray:7.0,7.0;"/><polygon fill="#181818" points="567.726,397.008,573.3414,395.1676,569.9516,394.9964,570.1228,391.6066,567.726,397.008" style="stroke:#181818;stroke-width:0.6;"/></g><!--MD5=[b39c4a371b870d6cdd327138be0c4735]
link VaccineCounterController to VaccinationCenterMapper--><g id="link_VaccineCounterController_VaccinationCenterMapper"><path codeLine="83" d="M510.042,192.612 C453.138,218.19 363.528,258.474 310.128,282.474 " fill="none" id="VaccineCounterController-to-VaccinationCenterMapper" style="stroke:#181818;stroke-width:0.6;stroke-dasharray:7.0,7.0;"/><polygon fill="#181818" points="307.296,283.746,313.2053,283.7271,310.0335,282.5188,311.2418,279.3471,307.296,283.746" style="stroke:#181818;stroke-width:0.6;"/></g><!--MD5=[6d3ae4733c06e7407a5f4901a0487bde]
link Company to VacCenterStore--><g id="link_Company_VacCenterStore"><path codeLine="84" d="M519.888,396.954 C512.304,388.218 504.972,377.724 501,366.6 C497.7,357.348 499.944,348.222 504.822,339.912 " fill="none" id="Company-to-VacCenterStore" style="stroke:#181818;stroke-width:0.6;"/><polygon fill="#181818" points="506.418,337.362,501.5258,340.6766,504.8319,339.9084,505.6001,343.2144,506.418,337.362" style="stroke:#181818;stroke-width:0.6;"/><text fill="#000000" font-family="sans-serif" font-size="7.8" lengthAdjust="spacing" textLength="17.4" x="501.6" y="364.541">uses</text><text fill="#000000" font-family="sans-serif" font-size="7.8" lengthAdjust="spacing" textLength="4.8" x="510.4651" y="390.7009">1</text><text fill="#000000" font-family="sans-serif" font-size="7.8" lengthAdjust="spacing" textLength="4.8" x="496.8332" y="349.4088">1</text></g><!--MD5=[6d3ae4733c06e7407a5f4901a0487bde]
link Company to VacCenterStore--><g id="link_Company_VacCenterStore"><path codeLine="85" d="M544.23,397.164 C543.756,384.978 543.372,369.894 543.6,356.4 C543.684,351.312 543.822,345.948 543.978,340.668 " fill="none" id="Company-to-VacCenterStore-1" style="stroke:#181818;stroke-width:0.6;"/><polygon fill="#181818" points="544.074,337.398,541.5056,342.7199,543.9798,340.3965,546.3032,342.8707,544.074,337.398" style="stroke:#181818;stroke-width:0.6;"/><text fill="#000000" font-family="sans-serif" font-size="7.8" lengthAdjust="spacing" textLength="17.4" x="544.2" y="364.541">uses</text><text fill="#000000" font-family="sans-serif" font-size="7.8" lengthAdjust="spacing" textLength="4.8" x="538.8164" y="390.766">1</text><text fill="#000000" font-family="sans-serif" font-size="7.8" lengthAdjust="spacing" textLength="4.8" x="538.8432" y="349.449">1</text></g><!--MD5=[617e70bb914bbad45c3715247c00d65c]
link VaccineCounterController to FinalReport--><g id="link_VaccineCounterController_FinalReport"><path codeLine="86" d="M623.328,192.66 C637.734,199.572 652.62,207.828 665.4,217.2 C742.89,274.05 813.192,366.948 839.952,404.442 " fill="none" id="VaccineCounterController-to-FinalReport" style="stroke:#181818;stroke-width:0.6;"/><polygon fill="#181818" points="841.806,407.04,840.651,401.2447,840.0753,404.5896,836.7304,404.0138,841.806,407.04" style="stroke:#181818;stroke-width:0.6;"/><text fill="#000000" font-family="sans-serif" font-size="7.8" lengthAdjust="spacing" textLength="27" x="798" y="306.041">creates</text><text fill="#000000" font-family="sans-serif" font-size="7.8" lengthAdjust="spacing" textLength="4.8" x="628.1555" y="204.9975">1</text><text fill="#000000" font-family="sans-serif" font-size="7.8" lengthAdjust="spacing" textLength="3.6" x="835.2863" y="400.7464">*</text></g><!--MD5=[7157d0a2283f6378cabcf19c92a14c0d]
link VaccinationCenterMapper to VaccinationCenterDto--><g id="link_VaccinationCenterMapper_VaccinationCenterDto"><path codeLine="87" d="M250.764,322.446 C235.158,342.006 210.63,372.744 193.134,394.668 " fill="none" id="VaccinationCenterMapper-to-VaccinationCenterDto" style="stroke:#181818;stroke-width:0.6;stroke-dasharray:7.0,7.0;"/><polygon fill="#181818" points="191.25,397.026,196.495,394.3039,193.122,394.6817,192.7442,391.3087,191.25,397.026" style="stroke:#181818;stroke-width:0.6;"/></g><!--MD5=[a8a08ad13b1b00e643f6df26b218f1de]
link VaccinationCenterMapper to VacCenter--><g id="link_VaccinationCenterMapper_VacCenter"><path codeLine="88" d="M291.552,322.314 C318.732,342.072 361.752,373.338 392.046,395.352 " fill="none" id="VaccinationCenterMapper-to-VacCenter" style="stroke:#181818;stroke-width:0.6;stroke-dasharray:7.0,7.0;"/><polygon fill="#181818" points="394.572,397.188,391.6186,392.0697,392.1465,395.4225,388.7937,395.9504,394.572,397.188" style="stroke:#181818;stroke-width:0.6;"/></g><!--MD5=[752c3d6d7e8097219ba821f3f6bb70fc]
link VacCenterStore to VacCenter--><g id="link_VacCenterStore_VacCenter"><path codeLine="89" d="M490.56,337.248 C482.772,343.152 475.188,349.602 468.6,356.4 C457.752,367.596 448.164,382.056 440.952,394.446 " fill="none" id="VacCenterStore-to-VacCenter" style="stroke:#181818;stroke-width:0.6;"/><polygon fill="#181818" points="439.446,397.056,444.225,393.5802,440.9464,394.4582,440.0685,391.1796,439.446,397.056" style="stroke:#181818;stroke-width:0.6;"/><text fill="#000000" font-family="sans-serif" font-size="7.8" lengthAdjust="spacing" textLength="24.6" x="469.2" y="364.541">knows</text></g><!--MD5=[aa041acd0e08d9ec58c31c7aab5579bd]
link VacCenterStore to RecoveryRoom--><g id="link_VacCenterStore_RecoveryRoom"><path codeLine="90" d="M613.656,325.698 C643.56,337.008 678.27,352.422 706.8,371.4 C720.756,380.682 734.172,394.164 743.652,404.712 " fill="none" id="VacCenterStore-to-RecoveryRoom" style="stroke:#181818;stroke-width:0.6;"/><polygon fill="#181818" points="745.734,407.052,743.9282,401.4254,743.7361,404.814,740.3474,404.622,745.734,407.052" style="stroke:#181818;stroke-width:0.6;"/><text fill="#000000" font-family="sans-serif" font-size="7.8" lengthAdjust="spacing" textLength="24.6" x="699" y="364.541">knows</text></g><!--MD5=[aa35e4b7b1a8af35cf38af857a2223ae]
link VacCenterStore to CounterReport--><g id="link_VacCenterStore_CounterReport"><path codeLine="91" d="M560.868,337.32 C567.312,348.09 575.76,359.136 586.2,366.6 C593.358,371.712 597.726,367.098 605.4,371.4 C620.322,379.758 633.942,393.702 643.248,404.658 " fill="none" id="VacCenterStore-to-CounterReport" style="stroke:#181818;stroke-width:0.6;"/><polygon fill="#181818" points="645.288,407.094,643.6539,401.4151,643.359,404.7964,639.9778,404.5015,645.288,407.094" style="stroke:#181818;stroke-width:0.6;"/><text fill="#000000" font-family="sans-serif" font-size="7.8" lengthAdjust="spacing" textLength="17.4" x="586.8" y="364.541">uses</text></g><!--MD5=[7d99c881052a737afdaaa130ca9cc895]
@startuml

package ui {
package gui {
class MainMenuGUI {
}
}
}

package controller {
class VaccineCounterController {
    +readConfig(config)
    +generateReport(CounterReport)

}
}

package domain {
package model{
class Company {
    +getVaccenterStore()
    +getVacCenterStore()
}
class CounterReport{

}

class FinalReport{}



class VacCenter{
+getName()
+getRecoveryRoom()
}

class RecoveryRoom{

}
}

package store{
class VacCenterStore {
     +countVaccines(VacCenter)
}
class VacCenterStore {
    +getVaccinationCenter(vcId)
    +getVaccinationCenterList()
    +getRecoveryRoom(vacCenter)
}



}
}

package mappers{



class VaccinationCenterMapper{
+toDto(vaccinationCenterlist)
}
package dto{


class VaccinationCenterDto{
+ create(vaccinationCenterName, vaccinationCenterAddress, \nvaccinationCenterPhoneNumber, vaccinationCenterPhoneNumber)
}
}
}









MainMenuGUI ..> VaccineCounterController
MainMenuGUI ..> VaccinationCenterDto
VaccineCounterController ..> Company
VaccineCounterController ..> VaccinationCenterMapper
Company "1" - - -> "1" VacCenterStore: uses
Company "1" - - -> "1" VacCenterStore: uses
VaccineCounterController "1" - -> "*" FinalReport: creates
VaccinationCenterMapper ..> VaccinationCenterDto
VaccinationCenterMapper ..> VacCenter
VacCenterStore - -> VacCenter : knows
VacCenterStore - -> RecoveryRoom : knows
VacCenterStore - -> CounterReport: uses
@enduml

PlantUML version 1.2022.5(Sat Apr 30 11:55:52 WEST 2022)
(GPL source distribution)
Java Runtime: OpenJDK Runtime Environment
JVM: OpenJDK 64-Bit Server VM
Default Encoding: UTF-8
Language: pt
Country: PT
--></g></svg>