<?xml version="1.0" encoding="UTF-8" standalone="no"?><svg xmlns="http://www.w3.org/2000/svg" xmlns:xlink="http://www.w3.org/1999/xlink" contentStyleType="text/css" height="641px" preserveAspectRatio="none" style="width:1003px;height:641px;background:#FFFFFF;" version="1.1" viewBox="0 0 1003 641" width="1003px" zoomAndPan="magnify"><defs/><g><!--MD5=[02e4b9b7573f1156f41e60aa5b4e25a4]
class Company--><g id="elem_Company"><rect codeLine="4" fill="#F1F1F1" height="64.4883" id="Company" rx="2.5" ry="2.5" style="stroke:#181818;stroke-width:0.5;" width="108" x="7" y="455.2422"/><ellipse cx="26.95" cy="471.2422" fill="#ADD1B2" rx="11" ry="11" style="stroke:#181818;stroke-width:1.0;"/><path d="M29.4231,477.3853 Q28.8421,477.6841 28.2029,477.8335 Q27.5638,477.9829 26.8582,477.9829 Q24.3514,477.9829 23.0315,476.3311 Q21.7117,474.6792 21.7117,471.5581 Q21.7117,468.4287 23.0315,466.7769 Q24.3514,465.125 26.8582,465.125 Q27.5638,465.125 28.2112,465.2744 Q28.8587,465.4238 29.4231,465.7227 L29.4231,468.4453 Q28.7923,467.8643 28.1988,467.5945 Q27.6053,467.3247 26.9744,467.3247 Q25.6297,467.3247 24.9449,468.3914 Q24.2601,469.458 24.2601,471.5581 Q24.2601,473.6499 24.9449,474.7166 Q25.6297,475.7832 26.9744,475.7832 Q27.6053,475.7832 28.1988,475.5134 Q28.7923,475.2437 29.4231,474.6626 Z " fill="#000000"/><text fill="#000000" font-family="sans-serif" font-size="14" lengthAdjust="spacing" textLength="65" x="42.05" y="476.5332">Company</text><line style="stroke:#181818;stroke-width:0.5;" x1="8" x2="114" y1="487.2422" y2="487.2422"/><rect fill="none" height="6" style="stroke:#C82930;stroke-width:1.0;" width="6" x="15" y="495.2422"/><text fill="#000000" font-family="sans-serif" font-size="14" lengthAdjust="spacing" textLength="82" x="27" y="504.7773">Designation</text><line style="stroke:#181818;stroke-width:0.5;" x1="8" x2="114" y1="511.7305" y2="511.7305"/></g><!--MD5=[2d935fd2dd068a13da1ae531f9857c4f]
class CenterCoordinator--><g id="elem_CenterCoordinator"><rect codeLine="8" fill="#F1F1F1" height="80.9766" id="CenterCoordinator" rx="2.5" ry="2.5" style="stroke:#181818;stroke-width:0.5;" width="162" x="243" y="376.7422"/><ellipse cx="258" cy="392.7422" fill="#ADD1B2" rx="11" ry="11" style="stroke:#181818;stroke-width:1.0;"/><path d="M260.4731,398.8853 Q259.8921,399.1841 259.2529,399.3335 Q258.6138,399.4829 257.9082,399.4829 Q255.4014,399.4829 254.0815,397.8311 Q252.7617,396.1792 252.7617,393.0581 Q252.7617,389.9287 254.0815,388.2769 Q255.4014,386.625 257.9082,386.625 Q258.6138,386.625 259.2612,386.7744 Q259.9087,386.9238 260.4731,387.2227 L260.4731,389.9453 Q259.8423,389.3643 259.2488,389.0945 Q258.6553,388.8247 258.0244,388.8247 Q256.6797,388.8247 255.9949,389.8914 Q255.3101,390.958 255.3101,393.0581 Q255.3101,395.1499 255.9949,396.2166 Q256.6797,397.2832 258.0244,397.2832 Q258.6553,397.2832 259.2488,397.0134 Q259.8423,396.7437 260.4731,396.1626 Z " fill="#000000"/><text fill="#000000" font-family="sans-serif" font-size="14" lengthAdjust="spacing" textLength="130" x="272" y="398.0332">CenterCoordinator</text><line style="stroke:#181818;stroke-width:0.5;" x1="244" x2="404" y1="408.7422" y2="408.7422"/><rect fill="none" height="6" style="stroke:#C82930;stroke-width:1.0;" width="6" x="251" y="416.7422"/><text fill="#000000" font-family="sans-serif" font-size="14" lengthAdjust="spacing" textLength="37" x="263" y="426.2773">Email</text><rect fill="none" height="6" style="stroke:#C82930;stroke-width:1.0;" width="6" x="251" y="433.2305"/><text fill="#000000" font-family="sans-serif" font-size="14" lengthAdjust="spacing" textLength="65" x="263" y="442.7656">Password</text><line style="stroke:#181818;stroke-width:0.5;" x1="244" x2="404" y1="449.7188" y2="449.7188"/></g><!--MD5=[c58fdcae378c37e7b89ecb70b8238a20]
class VacCenter--><g id="elem_VacCenter"><rect codeLine="13" fill="#F1F1F1" height="48" id="VacCenter" rx="2.5" ry="2.5" style="stroke:#181818;stroke-width:0.5;" width="102" x="571.5" y="427.2422"/><ellipse cx="586.5" cy="443.2422" fill="#ADD1B2" rx="11" ry="11" style="stroke:#181818;stroke-width:1.0;"/><path d="M588.9731,449.3853 Q588.3921,449.6841 587.7529,449.8335 Q587.1138,449.9829 586.4082,449.9829 Q583.9014,449.9829 582.5815,448.3311 Q581.2617,446.6792 581.2617,443.5581 Q581.2617,440.4287 582.5815,438.7769 Q583.9014,437.125 586.4082,437.125 Q587.1138,437.125 587.7612,437.2744 Q588.4087,437.4238 588.9731,437.7227 L588.9731,440.4453 Q588.3423,439.8643 587.7488,439.5945 Q587.1553,439.3247 586.5244,439.3247 Q585.1797,439.3247 584.4949,440.3914 Q583.8101,441.458 583.8101,443.5581 Q583.8101,445.6499 584.4949,446.7166 Q585.1797,447.7832 586.5244,447.7832 Q587.1553,447.7832 587.7488,447.5134 Q588.3423,447.2437 588.9731,446.6626 Z " fill="#000000"/><text fill="#000000" font-family="sans-serif" font-size="14" lengthAdjust="spacing" textLength="70" x="600.5" y="448.5332">VacCenter</text><line style="stroke:#181818;stroke-width:0.5;" x1="572.5" x2="672.5" y1="459.2422" y2="459.2422"/><line style="stroke:#181818;stroke-width:0.5;" x1="572.5" x2="672.5" y1="467.2422" y2="467.2422"/></g><!--MD5=[8900b8126f988052b90f9f1b0582e804]
class Algorithm--><g id="elem_Algorithm"><rect codeLine="17" fill="#F1F1F1" height="64.4883" id="Algorithm" rx="2.5" ry="2.5" style="stroke:#181818;stroke-width:0.5;" width="104" x="570.5" y="328.2422"/><ellipse cx="586.85" cy="344.2422" fill="#ADD1B2" rx="11" ry="11" style="stroke:#181818;stroke-width:1.0;"/><path d="M589.3231,350.3853 Q588.7421,350.6841 588.1029,350.8335 Q587.4638,350.9829 586.7582,350.9829 Q584.2514,350.9829 582.9315,349.3311 Q581.6117,347.6792 581.6117,344.5581 Q581.6117,341.4287 582.9315,339.7769 Q584.2514,338.125 586.7582,338.125 Q587.4638,338.125 588.1112,338.2744 Q588.7587,338.4238 589.3231,338.7227 L589.3231,341.4453 Q588.6923,340.8643 588.0988,340.5945 Q587.5053,340.3247 586.8744,340.3247 Q585.5297,340.3247 584.8449,341.3914 Q584.1601,342.458 584.1601,344.5581 Q584.1601,346.6499 584.8449,347.7166 Q585.5297,348.7832 586.8744,348.7832 Q587.5053,348.7832 588.0988,348.5134 Q588.6923,348.2437 589.3231,347.6626 Z " fill="#000000"/><text fill="#000000" font-family="sans-serif" font-size="14" lengthAdjust="spacing" textLength="69" x="601.15" y="349.5332">Algorithm</text><line style="stroke:#181818;stroke-width:0.5;" x1="571.5" x2="673.5" y1="360.2422" y2="360.2422"/><rect fill="none" height="6" style="stroke:#C82930;stroke-width:1.0;" width="6" x="578.5" y="368.2422"/><text fill="#000000" font-family="sans-serif" font-size="14" lengthAdjust="spacing" textLength="78" x="590.5" y="377.7773">Description</text><line style="stroke:#181818;stroke-width:0.5;" x1="571.5" x2="673.5" y1="384.7305" y2="384.7305"/></g><!--MD5=[a059576e163b46f56762f12600c49258]
class Nurse--><g id="elem_Nurse"><rect fill="#F1F1F1" height="48" id="Nurse" rx="2.5" ry="2.5" style="stroke:#181818;stroke-width:0.5;" width="72" x="288" y="586.2422"/><ellipse cx="303" cy="602.2422" fill="#ADD1B2" rx="11" ry="11" style="stroke:#181818;stroke-width:1.0;"/><path d="M305.4731,608.3853 Q304.8921,608.6841 304.2529,608.8335 Q303.6138,608.9829 302.9082,608.9829 Q300.4014,608.9829 299.0815,607.3311 Q297.7617,605.6792 297.7617,602.5581 Q297.7617,599.4287 299.0815,597.7769 Q300.4014,596.125 302.9082,596.125 Q303.6138,596.125 304.2612,596.2744 Q304.9087,596.4238 305.4731,596.7227 L305.4731,599.4453 Q304.8423,598.8643 304.2488,598.5945 Q303.6553,598.3247 303.0244,598.3247 Q301.6797,598.3247 300.9949,599.3914 Q300.3101,600.458 300.3101,602.5581 Q300.3101,604.6499 300.9949,605.7166 Q301.6797,606.7832 303.0244,606.7832 Q303.6553,606.7832 304.2488,606.5134 Q304.8423,606.2437 305.4731,605.6626 Z " fill="#000000"/><text fill="#000000" font-family="sans-serif" font-size="14" lengthAdjust="spacing" textLength="40" x="317" y="607.5332">Nurse</text><line style="stroke:#181818;stroke-width:0.5;" x1="289" x2="359" y1="618.2422" y2="618.2422"/><line style="stroke:#181818;stroke-width:0.5;" x1="289" x2="359" y1="626.2422" y2="626.2422"/></g><!--MD5=[03960189e81aa2c066c762ffabbee709]
class Receptionist--><g id="elem_Receptionist"><rect fill="#F1F1F1" height="48" id="Receptionist" rx="2.5" ry="2.5" style="stroke:#181818;stroke-width:0.5;" width="116" x="266" y="16.2422"/><ellipse cx="281" cy="32.2422" fill="#ADD1B2" rx="11" ry="11" style="stroke:#181818;stroke-width:1.0;"/><path d="M283.4731,38.3853 Q282.8921,38.6841 282.2529,38.8335 Q281.6138,38.9829 280.9082,38.9829 Q278.4014,38.9829 277.0815,37.3311 Q275.7617,35.6792 275.7617,32.5581 Q275.7617,29.4287 277.0815,27.7769 Q278.4014,26.125 280.9082,26.125 Q281.6138,26.125 282.2612,26.2744 Q282.9087,26.4238 283.4731,26.7227 L283.4731,29.4453 Q282.8423,28.8643 282.2488,28.5945 Q281.6553,28.3247 281.0244,28.3247 Q279.6797,28.3247 278.9949,29.3914 Q278.3101,30.458 278.3101,32.5581 Q278.3101,34.6499 278.9949,35.7166 Q279.6797,36.7832 281.0244,36.7832 Q281.6553,36.7832 282.2488,36.5134 Q282.8423,36.2437 283.4731,35.6626 Z " fill="#000000"/><text fill="#000000" font-family="sans-serif" font-size="14" lengthAdjust="spacing" textLength="84" x="295" y="37.5332">Receptionist</text><line style="stroke:#181818;stroke-width:0.5;" x1="267" x2="381" y1="48.2422" y2="48.2422"/><line style="stroke:#181818;stroke-width:0.5;" x1="267" x2="381" y1="56.2422" y2="56.2422"/></g><!--MD5=[b82ad52c92820d8207083a09ec8c774e]
class DepartureRecords--><g id="elem_DepartureRecords"><rect fill="#F1F1F1" height="48" id="DepartureRecords" rx="2.5" ry="2.5" style="stroke:#181818;stroke-width:0.5;" width="156" x="840" y="474.2422"/><ellipse cx="855" cy="490.2422" fill="#ADD1B2" rx="11" ry="11" style="stroke:#181818;stroke-width:1.0;"/><path d="M857.4731,496.3853 Q856.8921,496.6841 856.2529,496.8335 Q855.6138,496.9829 854.9082,496.9829 Q852.4014,496.9829 851.0815,495.3311 Q849.7617,493.6792 849.7617,490.5581 Q849.7617,487.4287 851.0815,485.7769 Q852.4014,484.125 854.9082,484.125 Q855.6138,484.125 856.2612,484.2744 Q856.9087,484.4238 857.4731,484.7227 L857.4731,487.4453 Q856.8423,486.8643 856.2488,486.5945 Q855.6553,486.3247 855.0244,486.3247 Q853.6797,486.3247 852.9949,487.3914 Q852.3101,488.458 852.3101,490.5581 Q852.3101,492.6499 852.9949,493.7166 Q853.6797,494.7832 855.0244,494.7832 Q855.6553,494.7832 856.2488,494.5134 Q856.8423,494.2437 857.4731,493.6626 Z " fill="#000000"/><text fill="#000000" font-family="sans-serif" font-size="14" lengthAdjust="spacing" textLength="124" x="869" y="495.5332">DepartureRecords</text><line style="stroke:#181818;stroke-width:0.5;" x1="841" x2="995" y1="506.2422" y2="506.2422"/><line style="stroke:#181818;stroke-width:0.5;" x1="841" x2="995" y1="514.2422" y2="514.2422"/></g><!--MD5=[687563220ccd2e5c20cbfa2554a5ae8f]
class EntryRecords--><g id="elem_EntryRecords"><rect fill="#F1F1F1" height="48" id="EntryRecords" rx="2.5" ry="2.5" style="stroke:#181818;stroke-width:0.5;" width="122" x="857" y="130.2422"/><ellipse cx="872" cy="146.2422" fill="#ADD1B2" rx="11" ry="11" style="stroke:#181818;stroke-width:1.0;"/><path d="M874.4731,152.3853 Q873.8921,152.6841 873.2529,152.8335 Q872.6138,152.9829 871.9082,152.9829 Q869.4014,152.9829 868.0815,151.3311 Q866.7617,149.6792 866.7617,146.5581 Q866.7617,143.4287 868.0815,141.7769 Q869.4014,140.125 871.9082,140.125 Q872.6138,140.125 873.2612,140.2744 Q873.9087,140.4238 874.4731,140.7227 L874.4731,143.4453 Q873.8423,142.8643 873.2488,142.5945 Q872.6553,142.3247 872.0244,142.3247 Q870.6797,142.3247 869.9949,143.3914 Q869.3101,144.458 869.3101,146.5581 Q869.3101,148.6499 869.9949,149.7166 Q870.6797,150.7832 872.0244,150.7832 Q872.6553,150.7832 873.2488,150.5134 Q873.8423,150.2437 874.4731,149.6626 Z " fill="#000000"/><text fill="#000000" font-family="sans-serif" font-size="14" lengthAdjust="spacing" textLength="90" x="886" y="151.5332">EntryRecords</text><line style="stroke:#181818;stroke-width:0.5;" x1="858" x2="978" y1="162.2422" y2="162.2422"/><line style="stroke:#181818;stroke-width:0.5;" x1="858" x2="978" y1="170.2422" y2="170.2422"/></g><!--MD5=[1dec90c14ec2ba3af2708f621be65d00]
class BruteForceAlgorithm--><g id="elem_BruteForceAlgorithm"><rect fill="#F1F1F1" height="48" id="BruteForceAlgorithm" rx="2.5" ry="2.5" style="stroke:#181818;stroke-width:0.5;" width="175" x="535" y="162.2422"/><ellipse cx="550" cy="178.2422" fill="#ADD1B2" rx="11" ry="11" style="stroke:#181818;stroke-width:1.0;"/><path d="M552.4731,184.3853 Q551.8921,184.6841 551.2529,184.8335 Q550.6138,184.9829 549.9082,184.9829 Q547.4014,184.9829 546.0815,183.3311 Q544.7617,181.6792 544.7617,178.5581 Q544.7617,175.4287 546.0815,173.7769 Q547.4014,172.125 549.9082,172.125 Q550.6138,172.125 551.2612,172.2744 Q551.9087,172.4238 552.4731,172.7227 L552.4731,175.4453 Q551.8423,174.8643 551.2488,174.5945 Q550.6553,174.3247 550.0244,174.3247 Q548.6797,174.3247 547.9949,175.3914 Q547.3101,176.458 547.3101,178.5581 Q547.3101,180.6499 547.9949,181.7166 Q548.6797,182.7832 550.0244,182.7832 Q550.6553,182.7832 551.2488,182.5134 Q551.8423,182.2437 552.4731,181.6626 Z " fill="#000000"/><text fill="#000000" font-family="sans-serif" font-size="14" lengthAdjust="spacing" textLength="143" x="564" y="183.5332">BruteForceAlgorithm</text><line style="stroke:#181818;stroke-width:0.5;" x1="536" x2="709" y1="194.2422" y2="194.2422"/><line style="stroke:#181818;stroke-width:0.5;" x1="536" x2="709" y1="202.2422" y2="202.2422"/></g><!--MD5=[11bfefeec74d45075ceaf494a510e590]
class BenchmarkAlgorithm--><g id="elem_BenchmarkAlgorithm"><rect fill="#F1F1F1" height="48" id="BenchmarkAlgorithm" rx="2.5" ry="2.5" style="stroke:#181818;stroke-width:0.5;" width="177" x="534" y="245.2422"/><ellipse cx="549" cy="261.2422" fill="#ADD1B2" rx="11" ry="11" style="stroke:#181818;stroke-width:1.0;"/><path d="M551.4731,267.3853 Q550.8921,267.6841 550.2529,267.8335 Q549.6138,267.9829 548.9082,267.9829 Q546.4014,267.9829 545.0815,266.3311 Q543.7617,264.6792 543.7617,261.5581 Q543.7617,258.4287 545.0815,256.7769 Q546.4014,255.125 548.9082,255.125 Q549.6138,255.125 550.2612,255.2744 Q550.9087,255.4238 551.4731,255.7227 L551.4731,258.4453 Q550.8423,257.8643 550.2488,257.5945 Q549.6553,257.3247 549.0244,257.3247 Q547.6797,257.3247 546.9949,258.3914 Q546.3101,259.458 546.3101,261.5581 Q546.3101,263.6499 546.9949,264.7166 Q547.6797,265.7832 549.0244,265.7832 Q549.6553,265.7832 550.2488,265.5134 Q550.8423,265.2437 551.4731,264.6626 Z " fill="#000000"/><text fill="#000000" font-family="sans-serif" font-size="14" lengthAdjust="spacing" textLength="145" x="563" y="266.5332">BenchmarkAlgorithm</text><line style="stroke:#181818;stroke-width:0.5;" x1="535" x2="710" y1="277.2422" y2="277.2422"/><line style="stroke:#181818;stroke-width:0.5;" x1="535" x2="710" y1="285.2422" y2="285.2422"/></g><!--MD5=[30a739c1afedca5b7ab0cfb7cf711dcd]
link Company to CenterCoordinator--><g id="link_Company_CenterCoordinator"><path codeLine="22" d="M115.13,472.9922 C151.87,463.1422 201.42,449.8522 242.92,438.7222 " fill="none" id="Company-CenterCoordinator" style="stroke:#181818;stroke-width:1.0;"/><polygon fill="#000000" points="154.8294,438.6024,145.3317,438.1066,146.8542,443.7839,154.8294,438.6024" style="stroke:#000000;stroke-width:1.0;"/><text fill="#000000" font-family="sans-serif" font-size="13" lengthAdjust="spacing" textLength="53" x="159" y="444.8105">employs</text><text fill="#000000" font-family="sans-serif" font-size="13" lengthAdjust="spacing" textLength="8" x="122.9412" y="484.6416">1</text><text fill="#000000" font-family="sans-serif" font-size="13" lengthAdjust="spacing" textLength="6" x="228.9061" y="454.0686">*</text></g><!--MD5=[675075d142f36dc20e6791c71313032a]
link Company to VacCenter--><g id="link_Company_VacCenter"><path codeLine="23" d="M115.06,489.0922 C151.13,490.2622 199.94,491.6522 243,492.2422 C314.99,493.2322 333.32,498.9722 405,492.2422 C462.51,486.8422 527.5,473.5522 571.14,463.5522 " fill="none" id="Company-VacCenter" style="stroke:#181818;stroke-width:1.0;"/><polygon fill="#000000" points="299.4922,483.6179,290.2969,481.1893,290.6256,487.058,299.4922,483.6179" style="stroke:#000000;stroke-width:1.0;"/><text fill="#000000" font-family="sans-serif" font-size="13" lengthAdjust="spacing" textLength="54" x="303.5" y="488.8105">contains</text><text fill="#000000" font-family="sans-serif" font-size="13" lengthAdjust="spacing" textLength="8" x="122.8618" y="502.905">1</text><text fill="#000000" font-family="sans-serif" font-size="13" lengthAdjust="spacing" textLength="6" x="557.4956" y="478.9282">*</text></g><!--MD5=[f67bbca986ce6a65e937e2da0f683c3f]
link Company to Nurse--><g id="link_Company_Nurse"><path codeLine="24" d="M92.64,519.5622 C107.33,533.4622 125.88,548.8822 145,559.2422 C191.06,584.2122 250.63,598.0622 287.83,604.8322 " fill="none" id="Company-Nurse" style="stroke:#181818;stroke-width:1.0;"/><polygon fill="#000000" points="154.5819,552.8991,147.4697,546.585,145.1167,551.9713,154.5819,552.8991" style="stroke:#000000;stroke-width:1.0;"/><text fill="#000000" font-family="sans-serif" font-size="13" lengthAdjust="spacing" textLength="53" x="159" y="555.8105">employs</text><text fill="#000000" font-family="sans-serif" font-size="13" lengthAdjust="spacing" textLength="8" x="90.3408" y="540.3251">1</text><text fill="#000000" font-family="sans-serif" font-size="13" lengthAdjust="spacing" textLength="6" x="274.1184" y="617.8426">*</text></g><!--MD5=[5448e79142bdfcbfebd9929e0faf45a6]
link Company to Receptionist--><g id="link_Company_Receptionist"><path codeLine="25" d="M80.77,455.0922 C130.5,369.9222 264.87,139.7922 308.85,64.4722 " fill="none" id="Company-Receptionist" style="stroke:#181818;stroke-width:1.0;"/><polygon fill="#000000" points="152.5212,224.5796,145.4224,230.9088,150.4983,233.8726,152.5212,224.5796" style="stroke:#000000;stroke-width:1.0;"/><text fill="#000000" font-family="sans-serif" font-size="13" lengthAdjust="spacing" textLength="53" x="159" y="233.8105">employs</text><text fill="#000000" font-family="sans-serif" font-size="13" lengthAdjust="spacing" textLength="8" x="76.0226" y="444.4644">1</text><text fill="#000000" font-family="sans-serif" font-size="13" lengthAdjust="spacing" textLength="6" x="298.4259" y="84.8126">*</text></g><!--MD5=[253c618bcf8709ebb67ac3b26b079746]
link Nurse to VacCenter--><g id="link_Nurse_VacCenter"><path codeLine="27" d="M360.02,608.3322 C399.08,604.5222 462.23,593.1522 504,559.2422 C526.23,541.2022 514.2,522.9222 534,502.2422 C544.58,491.1922 558.08,481.7622 571.28,474.1322 " fill="none" id="Nurse-VacCenter" style="stroke:#181818;stroke-width:1.0;"/><polygon fill="#000000" points="444.2205,548.2165,435.0097,550.5857,438.1614,555.5472,444.2205,548.2165" style="stroke:#000000;stroke-width:1.0;"/><text fill="#000000" font-family="sans-serif" font-size="13" lengthAdjust="spacing" textLength="54" x="449" y="555.8105">works in</text><text fill="#000000" font-family="sans-serif" font-size="13" lengthAdjust="spacing" textLength="8" x="367.8989" y="622.0316">1</text><text fill="#000000" font-family="sans-serif" font-size="13" lengthAdjust="spacing" textLength="8" x="557.4091" y="495.6732">1</text></g><!--MD5=[fe6159f391ec0ee0b812eb5966f7494a]
link Nurse to DepartureRecords--><g id="link_Nurse_DepartureRecords"><path codeLine="28" d="M360.12,607.8122 C396.32,605.0522 454.3,599.9122 504,592.2422 C641.32,571.0422 675.03,561.2422 810,528.2422 C819.65,525.8822 829.75,523.2622 839.73,520.5722 " fill="none" id="Nurse-DepartureRecords" style="stroke:#181818;stroke-width:1.0;"/><polygon fill="#000000" points="597.4193,544.0027,587.9943,542.7299,589.0462,548.5129,597.4193,544.0027" style="stroke:#000000;stroke-width:1.0;"/><text fill="#000000" font-family="sans-serif" font-size="13" lengthAdjust="spacing" textLength="55" x="601.5" y="549.8105">registers</text><text fill="#000000" font-family="sans-serif" font-size="13" lengthAdjust="spacing" textLength="8" x="368.0186" y="603.4561">1</text><text fill="#000000" font-family="sans-serif" font-size="13" lengthAdjust="spacing" textLength="6" x="825.984" y="535.9985">*</text></g><!--MD5=[d6feca1bdbf283e73e1a6a3ba0545892]
link Receptionist to VacCenter--><g id="link_Receptionist_VacCenter"><path codeLine="30" d="M338.49,64.5222 C383.61,145.6222 526.75,402.4722 534,409.2422 C544.71,419.2522 558.25,427.3122 571.45,433.5822 " fill="none" id="Receptionist-VacCenter" style="stroke:#181818;stroke-width:1.0;"/><polygon fill="#000000" points="442.6689,240.1256,440.326,230.9081,435.3556,234.0456,442.6689,240.1256" style="stroke:#000000;stroke-width:1.0;"/><text fill="#000000" font-family="sans-serif" font-size="13" lengthAdjust="spacing" textLength="54" x="449" y="240.8105">works in</text><text fill="#000000" font-family="sans-serif" font-size="13" lengthAdjust="spacing" textLength="8" x="333.0469" y="84.8748">1</text><text fill="#000000" font-family="sans-serif" font-size="13" lengthAdjust="spacing" textLength="8" x="555.3645" y="427.478">1</text></g><!--MD5=[1a24c86b35fcafa25fc6853fd4603727]
link Receptionist to EntryRecords--><g id="link_Receptionist_EntryRecords"><path codeLine="31" d="M382.3,32.1322 C475.56,21.3322 664.42,9.6222 810,66.2422 C844.52,79.6722 876.23,108.7822 896.02,129.8622 " fill="none" id="Receptionist-EntryRecords" style="stroke:#181818;stroke-width:1.0;"/><polygon fill="#000000" points="597.4119,15.8319,589.0754,11.2543,587.9769,17.0286,597.4119,15.8319" style="stroke:#000000;stroke-width:1.0;"/><text fill="#000000" font-family="sans-serif" font-size="13" lengthAdjust="spacing" textLength="55" x="601.5" y="19.8105">registers</text><text fill="#000000" font-family="sans-serif" font-size="13" lengthAdjust="spacing" textLength="8" x="389.8928" y="44.6451">1</text><text fill="#000000" font-family="sans-serif" font-size="13" lengthAdjust="spacing" textLength="6" x="883.9311" y="119.6976">*</text></g><!--MD5=[796171af96c0fa489de849730a935b23]
link VacCenter to EntryRecords--><g id="link_VacCenter_EntryRecords"><path codeLine="33" d="M673.62,455.2422 C714.58,455.8022 771.76,450.0622 810,419.2422 C886.87,357.2722 908.89,231.5222 914.88,178.5922 " fill="none" id="VacCenter-EntryRecords" style="stroke:#181818;stroke-width:1.0;"/><polygon fill="#000000" points="760.2863,407.1291,752.1264,412.0145,756.5563,415.8777,760.2863,407.1291" style="stroke:#000000;stroke-width:1.0;"/><text fill="#000000" font-family="sans-serif" font-size="13" lengthAdjust="spacing" textLength="32" x="766" y="415.8105">store</text><text fill="#000000" font-family="sans-serif" font-size="13" lengthAdjust="spacing" textLength="8" x="681.3713" y="452.3402">1</text><text fill="#000000" font-family="sans-serif" font-size="13" lengthAdjust="spacing" textLength="8" x="905.1445" y="198.9618">1</text></g><!--MD5=[9e95642bd910ad642065871ca4a1788d]
link VacCenter to DepartureRecords--><g id="link_VacCenter_DepartureRecords"><path codeLine="34" d="M673.76,460.5722 C694.55,464.3322 718.91,468.6422 741,472.2422 C773.31,477.5122 809.04,482.8822 839.82,487.3522 " fill="none" id="VacCenter-DepartureRecords" style="stroke:#181818;stroke-width:1.0;"/><polygon fill="#000000" points="761.9362,464.6935,753.4744,460.352,752.5386,466.1549,761.9362,464.6935" style="stroke:#000000;stroke-width:1.0;"/><text fill="#000000" font-family="sans-serif" font-size="13" lengthAdjust="spacing" textLength="32" x="766" y="468.8105">store</text><text fill="#000000" font-family="sans-serif" font-size="13" lengthAdjust="spacing" textLength="8" x="681.5309" y="475.5291">1</text><text fill="#000000" font-family="sans-serif" font-size="13" lengthAdjust="spacing" textLength="8" x="823.9872" y="483.1825">1</text></g><!--MD5=[712ce01df5a03012f9e943220a1e4d4a]
link CenterCoordinator to VacCenter--><g id="link_CenterCoordinator_VacCenter"><path codeLine="36" d="M405.24,426.4422 C458.23,432.5222 526.03,440.2922 571.46,445.5022 " fill="none" id="CenterCoordinator-VacCenter" style="stroke:#181818;stroke-width:1.0;"/><polygon fill="#000000" points="444.9674,422.4671,436.3161,418.5168,435.6464,424.3564,444.9674,422.4671" style="stroke:#000000;stroke-width:1.0;"/><text fill="#000000" font-family="sans-serif" font-size="13" lengthAdjust="spacing" textLength="54" x="449" y="426.8105">analyses</text><text fill="#000000" font-family="sans-serif" font-size="13" lengthAdjust="spacing" textLength="8" x="413.0981" y="440.5655">1</text><text fill="#000000" font-family="sans-serif" font-size="13" lengthAdjust="spacing" textLength="8" x="555.376" y="458.3519">1</text></g><!--MD5=[0f0c559b542a696ca4566297dd7826ff]
link CenterCoordinator to Algorithm--><g id="link_CenterCoordinator_Algorithm"><path codeLine="37" d="M405.24,401.8122 C457.72,391.7322 524.71,378.8522 570.13,370.1222 " fill="none" id="CenterCoordinator-Algorithm" style="stroke:#181818;stroke-width:1.0;"/><polygon fill="#000000" points="457.4101,374.9538,447.9729,373.7748,449.0823,379.547,457.4101,374.9538" style="stroke:#000000;stroke-width:1.0;"/><text fill="#000000" font-family="sans-serif" font-size="13" lengthAdjust="spacing" textLength="29" x="461.5" y="380.8105">uses</text><text fill="#000000" font-family="sans-serif" font-size="13" lengthAdjust="spacing" textLength="8" x="413.0981" y="413.6649">1</text><text fill="#000000" font-family="sans-serif" font-size="13" lengthAdjust="spacing" textLength="6" x="556.3436" y="385.1221">*</text></g><!--MD5=[0f98dfb529e8fe6175618c10eeeb15b2]
link CenterCoordinator to EntryRecords--><g id="link_CenterCoordinator_EntryRecords"><path codeLine="38" d="M341.7,376.6622 C370.28,313.2822 435.26,193.0022 534,144.2422 C638.07,92.8522 778.22,116.1622 856.91,136.2222 " fill="none" id="CenterCoordinator-EntryRecords" style="stroke:#181818;stroke-width:1.0;"/><polygon fill="#000000" points="599.0309,102.783,589.5916,103.9449,592.0773,109.2713,599.0309,102.783" style="stroke:#000000;stroke-width:1.0;"/><text fill="#000000" font-family="sans-serif" font-size="13" lengthAdjust="spacing" textLength="51" x="603.5" y="109.8105">asks for</text><text fill="#000000" font-family="sans-serif" font-size="13" lengthAdjust="spacing" textLength="8" x="336.0547" y="365.9955">1</text><text fill="#000000" font-family="sans-serif" font-size="13" lengthAdjust="spacing" textLength="8" x="840.9772" y="147.5273">1</text></g><!--MD5=[93545ea38595525a6b261d00f34f0b12]
link CenterCoordinator to DepartureRecords--><g id="link_CenterCoordinator_DepartureRecords"><path codeLine="39" d="M396.98,457.8122 C436.17,477.5722 486.28,499.2022 534,509.2422 C638.15,531.1522 761.72,521.3822 839.76,510.9622 " fill="none" id="CenterCoordinator-DepartureRecords" style="stroke:#181818;stroke-width:1.0;"/><polygon fill="#000000" points="599.4644,501.4934,590.834,497.4974,590.1335,503.3333,599.4644,501.4934" style="stroke:#000000;stroke-width:1.0;"/><text fill="#000000" font-family="sans-serif" font-size="13" lengthAdjust="spacing" textLength="51" x="603.5" y="505.8105">asks for</text><text fill="#000000" font-family="sans-serif" font-size="13" lengthAdjust="spacing" textLength="8" x="400.4048" y="478.3698">1</text><text fill="#000000" font-family="sans-serif" font-size="13" lengthAdjust="spacing" textLength="8" x="823.9215" y="509.0429">1</text></g><!--MD5=[998421bb68789f9f91af8c69fa1fd4b4]
link Algorithm to EntryRecords--><g id="link_Algorithm_EntryRecords"><path codeLine="41" d="M674.6,332.5122 C686.72,325.5322 699.47,317.8622 711,310.2422 C776.32,267.1022 848.31,210.2922 887.52,178.4922 " fill="none" id="Algorithm-EntryRecords" style="stroke:#181818;stroke-width:1.0;"/><polygon fill="#000000" points="750.0512,229.967,741,232.8871,744.445,237.6495,750.0512,229.967" style="stroke:#000000;stroke-width:1.0;"/><text fill="#000000" font-family="sans-serif" font-size="13" lengthAdjust="spacing" textLength="54" x="755" y="237.8105">analyses</text><text fill="#000000" font-family="sans-serif" font-size="13" lengthAdjust="spacing" textLength="8" x="682.4891" y="342.2232">1</text><text fill="#000000" font-family="sans-serif" font-size="13" lengthAdjust="spacing" textLength="8" x="871.1155" y="198.8375">1</text></g><!--MD5=[4f0c1eaed4ab696411e70766b9da91a2]
link Algorithm to DepartureRecords--><g id="link_Algorithm_DepartureRecords"><path codeLine="42" d="M674.76,361.5722 C713.75,364.4322 767.72,372.4622 810,394.2422 C847.08,413.3422 879.84,449.5522 899.05,473.8022 " fill="none" id="Algorithm-DepartureRecords" style="stroke:#181818;stroke-width:1.0;"/><polygon fill="#000000" points="750.4715,365.1349,743.6976,358.4591,741.0674,363.7156,750.4715,365.1349" style="stroke:#000000;stroke-width:1.0;"/><text fill="#000000" font-family="sans-serif" font-size="13" lengthAdjust="spacing" textLength="54" x="755" y="367.8105">analyses</text><text fill="#000000" font-family="sans-serif" font-size="13" lengthAdjust="spacing" textLength="8" x="682.6716" y="375.3698">1</text><text fill="#000000" font-family="sans-serif" font-size="13" lengthAdjust="spacing" textLength="8" x="885.4559" y="463.623">1</text></g><!--MD5=[f7101cbaead7c47a89b9a1f23474120b]
link BruteForceAlgorithm to Algorithm--><g id="link_BruteForceAlgorithm_Algorithm"><path codeLine="44" d="M534.84,200.2822 C509.57,208.8422 484.74,222.6022 469.5,244.7422 C457.41,262.3122 457.85,274.8722 469.5,292.7422 C487.71,320.6722 520.37,337.1322 550.85,346.7822 " fill="none" id="BruteForceAlgorithm-to-Algorithm" style="stroke:#181818;stroke-width:1.0;"/><polygon fill="none" points="552.99,340.1122,570.4,352.2022,549.25,353.6022,552.99,340.1122" style="stroke:#181818;stroke-width:1.0;"/></g><!--MD5=[877ecf7d0eee110a9658d1654d872047]
link BenchmarkAlgorithm to Algorithm--><g id="link_BenchmarkAlgorithm_Algorithm"><path codeLine="45" d="M622.5,293.5322 C622.5,298.2722 622.5,303.0122 622.5,307.7622 " fill="none" id="BenchmarkAlgorithm-to-Algorithm" style="stroke:#181818;stroke-width:1.0;"/><polygon fill="none" points="629.5,307.8922,622.5,327.8922,615.5,307.8922,629.5,307.8922" style="stroke:#181818;stroke-width:1.0;"/></g><!--MD5=[07e296c5a97b231671595cfe2acb5914]
@startuml

left to right direction

class Company {
    -Designation
}

class CenterCoordinator {
    -Email
    -Password
}

class VacCenter{

}

class Algorithm{
    -Description
}


Company "1" - - "*" CenterCoordinator : employs >
Company "1"- -"*" VacCenter : contains >
Company "1" - - "*" Nurse : employs >
Company "1" - - "*" Receptionist : employs >

Nurse "1" - - "1" VacCenter : works in >
Nurse "1" - - "*" DepartureRecords : registers >

Receptionist "1" - - "1" VacCenter : works in >
Receptionist "1" - - "*" EntryRecords : registers >

VacCenter"1"- -"1" EntryRecords : store >
VacCenter"1"- -"1" DepartureRecords : store >

CenterCoordinator"1"- -"1" VacCenter : analyses >
CenterCoordinator"1"- -"*" Algorithm : uses >
CenterCoordinator"1"- -"1"EntryRecords : asks for >
CenterCoordinator"1"- - "1"DepartureRecords : asks for >

Algorithm"1"- -"1" EntryRecords : analyses >
Algorithm"1"- -"1" DepartureRecords : analyses >

BruteForceAlgorithm -|> Algorithm
BenchmarkAlgorithm -|> Algorithm

@enduml

PlantUML version 1.2022.5(Sat Apr 30 11:55:52 WEST 2022)
(GPL source distribution)
Java Runtime: OpenJDK Runtime Environment
JVM: OpenJDK 64-Bit Server VM
Default Encoding: UTF-8
Language: pt
Country: PT
--></g></svg>