@startuml

top to bottom direction

package ui{
    package gui{
        class AnalyseCenterUI{

        }
    }
}

package controller{
    class AnalyseCenterController{
        +getEntryRecords()
        +getEntryRecordsFromDate()
        +getDepartureRecords()
        +getDepartureRecordsFromDate()
        +getImportedRecords()
        +getUserEmail()
        +getVacCenter(userEmail)
        +readLoginInfoFile()
        ---
        +getTimeInt(timeInterval)
        +getEntryRecordInterval(entryRecords, timeInterval)
        +getDeparureRecordInterval(departureRecords, timeInterval)
        +calculateDifferencesEntryDeparture(entryRecords, DepartureRecords, timeInterval)
        +calculateMaxSumSub(alg, differences)
        +getAlgorithms(seq)
        +calculateMaxSum(seq)
        +getPeriod(differences, timeInterval)
    }
}

package Domain{
    package Model{
        class Company{
            -designation

            +getAuthFacade()
            +getEmployeeStore()
        }

        class User{

        }

        class Algorithms{
            -designation
        }

        class VacCenter{
            +getEntryRecords()
            +getDepartureRecords()
            +getLegacydata()
        }

    }

    package Store{
        class EntryRecords{

        }

        class DepartureRecords{

        }

        class LegacyData{

        }

        class EmployeeStore{

        }
    }
}

package Auth{
    class AuthFacade{
        +getCurrentUserSession()
    }
}

package Session{
    class UserSession{
        +getUserId()
    }
}


AnalyseCenterUI ..> AnalyseCenterController

AnalyseCenterController..>Company
AnalyseCenterController..> Algorithms

Company..>AuthFacade
Company..>EmployeeStore

EmployeeStore..>User

AuthFacade..> UserSession

UserSession..>User

User..> VacCenter

VacCenter..> EntryRecords
VacCenter..> DepartureRecords
VacCenter..>LegacyData

@enduml