<?xml version="1.0" encoding="UTF-8" standalone="no"?><svg xmlns="http://www.w3.org/2000/svg" xmlns:xlink="http://www.w3.org/1999/xlink" contentScriptType="application/ecmascript" contentStyleType="text/css" height="286px" preserveAspectRatio="none" style="width:780px;height:286px;background:#FFFFFF;" version="1.1" viewBox="0 0 780 286" width="780px" zoomAndPan="magnify"><defs><filter height="300%" id="f1mf6f4y6hfczm" width="300%" x="-1" y="-1"><feGaussianBlur result="blurOut" stdDeviation="2.0"/><feColorMatrix in="blurOut" result="blurOut2" type="matrix" values="0 0 0 0 0 0 0 0 0 0 0 0 0 0 0 0 0 0 .4 0"/><feOffset dx="4.0" dy="4.0" in="blurOut2" result="blurOut3"/><feBlend in="SourceGraphic" in2="blurOut3" mode="normal"/></filter></defs><g><rect fill="#FFFFFF" filter="url(#f1mf6f4y6hfczm)" height="83.0547" style="stroke:#A80036;stroke-width:1.0;" width="10" x="733.5" y="99.6094"/><line style="stroke:#A80036;stroke-width:1.0;stroke-dasharray:5.0,5.0;" x1="49" x2="49" y1="89.6094" y2="200.6641"/><line style="stroke:#A80036;stroke-width:1.0;stroke-dasharray:5.0,5.0;" x1="738.5" x2="738.5" y1="89.6094" y2="200.6641"/><text fill="#000000" font-family="sans-serif" font-size="14" lengthAdjust="spacing" textLength="83" x="5" y="86.5332">Administrator</text><ellipse cx="49.5" cy="15" fill="#FEFECE" filter="url(#f1mf6f4y6hfczm)" rx="8" ry="8" style="stroke:#A80036;stroke-width:2.0;"/><path d="M49.5,23 L49.5,50 M36.5,31 L62.5,31 M49.5,50 L36.5,65 M49.5,50 L62.5,65 " fill="none" filter="url(#f1mf6f4y6hfczm)" style="stroke:#A80036;stroke-width:2.0;"/><text fill="#000000" font-family="sans-serif" font-size="14" lengthAdjust="spacing" textLength="83" x="5" y="214.1973">Administrator</text><ellipse cx="49.5" cy="227.2734" fill="#FEFECE" filter="url(#f1mf6f4y6hfczm)" rx="8" ry="8" style="stroke:#A80036;stroke-width:2.0;"/><path d="M49.5,235.2734 L49.5,262.2734 M36.5,243.2734 L62.5,243.2734 M49.5,262.2734 L36.5,277.2734 M49.5,262.2734 L62.5,277.2734 " fill="none" filter="url(#f1mf6f4y6hfczm)" style="stroke:#A80036;stroke-width:2.0;"/><rect fill="#FEFECE" filter="url(#f1mf6f4y6hfczm)" height="31.6094" style="stroke:#A80036;stroke-width:1.5;" width="60" x="706.5" y="53"/><text fill="#000000" font-family="sans-serif" font-size="14" lengthAdjust="spacing" textLength="46" x="713.5" y="74.5332">System</text><rect fill="#FEFECE" filter="url(#f1mf6f4y6hfczm)" height="31.6094" style="stroke:#A80036;stroke-width:1.5;" width="60" x="706.5" y="199.6641"/><text fill="#000000" font-family="sans-serif" font-size="14" lengthAdjust="spacing" textLength="46" x="713.5" y="221.1973">System</text><rect fill="#FFFFFF" filter="url(#f1mf6f4y6hfczm)" height="83.0547" style="stroke:#A80036;stroke-width:1.0;" width="10" x="733.5" y="99.6094"/><polygon fill="#A80036" points="721.5,117.9609,731.5,121.9609,721.5,125.9609,725.5,121.9609" style="stroke:#A80036;stroke-width:1.0;"/><line style="stroke:#A80036;stroke-width:1.0;" x1="49.5" x2="727.5" y1="121.9609" y2="121.9609"/><text fill="#000000" font-family="sans-serif" font-size="13" font-weight="bold" lengthAdjust="spacing" textLength="7" x="56.5" y="117.1045">1</text><text fill="#000000" font-family="sans-serif" font-size="13" lengthAdjust="spacing" textLength="238" x="67.5" y="117.1045">Asks a list of a certain role of Employees</text><polygon fill="#A80036" points="60.5,148.3125,50.5,152.3125,60.5,156.3125,56.5,152.3125" style="stroke:#A80036;stroke-width:1.0;"/><line style="stroke:#A80036;stroke-width:1.0;stroke-dasharray:2.0,2.0;" x1="54.5" x2="732.5" y1="152.3125" y2="152.3125"/><text fill="#000000" font-family="sans-serif" font-size="13" font-weight="bold" lengthAdjust="spacing" textLength="7" x="66.5" y="147.4561">2</text><text fill="#000000" font-family="sans-serif" font-size="13" lengthAdjust="spacing" textLength="206" x="77.5" y="147.4561">Shows possible roles to chose from</text><polygon fill="#A80036" points="726.5,178.6641,736.5,182.6641,726.5,186.6641,730.5,182.6641" style="stroke:#A80036;stroke-width:1.0;"/><line style="stroke:#A80036;stroke-width:1.0;stroke-dasharray:2.0,2.0;" x1="49.5" x2="732.5" y1="182.6641" y2="182.6641"/><text fill="#000000" font-family="sans-serif" font-size="13" font-weight="bold" lengthAdjust="spacing" textLength="7" x="56.5" y="177.8076">3</text><text fill="#000000" font-family="sans-serif" font-size="13" lengthAdjust="spacing" textLength="649" x="67.5" y="177.8076">Shows Employees list (array of : Employe ID,Name,Email,Phone Number,CC Number, Address) sorted by name</text><!--MD5=[5c503b5ef3bafc3a4ea317de24c2ec97]
@startuml
'https://plantuml.com/sequence-diagram

autonumber

actor Administrator
activate System
System <- Administrator: Asks a list of a certain role of Employees
return Shows possible roles to chose from
return Shows Employees list (array of : Employe ID,Name,Email,Phone Number,CC Number, Address) sorted by name
deactivate System

deactivate Administrator
@enduml

@startuml

autonumber

actor Administrator
activate System
System <- Administrator: Asks a list of a certain role of Employees
return Shows possible roles to chose from
return Shows Employees list (array of : Employe ID,Name,Email,Phone Number,CC Number, Address) sorted by name
deactivate System

deactivate Administrator
@enduml

PlantUML version 1.2022.1(Tue Feb 01 18:19:58 GMT 2022)
(GPL source distribution)
Java Runtime: OpenJDK Runtime Environment
JVM: OpenJDK 64-Bit Server VM
Default Encoding: Cp1252
Language: pt
Country: PT
--></g></svg>