@startuml

top to bottom direction

class Employee{
    -String name
    -String email
    -int phoneNumber
    -int CCNumber
    -String address
    -String role
    ----
    +create(employeeDto)
}


class Company{
    -designation
    ----
    +getEmployeeStore()
}

class RegisterEmployeeController{
    +getEmployeeDto()
    +RegisterEmployee(emplyeeDto)
    +saveEmployee()
}

class RegisterEmployeeUI{

}

class EmployeeDto{
    +getName()
    +getID()
    +getPassword()
    +getEmail()
    +getPhoneNumber()
    +getCCNumber()
    +getAddress()
    +getRole()
}

class EmployeeStore{
    +createEmployee(employeeDto)
    +validateEmployee(employee)
    +saveEmployee(employee)
    -addEmployee(employee)
    -checkDuplicates(employee)
    -generateID()
    -generatePassword()
}

class PasswordGenerator{
    +generatePassword()
}

class AuthFacade{
    +AuthFacade()
    +addUserRole()
    +addUser()
    +addUserWithRole()
    +existsUser()
    +doLogin()
    +doLogout()
    +getCurrentUserSession()
}

class userRoleMapper{
    +userRoleDto()
}

class RoleDto{
    -String id
    -String description
    ----
    +getDescription()
    +getRole()
}


RegisterEmployeeUI..>EmployeeDto
RegisterEmployeeUI..>RegisterEmployeeController
RegisterEmployeeController..>Company
RegisterEmployeeController..>EmployeeStore
RegisterEmployeeController..>userRoleMapper
RegisterEmployeeController..>Employee
RegisterEmployeeController..>EmployeeDto
Company"1"-up>"1"EmployeeStore:uses
Company..>EmployeeDto
Company "1"->"*"Employee:employs
userRoleMapper..>RoleDto 
Employee..>EmployeeDto
EmployeeStore..>EmployeeDto
EmployeeStore..>AuthFacade
EmployeeStore..>PasswordGenerator

@enduml