<?xml version="1.0" encoding="UTF-8" standalone="no"?><svg xmlns="http://www.w3.org/2000/svg" xmlns:xlink="http://www.w3.org/1999/xlink" contentStyleType="text/css" height="684px" preserveAspectRatio="none" style="width:1161px;height:684px;background:#FFFFFF;" version="1.1" viewBox="0 0 1161 684" width="1161px" zoomAndPan="magnify"><defs/><g><!--MD5=[7421f545a0d8420c5bec41e74b387d9c]
class Employee--><g id="elem_Employee"><rect codeLine="4" fill="#F1F1F1" height="163.418" id="Employee" rx="2.5" ry="2.5" style="stroke:#181818;stroke-width:0.5;" width="168" x="630" y="274"/><ellipse cx="676.75" cy="290" fill="#ADD1B2" rx="11" ry="11" style="stroke:#181818;stroke-width:1.0;"/><path d="M679.2231,296.1431 Q678.6421,296.4419 678.0029,296.5913 Q677.3638,296.7407 676.6582,296.7407 Q674.1514,296.7407 672.8315,295.0889 Q671.5117,293.437 671.5117,290.3159 Q671.5117,287.1865 672.8315,285.5347 Q674.1514,283.8828 676.6582,283.8828 Q677.3638,283.8828 678.0112,284.0322 Q678.6587,284.1816 679.2231,284.4805 L679.2231,287.2031 Q678.5923,286.6221 677.9988,286.3523 Q677.4053,286.0825 676.7744,286.0825 Q675.4297,286.0825 674.7449,287.1492 Q674.0601,288.2158 674.0601,290.3159 Q674.0601,292.4077 674.7449,293.4744 Q675.4297,294.541 676.7744,294.541 Q677.4053,294.541 677.9988,294.2712 Q678.5923,294.0015 679.2231,293.4204 Z " fill="#000000"/><text fill="#000000" font-family="sans-serif" font-size="14" lengthAdjust="spacing" textLength="66" x="697.25" y="295.291">Employee</text><line style="stroke:#181818;stroke-width:0.5;" x1="631" x2="797" y1="306" y2="306"/><rect fill="none" height="6" style="stroke:#C82930;stroke-width:1.0;" width="6" x="638" y="314"/><text fill="#000000" font-family="sans-serif" font-size="14" lengthAdjust="spacing" textLength="83" x="650" y="323.5352">String name</text><rect fill="none" height="6" style="stroke:#C82930;stroke-width:1.0;" width="6" x="638" y="330.4883"/><text fill="#000000" font-family="sans-serif" font-size="14" lengthAdjust="spacing" textLength="82" x="650" y="340.0234">String email</text><rect fill="none" height="6" style="stroke:#C82930;stroke-width:1.0;" width="6" x="638" y="346.9766"/><text fill="#000000" font-family="sans-serif" font-size="14" lengthAdjust="spacing" textLength="121" x="650" y="356.5117">int phoneNumber</text><rect fill="none" height="6" style="stroke:#C82930;stroke-width:1.0;" width="6" x="638" y="363.4648"/><text fill="#000000" font-family="sans-serif" font-size="14" lengthAdjust="spacing" textLength="97" x="650" y="373">int CCNumber</text><rect fill="none" height="6" style="stroke:#C82930;stroke-width:1.0;" width="6" x="638" y="379.9531"/><text fill="#000000" font-family="sans-serif" font-size="14" lengthAdjust="spacing" textLength="99" x="650" y="389.4883">String address</text><rect fill="none" height="6" style="stroke:#C82930;stroke-width:1.0;" width="6" x="638" y="396.4414"/><text fill="#000000" font-family="sans-serif" font-size="14" lengthAdjust="spacing" textLength="72" x="650" y="405.9766">String role</text><line style="stroke:#181818;stroke-width:1.0;" x1="631" x2="797" y1="412.9297" y2="412.9297"/><ellipse cx="641" cy="423.9297" fill="#84BE84" rx="3" ry="3" style="stroke:#038048;stroke-width:1.0;"/><text fill="#000000" font-family="sans-serif" font-size="14" lengthAdjust="spacing" textLength="142" x="650" y="430.4648">create(employeeDto)</text></g><!--MD5=[02e4b9b7573f1156f41e60aa5b4e25a4]
class Company--><g id="elem_Company"><rect codeLine="16" fill="#F1F1F1" height="80.9766" id="Company" rx="2.5" ry="2.5" style="stroke:#181818;stroke-width:0.5;" width="160" x="380" y="315"/><ellipse cx="423.35" cy="331" fill="#ADD1B2" rx="11" ry="11" style="stroke:#181818;stroke-width:1.0;"/><path d="M425.8231,337.1431 Q425.2421,337.4419 424.6029,337.5913 Q423.9638,337.7407 423.2582,337.7407 Q420.7514,337.7407 419.4315,336.0889 Q418.1117,334.437 418.1117,331.3159 Q418.1117,328.1865 419.4315,326.5347 Q420.7514,324.8828 423.2582,324.8828 Q423.9638,324.8828 424.6112,325.0322 Q425.2587,325.1816 425.8231,325.4805 L425.8231,328.2031 Q425.1923,327.6221 424.5988,327.3523 Q424.0053,327.0825 423.3744,327.0825 Q422.0297,327.0825 421.3449,328.1492 Q420.6601,329.2158 420.6601,331.3159 Q420.6601,333.4077 421.3449,334.4744 Q422.0297,335.541 423.3744,335.541 Q424.0053,335.541 424.5988,335.2712 Q425.1923,335.0015 425.8231,334.4204 Z " fill="#000000"/><text fill="#000000" font-family="sans-serif" font-size="14" lengthAdjust="spacing" textLength="65" x="443.65" y="336.291">Company</text><line style="stroke:#181818;stroke-width:0.5;" x1="381" x2="539" y1="347" y2="347"/><rect fill="none" height="6" style="stroke:#C82930;stroke-width:1.0;" width="6" x="388" y="355"/><text fill="#000000" font-family="sans-serif" font-size="14" lengthAdjust="spacing" textLength="81" x="400" y="364.5352">designation</text><line style="stroke:#181818;stroke-width:1.0;" x1="381" x2="539" y1="371.4883" y2="371.4883"/><ellipse cx="391" cy="382.4883" fill="#84BE84" rx="3" ry="3" style="stroke:#038048;stroke-width:1.0;"/><text fill="#000000" font-family="sans-serif" font-size="14" lengthAdjust="spacing" textLength="134" x="400" y="389.0234">getEmployeeStore()</text></g><!--MD5=[6a4e699b59c2ecf8286aba2faa72e4bd]
class RegisterEmployeeController--><g id="elem_RegisterEmployeeController"><rect codeLine="22" fill="#F1F1F1" height="97.4648" id="RegisterEmployeeController" rx="2.5" ry="2.5" style="stroke:#181818;stroke-width:0.5;" width="239" x="663.5" y="116"/><ellipse cx="685.25" cy="132" fill="#ADD1B2" rx="11" ry="11" style="stroke:#181818;stroke-width:1.0;"/><path d="M687.7231,138.1431 Q687.1421,138.4419 686.5029,138.5913 Q685.8638,138.7407 685.1582,138.7407 Q682.6514,138.7407 681.3315,137.0889 Q680.0117,135.437 680.0117,132.3159 Q680.0117,129.1865 681.3315,127.5347 Q682.6514,125.8828 685.1582,125.8828 Q685.8638,125.8828 686.5112,126.0322 Q687.1587,126.1816 687.7231,126.4805 L687.7231,129.2031 Q687.0923,128.6221 686.4988,128.3523 Q685.9053,128.0825 685.2744,128.0825 Q683.9297,128.0825 683.2449,129.1492 Q682.5601,130.2158 682.5601,132.3159 Q682.5601,134.4077 683.2449,135.4744 Q683.9297,136.541 685.2744,136.541 Q685.9053,136.541 686.4988,136.2712 Q687.0923,136.0015 687.7231,135.4204 Z " fill="#000000"/><text fill="#000000" font-family="sans-serif" font-size="14" lengthAdjust="spacing" textLength="192" x="700.75" y="137.291">RegisterEmployeeController</text><line style="stroke:#181818;stroke-width:0.5;" x1="664.5" x2="901.5" y1="148" y2="148"/><line style="stroke:#181818;stroke-width:0.5;" x1="664.5" x2="901.5" y1="156" y2="156"/><ellipse cx="674.5" cy="167" fill="#84BE84" rx="3" ry="3" style="stroke:#038048;stroke-width:1.0;"/><text fill="#000000" font-family="sans-serif" font-size="14" lengthAdjust="spacing" textLength="122" x="683.5" y="173.5352">getEmployeeDto()</text><ellipse cx="674.5" cy="183.4883" fill="#84BE84" rx="3" ry="3" style="stroke:#038048;stroke-width:1.0;"/><text fill="#000000" font-family="sans-serif" font-size="14" lengthAdjust="spacing" textLength="213" x="683.5" y="190.0234">RegisterEmployee(emplyeeDto)</text><ellipse cx="674.5" cy="199.9766" fill="#84BE84" rx="3" ry="3" style="stroke:#038048;stroke-width:1.0;"/><text fill="#000000" font-family="sans-serif" font-size="14" lengthAdjust="spacing" textLength="106" x="683.5" y="206.5117">saveEmployee()</text></g><!--MD5=[a126dd63c8621c017159ae62771fbe54]
class RegisterEmployeeUI--><g id="elem_RegisterEmployeeUI"><rect codeLine="28" fill="#F1F1F1" height="48" id="RegisterEmployeeUI" rx="2.5" ry="2.5" style="stroke:#181818;stroke-width:0.5;" width="168" x="892" y="7"/><ellipse cx="907" cy="23" fill="#ADD1B2" rx="11" ry="11" style="stroke:#181818;stroke-width:1.0;"/><path d="M909.4731,29.1431 Q908.8921,29.4419 908.2529,29.5913 Q907.6138,29.7407 906.9082,29.7407 Q904.4014,29.7407 903.0815,28.0889 Q901.7617,26.437 901.7617,23.3159 Q901.7617,20.1865 903.0815,18.5347 Q904.4014,16.8828 906.9082,16.8828 Q907.6138,16.8828 908.2612,17.0322 Q908.9087,17.1816 909.4731,17.4805 L909.4731,20.2031 Q908.8423,19.6221 908.2488,19.3523 Q907.6553,19.0825 907.0244,19.0825 Q905.6797,19.0825 904.9949,20.1492 Q904.3101,21.2158 904.3101,23.3159 Q904.3101,25.4077 904.9949,26.4744 Q905.6797,27.541 907.0244,27.541 Q907.6553,27.541 908.2488,27.2712 Q908.8423,27.0015 909.4731,26.4204 Z " fill="#000000"/><text fill="#000000" font-family="sans-serif" font-size="14" lengthAdjust="spacing" textLength="136" x="921" y="28.291">RegisterEmployeeUI</text><line style="stroke:#181818;stroke-width:0.5;" x1="893" x2="1059" y1="39" y2="39"/><line style="stroke:#181818;stroke-width:0.5;" x1="893" x2="1059" y1="47" y2="47"/></g><!--MD5=[38bc9548dd9b3552396f9d08e2f99d94]
class EmployeeDto--><g id="elem_EmployeeDto"><rect codeLine="32" fill="#F1F1F1" height="179.9063" id="EmployeeDto" rx="2.5" ry="2.5" style="stroke:#181818;stroke-width:0.5;" width="156" x="636" y="498"/><ellipse cx="666.3" cy="514" fill="#ADD1B2" rx="11" ry="11" style="stroke:#181818;stroke-width:1.0;"/><path d="M668.7731,520.1431 Q668.1921,520.4419 667.5529,520.5913 Q666.9138,520.7407 666.2082,520.7407 Q663.7014,520.7407 662.3815,519.0889 Q661.0617,517.437 661.0617,514.3159 Q661.0617,511.1865 662.3815,509.5347 Q663.7014,507.8828 666.2082,507.8828 Q666.9138,507.8828 667.5612,508.0322 Q668.2087,508.1816 668.7731,508.4805 L668.7731,511.2031 Q668.1423,510.6221 667.5488,510.3523 Q666.9553,510.0825 666.3244,510.0825 Q664.9797,510.0825 664.2949,511.1492 Q663.6101,512.2158 663.6101,514.3159 Q663.6101,516.4077 664.2949,517.4744 Q664.9797,518.541 666.3244,518.541 Q666.9553,518.541 667.5488,518.2712 Q668.1423,518.0015 668.7731,517.4204 Z " fill="#000000"/><text fill="#000000" font-family="sans-serif" font-size="14" lengthAdjust="spacing" textLength="90" x="683.7" y="519.291">EmployeeDto</text><line style="stroke:#181818;stroke-width:0.5;" x1="637" x2="791" y1="530" y2="530"/><line style="stroke:#181818;stroke-width:0.5;" x1="637" x2="791" y1="538" y2="538"/><ellipse cx="647" cy="549" fill="#84BE84" rx="3" ry="3" style="stroke:#038048;stroke-width:1.0;"/><text fill="#000000" font-family="sans-serif" font-size="14" lengthAdjust="spacing" textLength="71" x="656" y="555.5352">getName()</text><ellipse cx="647" cy="565.4883" fill="#84BE84" rx="3" ry="3" style="stroke:#038048;stroke-width:1.0;"/><text fill="#000000" font-family="sans-serif" font-size="14" lengthAdjust="spacing" textLength="46" x="656" y="572.0234">getID()</text><ellipse cx="647" cy="581.9766" fill="#84BE84" rx="3" ry="3" style="stroke:#038048;stroke-width:1.0;"/><text fill="#000000" font-family="sans-serif" font-size="14" lengthAdjust="spacing" textLength="97" x="656" y="588.5117">getPassword()</text><ellipse cx="647" cy="598.4648" fill="#84BE84" rx="3" ry="3" style="stroke:#038048;stroke-width:1.0;"/><text fill="#000000" font-family="sans-serif" font-size="14" lengthAdjust="spacing" textLength="69" x="656" y="605">getEmail()</text><ellipse cx="647" cy="614.9531" fill="#84BE84" rx="3" ry="3" style="stroke:#038048;stroke-width:1.0;"/><text fill="#000000" font-family="sans-serif" font-size="14" lengthAdjust="spacing" textLength="130" x="656" y="621.4883">getPhoneNumber()</text><ellipse cx="647" cy="631.4414" fill="#84BE84" rx="3" ry="3" style="stroke:#038048;stroke-width:1.0;"/><text fill="#000000" font-family="sans-serif" font-size="14" lengthAdjust="spacing" textLength="107" x="656" y="637.9766">getCCNumber()</text><ellipse cx="647" cy="647.9297" fill="#84BE84" rx="3" ry="3" style="stroke:#038048;stroke-width:1.0;"/><text fill="#000000" font-family="sans-serif" font-size="14" lengthAdjust="spacing" textLength="88" x="656" y="654.4648">getAddress()</text><ellipse cx="647" cy="664.418" fill="#84BE84" rx="3" ry="3" style="stroke:#038048;stroke-width:1.0;"/><text fill="#000000" font-family="sans-serif" font-size="14" lengthAdjust="spacing" textLength="62" x="656" y="670.9531">getRole()</text></g><!--MD5=[829fb52c07ade3ad64ef85b99d1fca10]
class EmployeeStore--><g id="elem_EmployeeStore"><rect codeLine="43" fill="#F1F1F1" height="163.418" id="EmployeeStore" rx="2.5" ry="2.5" style="stroke:#181818;stroke-width:0.5;" width="234" x="80" y="274"/><ellipse cx="141.75" cy="290" fill="#ADD1B2" rx="11" ry="11" style="stroke:#181818;stroke-width:1.0;"/><path d="M144.2231,296.1431 Q143.6421,296.4419 143.0029,296.5913 Q142.3638,296.7407 141.6582,296.7407 Q139.1514,296.7407 137.8315,295.0889 Q136.5117,293.437 136.5117,290.3159 Q136.5117,287.1865 137.8315,285.5347 Q139.1514,283.8828 141.6582,283.8828 Q142.3638,283.8828 143.0112,284.0322 Q143.6587,284.1816 144.2231,284.4805 L144.2231,287.2031 Q143.5923,286.6221 142.9988,286.3523 Q142.4053,286.0825 141.7744,286.0825 Q140.4297,286.0825 139.7449,287.1492 Q139.0601,288.2158 139.0601,290.3159 Q139.0601,292.4077 139.7449,293.4744 Q140.4297,294.541 141.7744,294.541 Q142.4053,294.541 142.9988,294.2712 Q143.5923,294.0015 144.2231,293.4204 Z " fill="#000000"/><text fill="#000000" font-family="sans-serif" font-size="14" lengthAdjust="spacing" textLength="102" x="162.25" y="295.291">EmployeeStore</text><line style="stroke:#181818;stroke-width:0.5;" x1="81" x2="313" y1="306" y2="306"/><line style="stroke:#181818;stroke-width:0.5;" x1="81" x2="313" y1="314" y2="314"/><ellipse cx="91" cy="325" fill="#84BE84" rx="3" ry="3" style="stroke:#038048;stroke-width:1.0;"/><text fill="#000000" font-family="sans-serif" font-size="14" lengthAdjust="spacing" textLength="208" x="100" y="331.5352">createEmployee(employeeDto)</text><ellipse cx="91" cy="341.4883" fill="#84BE84" rx="3" ry="3" style="stroke:#038048;stroke-width:1.0;"/><text fill="#000000" font-family="sans-serif" font-size="14" lengthAdjust="spacing" textLength="195" x="100" y="348.0234">validateEmployee(employee)</text><ellipse cx="91" cy="357.9766" fill="#84BE84" rx="3" ry="3" style="stroke:#038048;stroke-width:1.0;"/><text fill="#000000" font-family="sans-serif" font-size="14" lengthAdjust="spacing" textLength="172" x="100" y="364.5117">saveEmployee(employee)</text><rect fill="#F24D5C" height="6" style="stroke:#C82930;stroke-width:1.0;" width="6" x="88" y="371.4648"/><text fill="#000000" font-family="sans-serif" font-size="14" lengthAdjust="spacing" textLength="168" x="100" y="381">addEmployee(employee)</text><rect fill="#F24D5C" height="6" style="stroke:#C82930;stroke-width:1.0;" width="6" x="88" y="387.9531"/><text fill="#000000" font-family="sans-serif" font-size="14" lengthAdjust="spacing" textLength="186" x="100" y="397.4883">checkDuplicates(employee)</text><rect fill="#F24D5C" height="6" style="stroke:#C82930;stroke-width:1.0;" width="6" x="88" y="404.4414"/><text fill="#000000" font-family="sans-serif" font-size="14" lengthAdjust="spacing" textLength="85" x="100" y="413.9766">generateID()</text><rect fill="#F24D5C" height="6" style="stroke:#C82930;stroke-width:1.0;" width="6" x="88" y="420.9297"/><text fill="#000000" font-family="sans-serif" font-size="14" lengthAdjust="spacing" textLength="136" x="100" y="430.4648">generatePassword()</text></g><!--MD5=[9a2889027d1a5f59ee05c53124f224f8]
class PasswordGenerator--><g id="elem_PasswordGenerator"><rect codeLine="53" fill="#F1F1F1" height="64.4883" id="PasswordGenerator" rx="2.5" ry="2.5" style="stroke:#181818;stroke-width:0.5;" width="166" x="7" y="556"/><ellipse cx="22" cy="572" fill="#ADD1B2" rx="11" ry="11" style="stroke:#181818;stroke-width:1.0;"/><path d="M24.4731,578.1431 Q23.8921,578.4419 23.2529,578.5913 Q22.6138,578.7407 21.9082,578.7407 Q19.4014,578.7407 18.0815,577.0889 Q16.7617,575.437 16.7617,572.3159 Q16.7617,569.1865 18.0815,567.5347 Q19.4014,565.8828 21.9082,565.8828 Q22.6138,565.8828 23.2612,566.0322 Q23.9087,566.1816 24.4731,566.4805 L24.4731,569.2031 Q23.8423,568.6221 23.2488,568.3523 Q22.6553,568.0825 22.0244,568.0825 Q20.6797,568.0825 19.9949,569.1492 Q19.3101,570.2158 19.3101,572.3159 Q19.3101,574.4077 19.9949,575.4744 Q20.6797,576.541 22.0244,576.541 Q22.6553,576.541 23.2488,576.2712 Q23.8423,576.0015 24.4731,575.4204 Z " fill="#000000"/><text fill="#000000" font-family="sans-serif" font-size="14" lengthAdjust="spacing" textLength="134" x="36" y="577.291">PasswordGenerator</text><line style="stroke:#181818;stroke-width:0.5;" x1="8" x2="172" y1="588" y2="588"/><line style="stroke:#181818;stroke-width:0.5;" x1="8" x2="172" y1="596" y2="596"/><ellipse cx="18" cy="607" fill="#84BE84" rx="3" ry="3" style="stroke:#038048;stroke-width:1.0;"/><text fill="#000000" font-family="sans-serif" font-size="14" lengthAdjust="spacing" textLength="136" x="27" y="613.5352">generatePassword()</text></g><!--MD5=[8ae808d068a8995f06b9b3ec51357f0b]
class AuthFacade--><g id="elem_AuthFacade"><rect codeLine="57" fill="#F1F1F1" height="179.9063" id="AuthFacade" rx="2.5" ry="2.5" style="stroke:#181818;stroke-width:0.5;" width="194" x="208" y="498"/><ellipse cx="260.25" cy="514" fill="#ADD1B2" rx="11" ry="11" style="stroke:#181818;stroke-width:1.0;"/><path d="M262.7231,520.1431 Q262.1421,520.4419 261.5029,520.5913 Q260.8638,520.7407 260.1582,520.7407 Q257.6514,520.7407 256.3315,519.0889 Q255.0117,517.437 255.0117,514.3159 Q255.0117,511.1865 256.3315,509.5347 Q257.6514,507.8828 260.1582,507.8828 Q260.8638,507.8828 261.5112,508.0322 Q262.1587,508.1816 262.7231,508.4805 L262.7231,511.2031 Q262.0923,510.6221 261.4988,510.3523 Q260.9053,510.0825 260.2744,510.0825 Q258.9297,510.0825 258.2449,511.1492 Q257.5601,512.2158 257.5601,514.3159 Q257.5601,516.4077 258.2449,517.4744 Q258.9297,518.541 260.2744,518.541 Q260.9053,518.541 261.4988,518.2712 Q262.0923,518.0015 262.7231,517.4204 Z " fill="#000000"/><text fill="#000000" font-family="sans-serif" font-size="14" lengthAdjust="spacing" textLength="81" x="280.75" y="519.291">AuthFacade</text><line style="stroke:#181818;stroke-width:0.5;" x1="209" x2="401" y1="530" y2="530"/><line style="stroke:#181818;stroke-width:0.5;" x1="209" x2="401" y1="538" y2="538"/><ellipse cx="219" cy="549" fill="#84BE84" rx="3" ry="3" style="stroke:#038048;stroke-width:1.0;"/><text fill="#000000" font-family="sans-serif" font-size="14" lengthAdjust="spacing" textLength="91" x="228" y="555.5352">AuthFacade()</text><ellipse cx="219" cy="565.4883" fill="#84BE84" rx="3" ry="3" style="stroke:#038048;stroke-width:1.0;"/><text fill="#000000" font-family="sans-serif" font-size="14" lengthAdjust="spacing" textLength="97" x="228" y="572.0234">addUserRole()</text><ellipse cx="219" cy="581.9766" fill="#84BE84" rx="3" ry="3" style="stroke:#038048;stroke-width:1.0;"/><text fill="#000000" font-family="sans-serif" font-size="14" lengthAdjust="spacing" textLength="67" x="228" y="588.5117">addUser()</text><ellipse cx="219" cy="598.4648" fill="#84BE84" rx="3" ry="3" style="stroke:#038048;stroke-width:1.0;"/><text fill="#000000" font-family="sans-serif" font-size="14" lengthAdjust="spacing" textLength="127" x="228" y="605">addUserWithRole()</text><ellipse cx="219" cy="614.9531" fill="#84BE84" rx="3" ry="3" style="stroke:#038048;stroke-width:1.0;"/><text fill="#000000" font-family="sans-serif" font-size="14" lengthAdjust="spacing" textLength="81" x="228" y="621.4883">existsUser()</text><ellipse cx="219" cy="631.4414" fill="#84BE84" rx="3" ry="3" style="stroke:#038048;stroke-width:1.0;"/><text fill="#000000" font-family="sans-serif" font-size="14" lengthAdjust="spacing" textLength="66" x="228" y="637.9766">doLogin()</text><ellipse cx="219" cy="647.9297" fill="#84BE84" rx="3" ry="3" style="stroke:#038048;stroke-width:1.0;"/><text fill="#000000" font-family="sans-serif" font-size="14" lengthAdjust="spacing" textLength="76" x="228" y="654.4648">doLogout()</text><ellipse cx="219" cy="664.418" fill="#84BE84" rx="3" ry="3" style="stroke:#038048;stroke-width:1.0;"/><text fill="#000000" font-family="sans-serif" font-size="14" lengthAdjust="spacing" textLength="168" x="228" y="670.9531">getCurrentUserSession()</text></g><!--MD5=[076db975c88cf7f13abacd5498fb3959]
class userRoleMapper--><g id="elem_userRoleMapper"><rect codeLine="68" fill="#F1F1F1" height="64.4883" id="userRoleMapper" rx="2.5" ry="2.5" style="stroke:#181818;stroke-width:0.5;" width="144" x="904" y="323.5"/><ellipse cx="919" cy="339.5" fill="#ADD1B2" rx="11" ry="11" style="stroke:#181818;stroke-width:1.0;"/><path d="M921.4731,345.6431 Q920.8921,345.9419 920.2529,346.0913 Q919.6138,346.2407 918.9082,346.2407 Q916.4014,346.2407 915.0815,344.5889 Q913.7617,342.937 913.7617,339.8159 Q913.7617,336.6865 915.0815,335.0347 Q916.4014,333.3828 918.9082,333.3828 Q919.6138,333.3828 920.2612,333.5322 Q920.9087,333.6816 921.4731,333.9805 L921.4731,336.7031 Q920.8423,336.1221 920.2488,335.8523 Q919.6553,335.5825 919.0244,335.5825 Q917.6797,335.5825 916.9949,336.6492 Q916.3101,337.7158 916.3101,339.8159 Q916.3101,341.9077 916.9949,342.9744 Q917.6797,344.041 919.0244,344.041 Q919.6553,344.041 920.2488,343.7712 Q920.8423,343.5015 921.4731,342.9204 Z " fill="#000000"/><text fill="#000000" font-family="sans-serif" font-size="14" lengthAdjust="spacing" textLength="112" x="933" y="344.791">userRoleMapper</text><line style="stroke:#181818;stroke-width:0.5;" x1="905" x2="1047" y1="355.5" y2="355.5"/><line style="stroke:#181818;stroke-width:0.5;" x1="905" x2="1047" y1="363.5" y2="363.5"/><ellipse cx="915" cy="374.5" fill="#84BE84" rx="3" ry="3" style="stroke:#038048;stroke-width:1.0;"/><text fill="#000000" font-family="sans-serif" font-size="14" lengthAdjust="spacing" textLength="94" x="924" y="381.0352">userRoleDto()</text></g><!--MD5=[c40cceaa5e7beed427544ee8cb33103f]
class RoleDto--><g id="elem_RoleDto"><rect codeLine="72" fill="#F1F1F1" height="113.9531" id="RoleDto" rx="2.5" ry="2.5" style="stroke:#181818;stroke-width:0.5;" width="148" x="902" y="531"/><ellipse cx="944.9" cy="547" fill="#ADD1B2" rx="11" ry="11" style="stroke:#181818;stroke-width:1.0;"/><path d="M947.3731,553.1431 Q946.7921,553.4419 946.1529,553.5913 Q945.5138,553.7407 944.8082,553.7407 Q942.3014,553.7407 940.9815,552.0889 Q939.6617,550.437 939.6617,547.3159 Q939.6617,544.1865 940.9815,542.5347 Q942.3014,540.8828 944.8082,540.8828 Q945.5138,540.8828 946.1612,541.0322 Q946.8087,541.1816 947.3731,541.4805 L947.3731,544.2031 Q946.7423,543.6221 946.1488,543.3523 Q945.5553,543.0825 944.9244,543.0825 Q943.5797,543.0825 942.8949,544.1492 Q942.2101,545.2158 942.2101,547.3159 Q942.2101,549.4077 942.8949,550.4744 Q943.5797,551.541 944.9244,551.541 Q945.5553,551.541 946.1488,551.2712 Q946.7423,551.0015 947.3731,550.4204 Z " fill="#000000"/><text fill="#000000" font-family="sans-serif" font-size="14" lengthAdjust="spacing" textLength="54" x="965.1" y="552.291">RoleDto</text><line style="stroke:#181818;stroke-width:0.5;" x1="903" x2="1049" y1="563" y2="563"/><rect fill="none" height="6" style="stroke:#C82930;stroke-width:1.0;" width="6" x="910" y="571"/><text fill="#000000" font-family="sans-serif" font-size="14" lengthAdjust="spacing" textLength="58" x="922" y="580.5352">String id</text><rect fill="none" height="6" style="stroke:#C82930;stroke-width:1.0;" width="6" x="910" y="587.4883"/><text fill="#000000" font-family="sans-serif" font-size="14" lengthAdjust="spacing" textLength="122" x="922" y="597.0234">String description</text><line style="stroke:#181818;stroke-width:1.0;" x1="903" x2="1049" y1="603.9766" y2="603.9766"/><ellipse cx="913" cy="614.9766" fill="#84BE84" rx="3" ry="3" style="stroke:#038048;stroke-width:1.0;"/><text fill="#000000" font-family="sans-serif" font-size="14" lengthAdjust="spacing" textLength="110" x="922" y="621.5117">getDescription()</text><ellipse cx="913" cy="631.4648" fill="#84BE84" rx="3" ry="3" style="stroke:#038048;stroke-width:1.0;"/><text fill="#000000" font-family="sans-serif" font-size="14" lengthAdjust="spacing" textLength="62" x="922" y="638">getRole()</text></g><!--MD5=[65164d6313e624406ece12568ba409d6]
link RegisterEmployeeUI to EmployeeDto--><g id="link_RegisterEmployeeUI_EmployeeDto"><path codeLine="81" d="M992.54,55.1 C1037.71,121.24 1154.03,314.44 1066,437 C1016.48,505.95 963.11,464.75 885,498 C855.74,510.45 824.65,525.92 797.12,540.45 " fill="none" id="RegisterEmployeeUI-to-EmployeeDto" style="stroke:#181818;stroke-width:1.0;stroke-dasharray:7.0,7.0;"/><polygon fill="#181818" points="792.37,542.96,802.1949,542.2739,796.7865,540.616,798.4445,535.2075,792.37,542.96" style="stroke:#181818;stroke-width:1.0;"/></g><!--MD5=[3fd241ca11f270f6bde54c00b8a8581a]
link RegisterEmployeeUI to RegisterEmployeeController--><g id="link_RegisterEmployeeUI_RegisterEmployeeController"><path codeLine="82" d="M941.94,55.21 C918.53,71.16 886.52,92.97 857.36,112.83 " fill="none" id="RegisterEmployeeUI-to-RegisterEmployeeController" style="stroke:#181818;stroke-width:1.0;stroke-dasharray:7.0,7.0;"/><polygon fill="#181818" points="853.08,115.75,862.7696,113.9859,857.2114,112.9338,858.2636,107.3756,853.08,115.75" style="stroke:#181818;stroke-width:1.0;"/></g><!--MD5=[969ee03aa52aee79b0e607297418cbd4]
link RegisterEmployeeController to Company--><g id="link_RegisterEmployeeController_Company"><path codeLine="83" d="M701.49,213.19 C649.34,243.71 582.29,282.94 532.08,312.32 " fill="none" id="RegisterEmployeeController-to-Company" style="stroke:#181818;stroke-width:1.0;stroke-dasharray:7.0,7.0;"/><polygon fill="#181818" points="527.58,314.95,537.3673,313.8501,531.8937,312.4218,533.3221,306.9482,527.58,314.95" style="stroke:#181818;stroke-width:1.0;"/></g><!--MD5=[2d8a53e9624ba54287d0a5c6da82a9db]
link RegisterEmployeeController to EmployeeStore--><g id="link_RegisterEmployeeController_EmployeeStore"><path codeLine="84" d="M663.4,189.74 C578.3,208.59 461.96,237.63 363,274 C348.42,279.36 333.41,285.57 318.66,292.13 " fill="none" id="RegisterEmployeeController-to-EmployeeStore" style="stroke:#181818;stroke-width:1.0;stroke-dasharray:7.0,7.0;"/><polygon fill="#181818" points="314.09,294.17,323.9388,294.15,318.6549,292.13,320.6749,286.8461,314.09,294.17" style="stroke:#181818;stroke-width:1.0;"/></g><!--MD5=[79d7a09edf5d57a7bef860ef867ea973]
link RegisterEmployeeController to userRoleMapper--><g id="link_RegisterEmployeeController_userRoleMapper"><path codeLine="85" d="M843.87,213.35 C855.16,222.87 866.65,233.02 877,243 C902.02,267.12 928.02,296.6 947.09,319.19 " fill="none" id="RegisterEmployeeController-to-userRoleMapper" style="stroke:#181818;stroke-width:1.0;stroke-dasharray:7.0,7.0;"/><polygon fill="#181818" points="950.33,323.04,947.6066,313.5752,947.115,319.2106,941.4796,318.7191,950.33,323.04" style="stroke:#181818;stroke-width:1.0;"/></g><!--MD5=[7c63a46d16d075ca7ac66937a2a499f7]
link RegisterEmployeeController to Employee--><g id="link_RegisterEmployeeController_Employee"><path codeLine="86" d="M765.59,213.19 C759.41,230.13 752.24,249.75 745.26,268.88 " fill="none" id="RegisterEmployeeController-to-Employee" style="stroke:#181818;stroke-width:1.0;stroke-dasharray:7.0,7.0;"/><polygon fill="#181818" points="743.49,273.73,750.3318,266.6455,745.2033,269.0327,742.8161,263.9042,743.49,273.73" style="stroke:#181818;stroke-width:1.0;"/></g><!--MD5=[191e57d3fedc4fa69661f6159fa1a1a3]
link RegisterEmployeeController to EmployeeDto--><g id="link_RegisterEmployeeController_EmployeeDto"><path codeLine="87" d="M800.49,213.15 C818.05,268.21 839.4,360.99 816,437 C810.02,456.42 800.58,475.59 789.79,493.38 " fill="none" id="RegisterEmployeeController-to-EmployeeDto" style="stroke:#181818;stroke-width:1.0;stroke-dasharray:7.0,7.0;"/><polygon fill="#181818" points="787.02,497.88,795.1518,492.3236,789.6469,493.6256,788.3448,488.1207,787.02,497.88" style="stroke:#181818;stroke-width:1.0;"/></g><!--MD5=[8971edab510d44091c5f388fd1a869d4]
reverse link EmployeeStore to Company--><g id="link_EmployeeStore_Company"><path codeLine="88" d="M319.48,355.5 C340,355.5 360.82,355.5 379.92,355.5 " fill="none" id="EmployeeStore-backto-Company" style="stroke:#181818;stroke-width:1.0;"/><polygon fill="#181818" points="314.27,355.5,323.27,359.5,319.27,355.5,323.27,351.5,314.27,355.5" style="stroke:#181818;stroke-width:1.0;"/><text fill="#000000" font-family="sans-serif" font-size="13" lengthAdjust="spacing" textLength="29" x="332.5" y="349.0684">uses</text><text fill="#000000" font-family="sans-serif" font-size="13" lengthAdjust="spacing" textLength="8" x="322.0389" y="352.5844">1</text><text fill="#000000" font-family="sans-serif" font-size="13" lengthAdjust="spacing" textLength="8" x="363.9061" y="352.3694">1</text></g><!--MD5=[1a9022b014ad78cd3bd4fcae49f45db1]
link Company to EmployeeDto--><g id="link_Company_EmployeeDto"><path codeLine="89" d="M503.66,396.12 C538.84,428.05 589.29,473.83 631.97,512.56 " fill="none" id="Company-to-EmployeeDto" style="stroke:#181818;stroke-width:1.0;stroke-dasharray:7.0,7.0;"/><polygon fill="#181818" points="635.81,516.04,631.8326,507.03,632.1071,512.6802,626.4569,512.9547,635.81,516.04" style="stroke:#181818;stroke-width:1.0;"/></g><!--MD5=[09366576ee87d48d594df10cacc83f45]
link Company to Employee--><g id="link_Company_Employee"><path codeLine="90" d="M540.02,355.5 C566.99,355.5 597.25,355.5 624.87,355.5 " fill="none" id="Company-to-Employee" style="stroke:#181818;stroke-width:1.0;"/><polygon fill="#181818" points="630,355.5,621,351.5,625,355.5,621,359.5,630,355.5" style="stroke:#181818;stroke-width:1.0;"/><text fill="#000000" font-family="sans-serif" font-size="13" lengthAdjust="spacing" textLength="53" x="558.5" y="349.0684">employs</text><text fill="#000000" font-family="sans-serif" font-size="13" lengthAdjust="spacing" textLength="8" x="548.0282" y="352.3694">1</text><text fill="#000000" font-family="sans-serif" font-size="13" lengthAdjust="spacing" textLength="6" x="615.9797" y="352.372">*</text></g><!--MD5=[b50f123a82f4d0232d0e251398657adb]
link userRoleMapper to RoleDto--><g id="link_userRoleMapper_RoleDto"><path codeLine="91" d="M976,387.59 C976,422.85 976,481.22 976,525.72 " fill="none" id="userRoleMapper-to-RoleDto" style="stroke:#181818;stroke-width:1.0;stroke-dasharray:7.0,7.0;"/><polygon fill="#181818" points="976,530.8,980,521.8,976,525.8,972,521.8,976,530.8" style="stroke:#181818;stroke-width:1.0;"/></g><!--MD5=[5f9c8ac4f6d94da8c5cd6c4707a602ba]
link Employee to EmployeeDto--><g id="link_Employee_EmployeeDto"><path codeLine="92" d="M714,437.12 C714,455.04 714,474.19 714,492.6 " fill="none" id="Employee-to-EmployeeDto" style="stroke:#181818;stroke-width:1.0;stroke-dasharray:7.0,7.0;"/><polygon fill="#181818" points="714,497.77,718,488.77,714,492.77,710,488.77,714,497.77" style="stroke:#181818;stroke-width:1.0;"/></g><!--MD5=[4e174ecb1fa80f9039df9a21e1a7acca]
link EmployeeStore to EmployeeDto--><g id="link_EmployeeStore_EmployeeDto"><path codeLine="93" d="M314.11,414.15 C330.47,421.95 347.12,429.76 363,437 C454.01,478.49 559.72,523.2 631.16,552.91 " fill="none" id="EmployeeStore-to-EmployeeDto" style="stroke:#181818;stroke-width:1.0;stroke-dasharray:7.0,7.0;"/><polygon fill="#181818" points="635.81,554.84,629.0486,547.6787,631.1967,552.9119,625.9636,555.06,635.81,554.84" style="stroke:#181818;stroke-width:1.0;"/></g><!--MD5=[27d36d3e9da4627279500943321b912e]
link EmployeeStore to AuthFacade--><g id="link_EmployeeStore_AuthFacade"><path codeLine="94" d="M234.77,437.12 C243.24,455.19 252.29,474.51 260.99,493.07 " fill="none" id="EmployeeStore-to-AuthFacade" style="stroke:#181818;stroke-width:1.0;stroke-dasharray:7.0,7.0;"/><polygon fill="#181818" points="263.19,497.77,262.9816,487.9233,261.0631,493.2449,255.7415,491.3264,263.19,497.77" style="stroke:#181818;stroke-width:1.0;"/></g><!--MD5=[cb04af064b34965b13e3441af3b2cb09]
link EmployeeStore to PasswordGenerator--><g id="link_EmployeeStore_PasswordGenerator"><path codeLine="95" d="M159.58,437.12 C141.5,476.06 120.72,520.81 106.62,551.21 " fill="none" id="EmployeeStore-to-PasswordGenerator" style="stroke:#181818;stroke-width:1.0;stroke-dasharray:7.0,7.0;"/><polygon fill="#181818" points="104.41,555.96,111.825,549.4779,106.5135,551.424,104.5674,546.1124,104.41,555.96" style="stroke:#181818;stroke-width:1.0;"/></g><!--MD5=[5ca598f714f880dbfe0d8ae1705cf18e]
@startuml

top to bottom direction

class Employee{
    -String name
    -String email
    -int phoneNumber
    -int CCNumber
    -String address
    -String role
    - - - -
    +create(employeeDto)
}


class Company{
    -designation
    - - - -
    +getEmployeeStore()
}

class RegisterEmployeeController{
    +getEmployeeDto()
    +RegisterEmployee(emplyeeDto)
    +saveEmployee()
}

class RegisterEmployeeUI{

}

class EmployeeDto{
    +getName()
    +getID()
    +getPassword()
    +getEmail()
    +getPhoneNumber()
    +getCCNumber()
    +getAddress()
    +getRole()
}

class EmployeeStore{
    +createEmployee(employeeDto)
    +validateEmployee(employee)
    +saveEmployee(employee)
    -addEmployee(employee)
    -checkDuplicates(employee)
    -generateID()
    -generatePassword()
}

class PasswordGenerator{
    +generatePassword()
}

class AuthFacade{
    +AuthFacade()
    +addUserRole()
    +addUser()
    +addUserWithRole()
    +existsUser()
    +doLogin()
    +doLogout()
    +getCurrentUserSession()
}

class userRoleMapper{
    +userRoleDto()
}

class RoleDto{
    -String id
    -String description
    - - - -
    +getDescription()
    +getRole()
}


RegisterEmployeeUI..>EmployeeDto
RegisterEmployeeUI..>RegisterEmployeeController
RegisterEmployeeController..>Company
RegisterEmployeeController..>EmployeeStore
RegisterEmployeeController..>userRoleMapper
RegisterEmployeeController..>Employee
RegisterEmployeeController..>EmployeeDto
Company"1"-up>"1"EmployeeStore:uses
Company..>EmployeeDto
Company "1"->"*"Employee:employs
userRoleMapper..>RoleDto 
Employee..>EmployeeDto
EmployeeStore..>EmployeeDto
EmployeeStore..>AuthFacade
EmployeeStore..>PasswordGenerator

@enduml

PlantUML version 1.2022.4(Sat Apr 09 14:29:17 WEST 2022)
(GPL source distribution)
Java Runtime: OpenJDK Runtime Environment
JVM: OpenJDK 64-Bit Server VM
Default Encoding: UTF-8
Language: pt
Country: PT
--></g></svg>