@startuml

class Company {
  -designation
  -getVacCenterStore()

 }


 class StatisticsController {

 }


class Utils{
-chooseVacCenter()
}
class FullVaccinatedData{
-getFullVaccinatedDTO()
}
class FullyVaccinated{
-getfullyVaccinated()
}

class FileCreator{
-getProperty
}


 VacinationStatisticsGUI ..> StatisticsController
 StatisticsController ..> Utils
 StatisticsController ..> Company
 Company "1" --> "*" FullVaccinatedData : owns
 Company "1" --> "*" FullyVaccinated: owns
 StatisticsController ..> FileCreator







@enduml