<?xml version="1.0" encoding="UTF-8" standalone="no"?><svg xmlns="http://www.w3.org/2000/svg" xmlns:xlink="http://www.w3.org/1999/xlink" contentStyleType="text/css" height="772px" preserveAspectRatio="none" style="width:515px;height:772px;background:#FFFFFF;" version="1.1" viewBox="0 0 515 772" width="515px" zoomAndPan="magnify"><defs/><g><!--MD5=[de60e6d4f424ae4d0522096f76a59010]
class VaccinationCenter--><g id="elem_VaccinationCenter"><rect codeLine="4" fill="#F1F1F1" height="233.7031" id="VaccinationCenter" rx="2.5" ry="2.5" style="stroke:#181818;stroke-width:0.5;" width="148" x="7" y="125"/><ellipse cx="22" cy="141" fill="#ADD1B2" rx="11" ry="11" style="stroke:#181818;stroke-width:1.0;"/><path d="M24,137.5 Q24.2031,137 24.4375,136.75 Q24.6719,136.5 24.9375,136.5 Q25.4063,136.5 25.7031,136.7813 Q26,137.0625 26,137.7188 L26,139.2813 Q26,139.9375 25.7188,140.2188 Q25.4375,140.5 25,140.5 Q24.6094,140.5 24.3594,140.3281 Q24.1094,140.1563 24,139.7031 Q23.9531,139.3906 23.7813,139.2188 Q23.4688,138.8906 22.9063,138.7031 Q22.3438,138.5 21.7813,138.5 Q21.0781,138.5 20.4844,138.7813 Q19.9063,139.0625 19.4531,139.6875 Q19,140.3125 19,141.1719 L19,142.0938 Q19,143.125 19.8438,143.8125 Q20.6875,144.5 22.1875,144.5 Q23.0781,144.5 23.7031,144.2969 Q24.0625,144.1875 24.4688,143.8281 Q24.7344,143.625 24.875,143.5625 Q25.0156,143.5 25.1875,143.5 Q25.5156,143.5 25.75,143.7656 Q26,144.0156 26,144.375 Q26,144.7188 25.6563,145.125 Q25.1563,145.7188 24.3594,146.0469 Q23.3125,146.5 22.0313,146.5 Q20.5313,146.5 19.3281,145.9063 Q18.3594,145.4375 17.6719,144.4219 Q17,143.4063 17,142.2031 L17,141.1094 Q17,139.8594 17.5938,138.7656 Q18.2031,137.6719 19.25,137.0938 Q20.3125,136.5 21.5,136.5 Q22.2188,136.5 22.8438,136.75 Q23.4688,137 24,137.5 Z " fill="#000000"/><text fill="#000000" font-family="sans-serif" font-size="14" lengthAdjust="spacing" textLength="116" x="36" y="146.7285">VaccinationCenter</text><line style="stroke:#181818;stroke-width:0.5;" x1="8" x2="154" y1="157" y2="157"/><text fill="#000000" font-family="sans-serif" font-size="14" lengthAdjust="spacing" textLength="40" x="13" y="175.5332">-name</text><text fill="#000000" font-family="sans-serif" font-size="14" lengthAdjust="spacing" textLength="56" x="13" y="193.1426">-address</text><text fill="#000000" font-family="sans-serif" font-size="14" lengthAdjust="spacing" textLength="94" x="13" y="210.752">-phoneNumber</text><text fill="#000000" font-family="sans-serif" font-size="14" lengthAdjust="spacing" textLength="90" x="13" y="228.3613">-emailAddress</text><text fill="#000000" font-family="sans-serif" font-size="14" lengthAdjust="spacing" textLength="72" x="13" y="245.9707">-faxNumber</text><text fill="#000000" font-family="sans-serif" font-size="14" lengthAdjust="spacing" textLength="104" x="13" y="263.5801">-websiteAddress</text><text fill="#000000" font-family="sans-serif" font-size="14" lengthAdjust="spacing" textLength="93" x="13" y="281.1895">-openingHours</text><text fill="#000000" font-family="sans-serif" font-size="14" lengthAdjust="spacing" textLength="86" x="13" y="298.7988">-closingHours</text><text fill="#000000" font-family="sans-serif" font-size="14" lengthAdjust="spacing" textLength="81" x="13" y="316.4082">-slotDuration</text><text fill="#000000" font-family="sans-serif" font-size="14" lengthAdjust="spacing" textLength="127" x="13" y="334.0176">-maxNumVaxPerSlot</text><text fill="#000000" font-family="sans-serif" font-size="14" lengthAdjust="spacing" textLength="57" x="13" y="351.627">-capacity</text></g><!--MD5=[02e4b9b7573f1156f41e60aa5b4e25a4]
class Company--><g id="elem_Company"><rect codeLine="19" fill="#F1F1F1" height="40" id="Company" rx="2.5" ry="2.5" style="stroke:#181818;stroke-width:0.5;" width="92" x="261" y="7"/><ellipse cx="276" cy="23" fill="#ADD1B2" rx="11" ry="11" style="stroke:#181818;stroke-width:1.0;"/><path d="M278,19.5 Q278.2031,19 278.4375,18.75 Q278.6719,18.5 278.9375,18.5 Q279.4063,18.5 279.7031,18.7813 Q280,19.0625 280,19.7188 L280,21.2813 Q280,21.9375 279.7188,22.2188 Q279.4375,22.5 279,22.5 Q278.6094,22.5 278.3594,22.3281 Q278.1094,22.1563 278,21.7031 Q277.9531,21.3906 277.7813,21.2188 Q277.4688,20.8906 276.9063,20.7031 Q276.3438,20.5 275.7813,20.5 Q275.0781,20.5 274.4844,20.7813 Q273.9063,21.0625 273.4531,21.6875 Q273,22.3125 273,23.1719 L273,24.0938 Q273,25.125 273.8438,25.8125 Q274.6875,26.5 276.1875,26.5 Q277.0781,26.5 277.7031,26.2969 Q278.0625,26.1875 278.4688,25.8281 Q278.7344,25.625 278.875,25.5625 Q279.0156,25.5 279.1875,25.5 Q279.5156,25.5 279.75,25.7656 Q280,26.0156 280,26.375 Q280,26.7188 279.6563,27.125 Q279.1563,27.7188 278.3594,28.0469 Q277.3125,28.5 276.0313,28.5 Q274.5313,28.5 273.3281,27.9063 Q272.3594,27.4375 271.6719,26.4219 Q271,25.4063 271,24.2031 L271,23.1094 Q271,21.8594 271.5938,20.7656 Q272.2031,19.6719 273.25,19.0938 Q274.3125,18.5 275.5,18.5 Q276.2188,18.5 276.8438,18.75 Q277.4688,19 278,19.5 Z " fill="#000000"/><text fill="#000000" font-family="sans-serif" font-size="14" lengthAdjust="spacing" textLength="60" x="290" y="28.7285">Company</text><line style="stroke:#181818;stroke-width:0.5;" x1="262" x2="352" y1="39" y2="39"/></g><!--MD5=[72be06cc7ae02ccc98efe28a50e62246]
class SNSUser--><g id="elem_SNSUser"><rect codeLine="23" fill="#F1F1F1" height="128.0469" id="SNSUser" rx="2.5" ry="2.5" style="stroke:#181818;stroke-width:0.5;" width="88" x="397" y="178"/><ellipse cx="412" cy="194" fill="#ADD1B2" rx="11" ry="11" style="stroke:#181818;stroke-width:1.0;"/><path d="M414,190.5 Q414.2031,190 414.4375,189.75 Q414.6719,189.5 414.9375,189.5 Q415.4063,189.5 415.7031,189.7813 Q416,190.0625 416,190.7188 L416,192.2813 Q416,192.9375 415.7188,193.2188 Q415.4375,193.5 415,193.5 Q414.6094,193.5 414.3594,193.3281 Q414.1094,193.1563 414,192.7031 Q413.9531,192.3906 413.7813,192.2188 Q413.4688,191.8906 412.9063,191.7031 Q412.3438,191.5 411.7813,191.5 Q411.0781,191.5 410.4844,191.7813 Q409.9063,192.0625 409.4531,192.6875 Q409,193.3125 409,194.1719 L409,195.0938 Q409,196.125 409.8438,196.8125 Q410.6875,197.5 412.1875,197.5 Q413.0781,197.5 413.7031,197.2969 Q414.0625,197.1875 414.4688,196.8281 Q414.7344,196.625 414.875,196.5625 Q415.0156,196.5 415.1875,196.5 Q415.5156,196.5 415.75,196.7656 Q416,197.0156 416,197.375 Q416,197.7188 415.6563,198.125 Q415.1563,198.7188 414.3594,199.0469 Q413.3125,199.5 412.0313,199.5 Q410.5313,199.5 409.3281,198.9063 Q408.3594,198.4375 407.6719,197.4219 Q407,196.4063 407,195.2031 L407,194.1094 Q407,192.8594 407.5938,191.7656 Q408.2031,190.6719 409.25,190.0938 Q410.3125,189.5 411.5,189.5 Q412.2188,189.5 412.8438,189.75 Q413.4688,190 414,190.5 Z " fill="#000000"/><text fill="#000000" font-family="sans-serif" font-size="14" lengthAdjust="spacing" textLength="56" x="426" y="199.7285">SNSUser</text><line style="stroke:#181818;stroke-width:0.5;" x1="398" x2="484" y1="210" y2="210"/><text fill="#000000" font-family="sans-serif" font-size="14" lengthAdjust="spacing" textLength="76" x="403" y="228.5332">-snsNumber</text><text fill="#000000" font-family="sans-serif" font-size="14" lengthAdjust="spacing" textLength="40" x="403" y="246.1426">-name</text><text fill="#000000" font-family="sans-serif" font-size="14" lengthAdjust="spacing" textLength="29" x="403" y="263.752">-age</text><text fill="#000000" font-family="sans-serif" font-size="14" lengthAdjust="spacing" textLength="73" x="403" y="281.3613">-phoneNum</text><text fill="#000000" font-family="sans-serif" font-size="14" lengthAdjust="spacing" textLength="38" x="403" y="298.9707">-email</text></g><!--MD5=[896d2519f405e74f6898b5ee922ef4fe]
class UserVaccines--><g id="elem_UserVaccines"><rect codeLine="31" fill="#F1F1F1" height="40" id="UserVaccines" rx="2.5" ry="2.5" style="stroke:#181818;stroke-width:0.5;" width="118" x="390" y="437"/><ellipse cx="405" cy="453" fill="#ADD1B2" rx="11" ry="11" style="stroke:#181818;stroke-width:1.0;"/><path d="M407,449.5 Q407.2031,449 407.4375,448.75 Q407.6719,448.5 407.9375,448.5 Q408.4063,448.5 408.7031,448.7813 Q409,449.0625 409,449.7188 L409,451.2813 Q409,451.9375 408.7188,452.2188 Q408.4375,452.5 408,452.5 Q407.6094,452.5 407.3594,452.3281 Q407.1094,452.1563 407,451.7031 Q406.9531,451.3906 406.7813,451.2188 Q406.4688,450.8906 405.9063,450.7031 Q405.3438,450.5 404.7813,450.5 Q404.0781,450.5 403.4844,450.7813 Q402.9063,451.0625 402.4531,451.6875 Q402,452.3125 402,453.1719 L402,454.0938 Q402,455.125 402.8438,455.8125 Q403.6875,456.5 405.1875,456.5 Q406.0781,456.5 406.7031,456.2969 Q407.0625,456.1875 407.4688,455.8281 Q407.7344,455.625 407.875,455.5625 Q408.0156,455.5 408.1875,455.5 Q408.5156,455.5 408.75,455.7656 Q409,456.0156 409,456.375 Q409,456.7188 408.6563,457.125 Q408.1563,457.7188 407.3594,458.0469 Q406.3125,458.5 405.0313,458.5 Q403.5313,458.5 402.3281,457.9063 Q401.3594,457.4375 400.6719,456.4219 Q400,455.4063 400,454.2031 L400,453.1094 Q400,451.8594 400.5938,450.7656 Q401.2031,449.6719 402.25,449.0938 Q403.3125,448.5 404.5,448.5 Q405.2188,448.5 405.8438,448.75 Q406.4688,449 407,449.5 Z " fill="#000000"/><text fill="#000000" font-family="sans-serif" font-size="14" lengthAdjust="spacing" textLength="86" x="419" y="458.7285">UserVaccines</text><line style="stroke:#181818;stroke-width:0.5;" x1="391" x2="507" y1="469" y2="469"/></g><!--MD5=[0e501da62322464167c8ec4d233a6b7e]
class VaccineType--><g id="elem_VaccineType"><rect codeLine="35" fill="#F1F1F1" height="57.6094" id="VaccineType" rx="2.5" ry="2.5" style="stroke:#181818;stroke-width:0.5;" width="114" x="329" y="708"/><ellipse cx="344" cy="724" fill="#ADD1B2" rx="11" ry="11" style="stroke:#181818;stroke-width:1.0;"/><path d="M346,720.5 Q346.2031,720 346.4375,719.75 Q346.6719,719.5 346.9375,719.5 Q347.4063,719.5 347.7031,719.7813 Q348,720.0625 348,720.7188 L348,722.2813 Q348,722.9375 347.7188,723.2188 Q347.4375,723.5 347,723.5 Q346.6094,723.5 346.3594,723.3281 Q346.1094,723.1563 346,722.7031 Q345.9531,722.3906 345.7813,722.2188 Q345.4688,721.8906 344.9063,721.7031 Q344.3438,721.5 343.7813,721.5 Q343.0781,721.5 342.4844,721.7813 Q341.9063,722.0625 341.4531,722.6875 Q341,723.3125 341,724.1719 L341,725.0938 Q341,726.125 341.8438,726.8125 Q342.6875,727.5 344.1875,727.5 Q345.0781,727.5 345.7031,727.2969 Q346.0625,727.1875 346.4688,726.8281 Q346.7344,726.625 346.875,726.5625 Q347.0156,726.5 347.1875,726.5 Q347.5156,726.5 347.75,726.7656 Q348,727.0156 348,727.375 Q348,727.7188 347.6563,728.125 Q347.1563,728.7188 346.3594,729.0469 Q345.3125,729.5 344.0313,729.5 Q342.5313,729.5 341.3281,728.9063 Q340.3594,728.4375 339.6719,727.4219 Q339,726.4063 339,725.2031 L339,724.1094 Q339,722.8594 339.5938,721.7656 Q340.2031,720.6719 341.25,720.0938 Q342.3125,719.5 343.5,719.5 Q344.2188,719.5 344.8438,719.75 Q345.4688,720 346,720.5 Z " fill="#000000"/><text fill="#000000" font-family="sans-serif" font-size="14" lengthAdjust="spacing" textLength="82" x="358" y="729.7285">VaccineType</text><line style="stroke:#181818;stroke-width:0.5;" x1="330" x2="442" y1="740" y2="740"/><text fill="#000000" font-family="sans-serif" font-size="14" lengthAdjust="spacing" textLength="54" x="335" y="758.5332">-disease</text></g><!--MD5=[19e445fc4d3b48519cbe33da05496394]
class Vaccine--><g id="elem_Vaccine"><rect codeLine="40" fill="#F1F1F1" height="75.2188" id="Vaccine" rx="2.5" ry="2.5" style="stroke:#181818;stroke-width:0.5;" width="82" x="338" y="555"/><ellipse cx="353" cy="571" fill="#ADD1B2" rx="11" ry="11" style="stroke:#181818;stroke-width:1.0;"/><path d="M355,567.5 Q355.2031,567 355.4375,566.75 Q355.6719,566.5 355.9375,566.5 Q356.4063,566.5 356.7031,566.7813 Q357,567.0625 357,567.7188 L357,569.2813 Q357,569.9375 356.7188,570.2188 Q356.4375,570.5 356,570.5 Q355.6094,570.5 355.3594,570.3281 Q355.1094,570.1563 355,569.7031 Q354.9531,569.3906 354.7813,569.2188 Q354.4688,568.8906 353.9063,568.7031 Q353.3438,568.5 352.7813,568.5 Q352.0781,568.5 351.4844,568.7813 Q350.9063,569.0625 350.4531,569.6875 Q350,570.3125 350,571.1719 L350,572.0938 Q350,573.125 350.8438,573.8125 Q351.6875,574.5 353.1875,574.5 Q354.0781,574.5 354.7031,574.2969 Q355.0625,574.1875 355.4688,573.8281 Q355.7344,573.625 355.875,573.5625 Q356.0156,573.5 356.1875,573.5 Q356.5156,573.5 356.75,573.7656 Q357,574.0156 357,574.375 Q357,574.7188 356.6563,575.125 Q356.1563,575.7188 355.3594,576.0469 Q354.3125,576.5 353.0313,576.5 Q351.5313,576.5 350.3281,575.9063 Q349.3594,575.4375 348.6719,574.4219 Q348,573.4063 348,572.2031 L348,571.1094 Q348,569.8594 348.5938,568.7656 Q349.2031,567.6719 350.25,567.0938 Q351.3125,566.5 352.5,566.5 Q353.2188,566.5 353.8438,566.75 Q354.4688,567 355,567.5 Z " fill="#000000"/><text fill="#000000" font-family="sans-serif" font-size="14" lengthAdjust="spacing" textLength="50" x="367" y="576.7285">Vaccine</text><line style="stroke:#181818;stroke-width:0.5;" x1="339" x2="419" y1="587" y2="587"/><text fill="#000000" font-family="sans-serif" font-size="14" lengthAdjust="spacing" textLength="40" x="344" y="605.5332">-name</text><text fill="#000000" font-family="sans-serif" font-size="14" lengthAdjust="spacing" textLength="48" x="344" y="623.1426">-lotNum</text></g><!--MD5=[f1aa797bbb856f196dbabe5d61960c3a]
class VaccinationProcess--><g id="elem_VaccinationProcess"><rect codeLine="46" fill="#F1F1F1" height="57.6094" id="VaccinationProcess" rx="2.5" ry="2.5" style="stroke:#181818;stroke-width:0.5;" width="156" x="138" y="708"/><ellipse cx="153" cy="724" fill="#ADD1B2" rx="11" ry="11" style="stroke:#181818;stroke-width:1.0;"/><path d="M155,720.5 Q155.2031,720 155.4375,719.75 Q155.6719,719.5 155.9375,719.5 Q156.4063,719.5 156.7031,719.7813 Q157,720.0625 157,720.7188 L157,722.2813 Q157,722.9375 156.7188,723.2188 Q156.4375,723.5 156,723.5 Q155.6094,723.5 155.3594,723.3281 Q155.1094,723.1563 155,722.7031 Q154.9531,722.3906 154.7813,722.2188 Q154.4688,721.8906 153.9063,721.7031 Q153.3438,721.5 152.7813,721.5 Q152.0781,721.5 151.4844,721.7813 Q150.9063,722.0625 150.4531,722.6875 Q150,723.3125 150,724.1719 L150,725.0938 Q150,726.125 150.8438,726.8125 Q151.6875,727.5 153.1875,727.5 Q154.0781,727.5 154.7031,727.2969 Q155.0625,727.1875 155.4688,726.8281 Q155.7344,726.625 155.875,726.5625 Q156.0156,726.5 156.1875,726.5 Q156.5156,726.5 156.75,726.7656 Q157,727.0156 157,727.375 Q157,727.7188 156.6563,728.125 Q156.1563,728.7188 155.3594,729.0469 Q154.3125,729.5 153.0313,729.5 Q151.5313,729.5 150.3281,728.9063 Q149.3594,728.4375 148.6719,727.4219 Q148,726.4063 148,725.2031 L148,724.1094 Q148,722.8594 148.5938,721.7656 Q149.2031,720.6719 150.25,720.0938 Q151.3125,719.5 152.5,719.5 Q153.2188,719.5 153.8438,719.75 Q154.4688,720 155,720.5 Z " fill="#000000"/><text fill="#000000" font-family="sans-serif" font-size="14" lengthAdjust="spacing" textLength="124" x="167" y="729.7285">VaccinationProcess</text><line style="stroke:#181818;stroke-width:0.5;" x1="139" x2="293" y1="740" y2="740"/><text fill="#000000" font-family="sans-serif" font-size="14" lengthAdjust="spacing" textLength="101" x="144" y="758.5332">-recoveryPeriod</text></g><!--MD5=[7421f545a0d8420c5bec41e74b387d9c]
class Employee--><g id="elem_Employee"><rect fill="#F1F1F1" height="40" id="Employee" rx="2.5" ry="2.5" style="stroke:#181818;stroke-width:0.5;" width="94" x="190" y="222"/><ellipse cx="205" cy="238" fill="#ADD1B2" rx="11" ry="11" style="stroke:#181818;stroke-width:1.0;"/><path d="M207,234.5 Q207.2031,234 207.4375,233.75 Q207.6719,233.5 207.9375,233.5 Q208.4063,233.5 208.7031,233.7813 Q209,234.0625 209,234.7188 L209,236.2813 Q209,236.9375 208.7188,237.2188 Q208.4375,237.5 208,237.5 Q207.6094,237.5 207.3594,237.3281 Q207.1094,237.1563 207,236.7031 Q206.9531,236.3906 206.7813,236.2188 Q206.4688,235.8906 205.9063,235.7031 Q205.3438,235.5 204.7813,235.5 Q204.0781,235.5 203.4844,235.7813 Q202.9063,236.0625 202.4531,236.6875 Q202,237.3125 202,238.1719 L202,239.0938 Q202,240.125 202.8438,240.8125 Q203.6875,241.5 205.1875,241.5 Q206.0781,241.5 206.7031,241.2969 Q207.0625,241.1875 207.4688,240.8281 Q207.7344,240.625 207.875,240.5625 Q208.0156,240.5 208.1875,240.5 Q208.5156,240.5 208.75,240.7656 Q209,241.0156 209,241.375 Q209,241.7188 208.6563,242.125 Q208.1563,242.7188 207.3594,243.0469 Q206.3125,243.5 205.0313,243.5 Q203.5313,243.5 202.3281,242.9063 Q201.3594,242.4375 200.6719,241.4219 Q200,240.4063 200,239.2031 L200,238.1094 Q200,236.8594 200.5938,235.7656 Q201.2031,234.6719 202.25,234.0938 Q203.3125,233.5 204.5,233.5 Q205.2188,233.5 205.8438,233.75 Q206.4688,234 207,234.5 Z " fill="#000000"/><text fill="#000000" font-family="sans-serif" font-size="14" lengthAdjust="spacing" textLength="62" x="219" y="243.7285">Employee</text><line style="stroke:#181818;stroke-width:0.5;" x1="191" x2="283" y1="254" y2="254"/></g><!--MD5=[5d2bdee92db0d01b75732190da037553]
class Coordinator--><g id="elem_Coordinator"><rect fill="#F1F1F1" height="40" id="Coordinator" rx="2.5" ry="2.5" style="stroke:#181818;stroke-width:0.5;" width="107" x="162.5" y="437"/><ellipse cx="177.5" cy="453" fill="#ADD1B2" rx="11" ry="11" style="stroke:#181818;stroke-width:1.0;"/><path d="M179.5,449.5 Q179.7031,449 179.9375,448.75 Q180.1719,448.5 180.4375,448.5 Q180.9063,448.5 181.2031,448.7813 Q181.5,449.0625 181.5,449.7188 L181.5,451.2813 Q181.5,451.9375 181.2188,452.2188 Q180.9375,452.5 180.5,452.5 Q180.1094,452.5 179.8594,452.3281 Q179.6094,452.1563 179.5,451.7031 Q179.4531,451.3906 179.2813,451.2188 Q178.9688,450.8906 178.4063,450.7031 Q177.8438,450.5 177.2813,450.5 Q176.5781,450.5 175.9844,450.7813 Q175.4063,451.0625 174.9531,451.6875 Q174.5,452.3125 174.5,453.1719 L174.5,454.0938 Q174.5,455.125 175.3438,455.8125 Q176.1875,456.5 177.6875,456.5 Q178.5781,456.5 179.2031,456.2969 Q179.5625,456.1875 179.9688,455.8281 Q180.2344,455.625 180.375,455.5625 Q180.5156,455.5 180.6875,455.5 Q181.0156,455.5 181.25,455.7656 Q181.5,456.0156 181.5,456.375 Q181.5,456.7188 181.1563,457.125 Q180.6563,457.7188 179.8594,458.0469 Q178.8125,458.5 177.5313,458.5 Q176.0313,458.5 174.8281,457.9063 Q173.8594,457.4375 173.1719,456.4219 Q172.5,455.4063 172.5,454.2031 L172.5,453.1094 Q172.5,451.8594 173.0938,450.7656 Q173.7031,449.6719 174.75,449.0938 Q175.8125,448.5 177,448.5 Q177.7188,448.5 178.3438,448.75 Q178.9688,449 179.5,449.5 Z " fill="#000000"/><text fill="#000000" font-family="sans-serif" font-size="14" lengthAdjust="spacing" textLength="75" x="191.5" y="458.7285">Coordinator</text><line style="stroke:#181818;stroke-width:0.5;" x1="163.5" x2="268.5" y1="469" y2="469"/></g><!--MD5=[1a8aa2b864b87f860d28abceaa28b7a5]
link Company to SNSUser--><g id="link_Company_SNSUser"><path codeLine="50" d="M333.07,47.04 C343.3,55.42 354.58,65.88 363,77 C386.03,107.42 404.71,145.72 418.01,177.66 " fill="none" id="Company-SNSUser" style="stroke:#181818;stroke-width:1.0;"/><polygon fill="#000000" points="381.7258,90.3675,379.2586,81.1825,374.331,84.3868,381.7258,90.3675" style="stroke:#000000;stroke-width:1.0;"/><text fill="#000000" font-family="sans-serif" font-size="13" lengthAdjust="spacing" textLength="21" x="388" y="91.4951">has</text><text fill="#000000" font-family="sans-serif" font-size="13" lengthAdjust="spacing" textLength="7" x="332.4178" y="68.4708">1</text><text fill="#000000" font-family="sans-serif" font-size="13" lengthAdjust="spacing" textLength="5" x="410.222" y="167.2596">*</text></g><!--MD5=[c29c8d42883934cbaf5793c72a334947]
link Company to Vaccine--><g id="link_Company_Vaccine"><path codeLine="51" d="M310.28,47.06 C311.8,56.11 313.58,67.1 315,77 C340.72,255.86 365.46,470.59 374.94,554.94 " fill="none" id="Company-Vaccine" style="stroke:#181818;stroke-width:1.0;"/><polygon fill="#000000" points="362.6315,403.1357,364.4045,393.7919,358.5737,394.5343,362.6315,403.1357" style="stroke:#000000;stroke-width:1.0;"/><text fill="#000000" font-family="sans-serif" font-size="13" lengthAdjust="spacing" textLength="21" x="371" y="403.4951">has</text><text fill="#000000" font-family="sans-serif" font-size="13" lengthAdjust="spacing" textLength="7" x="303.2181" y="68.4964">1</text><text fill="#000000" font-family="sans-serif" font-size="13" lengthAdjust="spacing" textLength="5" x="368.7305" y="544.0472">*</text></g><!--MD5=[eebe9b198877275d05dd12630ed9e401]
link Company to VaccinationCenter--><g id="link_Company_VaccinationCenter"><path codeLine="52" d="M271.72,47.04 C256.86,55.57 239.66,66.15 225,77 C199.88,95.6 175.99,119.24 155.15,142.75 " fill="none" id="Company-VaccinationCenter" style="stroke:#181818;stroke-width:1.0;"/><polygon fill="#000000" points="226.1357,89.3486,234.9913,85.8803,231.2614,81.3375,226.1357,89.3486" style="stroke:#000000;stroke-width:1.0;"/><text fill="#000000" font-family="sans-serif" font-size="13" lengthAdjust="spacing" textLength="21" x="239" y="91.4951">has</text><text fill="#000000" font-family="sans-serif" font-size="13" lengthAdjust="spacing" textLength="7" x="253.8131" y="68.4708">1</text><text fill="#000000" font-family="sans-serif" font-size="13" lengthAdjust="spacing" textLength="5" x="163.0545" y="129.2184">*</text></g><!--MD5=[09366576ee87d48d594df10cacc83f45]
link Company to Employee--><g id="link_Company_Employee"><path codeLine="53" d="M292.25,47.13 C286.15,55.85 279.46,66.53 275,77 C253.73,126.87 243.33,190.58 239.22,221.88 " fill="none" id="Company-Employee" style="stroke:#181818;stroke-width:1.0;"/><polygon fill="#000000" points="278.5481,90.9603,283.9869,83.1584,278.3623,81.4516,278.5481,90.9603" style="stroke:#000000;stroke-width:1.0;"/><text fill="#000000" font-family="sans-serif" font-size="13" lengthAdjust="spacing" textLength="21" x="289" y="91.4951">has</text><text fill="#000000" font-family="sans-serif" font-size="13" lengthAdjust="spacing" textLength="7" x="280.1172" y="68.5861">1</text><text fill="#000000" font-family="sans-serif" font-size="13" lengthAdjust="spacing" textLength="5" x="234.1378" y="211.1665">*</text></g><!--MD5=[ad53276a02bf0f65971002ced984ee45]
link Vaccine to VaccinationProcess--><g id="link_Vaccine_VaccinationProcess"><path codeLine="54" d="M337.87,629.46 C310.05,653.78 273.83,685.45 248.12,707.92 " fill="none" id="Vaccine-VaccinationProcess" style="stroke:#181818;stroke-width:1.0;"/><polygon fill="#000000" points="303.2356,672.4666,311.9797,668.7261,308.1111,664.3008,303.2356,672.4666" style="stroke:#000000;stroke-width:1.0;"/><text fill="#000000" font-family="sans-serif" font-size="13" lengthAdjust="spacing" textLength="21" x="316" y="674.4951">has</text><text fill="#000000" font-family="sans-serif" font-size="13" lengthAdjust="spacing" textLength="7" x="322.9203" y="632.1254">1</text><text fill="#000000" font-family="sans-serif" font-size="13" lengthAdjust="spacing" textLength="7" x="247.7384" y="696.9262">1</text></g><!--MD5=[3568623adf67b2630dce9e60c05bd02a]
link Vaccine to VaccineType--><g id="link_Vaccine_VaccineType"><path codeLine="55" d="M380.8,630.2 C381.99,654.44 383.53,685.73 384.62,707.98 " fill="none" id="Vaccine-VaccineType" style="stroke:#181818;stroke-width:1.0;"/><polygon fill="#000000" points="388.2453,674.1698,390.737,664.9914,384.8662,665.2797,388.2453,674.1698" style="stroke:#000000;stroke-width:1.0;"/><text fill="#000000" font-family="sans-serif" font-size="13" lengthAdjust="spacing" textLength="21" x="397" y="674.4951">has</text><text fill="#000000" font-family="sans-serif" font-size="13" lengthAdjust="spacing" textLength="5" x="375.6753" y="651.8473">*</text><text fill="#000000" font-family="sans-serif" font-size="13" lengthAdjust="spacing" textLength="7" x="376.4915" y="697.0001">1</text></g><!--MD5=[49dab45482ce825a685ef99fd95a9156]
link VaccinationCenter to Coordinator--><g id="link_VaccinationCenter_Coordinator"><path codeLine="56" d="M147.31,359.27 C157.28,375.51 167.68,391.82 178,407 C184.9,417.15 193.19,427.98 200.26,436.87 " fill="none" id="VaccinationCenter-Coordinator" style="stroke:#181818;stroke-width:1.0;"/><polygon fill="#000000" points="185.8182,402.3059,183.1477,393.178,178.2924,396.4909,185.8182,402.3059" style="stroke:#000000;stroke-width:1.0;"/><text fill="#000000" font-family="sans-serif" font-size="13" lengthAdjust="spacing" textLength="21" x="192" y="403.4951">has</text><text fill="#000000" font-family="sans-serif" font-size="13" lengthAdjust="spacing" textLength="7" x="143.9412" y="380.026">1</text><text fill="#000000" font-family="sans-serif" font-size="13" lengthAdjust="spacing" textLength="7" x="187.6083" y="426.1536">1</text></g><!--MD5=[7f45cd623d65d6b71bd9dc1a08827f9d]
link Coordinator to VaccinationProcess--><g id="link_Coordinator_VaccinationProcess"><path codeLine="57" d="M216,477.11 C216,525.2 216,651.41 216,707.93 " fill="none" id="Coordinator-VaccinationProcess" style="stroke:#181818;stroke-width:1.0;"/><polygon fill="#000000" points="221,597.6758,223.9389,588.6307,218.0611,588.6307,221,597.6758" style="stroke:#000000;stroke-width:1.0;"/><text fill="#000000" font-family="sans-serif" font-size="13" lengthAdjust="spacing" textLength="50" x="230" y="597.9951">monitors</text><text fill="#000000" font-family="sans-serif" font-size="13" lengthAdjust="spacing" textLength="7" x="208.0156" y="498.5605">1</text><text fill="#000000" font-family="sans-serif" font-size="13" lengthAdjust="spacing" textLength="5" x="210.4219" y="696.9385">*</text></g><!--MD5=[d8cf155570c2fc8069691ea2f7bdb19f]
link Employee to Coordinator--><g id="link_Employee_Coordinator"><path codeLine="59" d="M235.1,262.28 C231.1,302.83 221.86,396.54 217.88,436.92 " fill="none" id="Employee-Coordinator" style="stroke:#181818;stroke-width:1.0;"/><polygon fill="#000000" points="228.4906,393.1999,224.6783,401.913,230.5278,402.4897,228.4906,393.1999" style="stroke:#000000;stroke-width:1.0;"/><text fill="#000000" font-family="sans-serif" font-size="13" lengthAdjust="spacing" textLength="10" x="237" y="403.4951">is</text><text fill="#000000" font-family="sans-serif" font-size="13" lengthAdjust="spacing" textLength="7" x="226.6488" y="283.4226">1</text><text fill="#000000" font-family="sans-serif" font-size="13" lengthAdjust="spacing" textLength="7" x="210.4041" y="426.2183">1</text></g><!--MD5=[9e1bafab1e50b2a0c49aafba4881c2ec]
link SNSUser to UserVaccines--><g id="link_SNSUser_UserVaccines"><path codeLine="60" d="M443.37,306.04 C445.04,350.7 447.18,407.65 448.28,436.85 " fill="none" id="SNSUser-UserVaccines" style="stroke:#181818;stroke-width:1.0;"/><polygon fill="#000000" points="452.1875,403.1723,454.7851,394.0233,448.9114,394.2438,452.1875,403.1723" style="stroke:#000000;stroke-width:1.0;"/><text fill="#000000" font-family="sans-serif" font-size="13" lengthAdjust="spacing" textLength="21" x="461" y="403.4951">has</text><text fill="#000000" font-family="sans-serif" font-size="13" lengthAdjust="spacing" textLength="7" x="436.2464" y="327.4312">1</text><text fill="#000000" font-family="sans-serif" font-size="13" lengthAdjust="spacing" textLength="5" x="442.3341" y="426.1277">*</text></g><!--MD5=[625143ad3f3e454f80dce889a626af15]
link UserVaccines to Vaccine--><g id="link_UserVaccines_Vaccine"><path codeLine="61" d="M438.97,477.13 C428.39,497.31 411.44,529.63 398.26,554.77 " fill="none" id="UserVaccines-Vaccine" style="stroke:#181818;stroke-width:1.0;"/><polygon fill="#000000" points="424.6781,520.604,431.4813,513.9581,426.2756,511.2285,424.6781,520.604" style="stroke:#000000;stroke-width:1.0;"/><text fill="#000000" font-family="sans-serif" font-size="13" lengthAdjust="spacing" textLength="21" x="436" y="521.4951">has</text><text fill="#000000" font-family="sans-serif" font-size="13" lengthAdjust="spacing" textLength="7" x="428.1647" y="498.5861">1</text><text fill="#000000" font-family="sans-serif" font-size="13" lengthAdjust="spacing" textLength="5" x="396.2454" y="544.1313">*</text></g><!--MD5=[7ddb6d3c94194af389cc040f2cab7294]
@startuml
hide methods
skinparam classAttributeIconSize 0

class VaccinationCenter {
    -name
    -address
    -phoneNumber
    -emailAddress
    -faxNumber
    -websiteAddress
    -openingHours
    -closingHours
    -slotDuration
    -maxNumVaxPerSlot
    -capacity

}

class Company{

}

class SNSUser {
    -snsNumber
    -name
    -age
    -phoneNum
    -email
}

class UserVaccines{

}

class VaccineType{
    -disease

}

class Vaccine{
    -name
    -lotNum
}


class VaccinationProcess{
    -recoveryPeriod
}

Company "1"  - - "*" SNSUser: has >
Company "1"  - - "*" Vaccine: has >
Company "1"  - - "*" VaccinationCenter: has >
Company "1"  - - "*" Employee: has >
Vaccine "1" - - "1" VaccinationProcess: has >
Vaccine "*"  - - "1" VaccineType: has >
VaccinationCenter "1"  - - "1" Coordinator: has >
Coordinator "1"  - - "*" VaccinationProcess: monitors >

Employee "1" - - "1" Coordinator: is <
SNSUser "1"  - - "*" UserVaccines: has >
UserVaccines "1"  - -"*" Vaccine: has >

@enduml

PlantUML version 1.2022.5(Sat Apr 30 11:55:52 BST 2022)
(GPL source distribution)
Java Runtime: OpenJDK Runtime Environment
JVM: OpenJDK 64-Bit Server VM
Default Encoding: Cp1252
Language: pt
Country: PT
--></g></svg>