@startuml
autonumber
actor "CenterCoordinator" as CC

activate CC
CC -> ":System" : Starts to export vaccination statistics
activate ":System"
":System" -> CC : ask to confirm the vaccination center

CC -> ":System" : Confirm the vaccination center

":System"  -> "CC" : asks for a date interval

CC -> ":System" : inputs date interval

":System"  -> CC : export Vaccination Statistics

@enduml