@startuml
hide methods
left to right direction
skinparam classAttributeIconSize 0

class Company {
-Designation
}

class User {
-Name
-Password
-Email
}

class  SNSUser {
-CC Number
-Name
-PhoneNumber
-E-mail
-SNS Number
-Birthdate
-Sex
}

class Receptionist {
-E-mail
-Password
}

Receptionist "1" -- "*" SNSUser: Register >
SNSUser "1" -- "1" User : Becomes >
Company "1" -- "*" Receptionist : know >

@enduml