@startuml
'https://plantuml.com/sequence-diagram

hide methods
left to right direction
skinparam classAttributeIconSize 0
class ReadCSV {
Read SNSUser data
}
class SNSUser{
-Name
-Email
-CCNumber
-PhoneNumber
-SNSNumber
-Sex
-Birthdate
-Address
}

class Company {
-Role
}
class Administrator {
-Email
-Password
}
class RegisterSNSUserStore{
Stores CSV users in the store

}
Company ..> Administrator : knows
Administrator ..>ReadCSV : upload CSV file
ReadCSV ..> SNSUser : provides SNS User data
SNSUser <.. RegisterSNSUserController
RegisterSNSUserController ..> RegisterSNSUserStore : save user
Company ..> RegisterSNSUserStore
ReadCSV ..> RegisterSNSUserController
@enduml