<?xml version="1.0" encoding="UTF-8" standalone="no"?><svg xmlns="http://www.w3.org/2000/svg" xmlns:xlink="http://www.w3.org/1999/xlink" contentStyleType="text/css" height="936px" preserveAspectRatio="none" style="width:769px;height:936px;background:#FFFFFF;" version="1.1" viewBox="0 0 769 936" width="769px" zoomAndPan="magnify"><defs/><g><rect fill="#FFFFFF" height="743.4609" style="stroke:#181818;stroke-width:1.0;" width="10" x="44.5" y="92.6094"/><rect fill="#FFFFFF" height="30.3516" style="stroke:#181818;stroke-width:1.0;" width="10" x="241.5" y="114.9609"/><rect fill="#FFFFFF" height="660.4063" style="stroke:#181818;stroke-width:1.0;" width="10" x="241.5" y="175.6641"/><rect fill="#FFFFFF" height="28" style="stroke:#181818;stroke-width:1.0;" width="10" x="246.5" y="239.3672"/><rect fill="#FFFFFF" height="28" style="stroke:#181818;stroke-width:1.0;" width="10" x="246.5" y="312.7188"/><rect fill="#FFFFFF" height="28" style="stroke:#181818;stroke-width:1.0;" width="10" x="246.5" y="386.0703"/><rect fill="#FFFFFF" height="28" style="stroke:#181818;stroke-width:1.0;" width="10" x="246.5" y="459.4219"/><rect fill="#FFFFFF" height="30" style="stroke:#181818;stroke-width:1.0;" width="10" x="455.5" y="524.7734"/><rect fill="#FFFFFF" height="60.3516" style="stroke:#181818;stroke-width:1.0;" width="10" x="455.5" y="631.5703"/><rect fill="#FFFFFF" height="30" style="stroke:#181818;stroke-width:1.0;" width="10" x="455.5" y="768.7188"/><rect fill="#FFFFFF" height="30" style="stroke:#181818;stroke-width:1.0;" width="10" x="640.5" y="661.9219"/><rect height="616.0547" style="stroke:#000000;stroke-width:1.5;fill:none;" width="565.5" x="170.5" y="190.6641"/><line style="stroke:#181818;stroke-width:0.5;fill:none;stroke-dasharray:5.0,5.0;" x1="49" x2="49" y1="82.6094" y2="854.0703"/><line style="stroke:#181818;stroke-width:0.5;fill:none;stroke-dasharray:5.0,5.0;" x1="246.5" x2="246.5" y1="82.6094" y2="854.0703"/><line style="stroke:#181818;stroke-width:0.5;fill:none;stroke-dasharray:5.0,5.0;" x1="460" x2="460" y1="82.6094" y2="854.0703"/><line style="stroke:#181818;stroke-width:0.5;fill:none;stroke-dasharray:5.0,5.0;" x1="645" x2="645" y1="82.6094" y2="854.0703"/><text fill="#000000" font-family="sans-serif" font-size="14" lengthAdjust="spacing" textLength="83" x="5" y="79.5332">Administrator</text><ellipse cx="49.5" cy="13.5" fill="#E2E2F0" rx="8" ry="8" style="stroke:#181818;stroke-width:0.5;"/><path d="M49.5,21.5 L49.5,48.5 M36.5,29.5 L62.5,29.5 M49.5,48.5 L36.5,63.5 M49.5,48.5 L62.5,63.5 " fill="none" style="stroke:#181818;stroke-width:0.5;"/><text fill="#000000" font-family="sans-serif" font-size="14" lengthAdjust="spacing" textLength="83" x="5" y="867.6035">Administrator</text><ellipse cx="49.5" cy="879.1797" fill="#E2E2F0" rx="8" ry="8" style="stroke:#181818;stroke-width:0.5;"/><path d="M49.5,887.1797 L49.5,914.1797 M36.5,895.1797 L62.5,895.1797 M49.5,914.1797 L36.5,929.1797 M49.5,914.1797 L62.5,929.1797 " fill="none" style="stroke:#181818;stroke-width:0.5;"/><rect fill="#E2E2F0" height="31.6094" rx="2.5" ry="2.5" style="stroke:#181818;stroke-width:0.5;" width="132" x="180.5" y="50"/><text fill="#000000" font-family="sans-serif" font-size="14" lengthAdjust="spacing" textLength="118" x="187.5" y="71.5332">:ImportSNSUsersUI</text><rect fill="#E2E2F0" height="31.6094" rx="2.5" ry="2.5" style="stroke:#181818;stroke-width:0.5;" width="132" x="180.5" y="853.0703"/><text fill="#000000" font-family="sans-serif" font-size="14" lengthAdjust="spacing" textLength="118" x="187.5" y="874.6035">:ImportSNSUsersUI</text><rect fill="#E2E2F0" height="31.6094" rx="2.5" ry="2.5" style="stroke:#181818;stroke-width:0.5;" width="189" x="366" y="50"/><text fill="#000000" font-family="sans-serif" font-size="14" lengthAdjust="spacing" textLength="175" x="373" y="71.5332">:RegisterSNSUserController</text><rect fill="#E2E2F0" height="31.6094" rx="2.5" ry="2.5" style="stroke:#181818;stroke-width:0.5;" width="189" x="366" y="853.0703"/><text fill="#000000" font-family="sans-serif" font-size="14" lengthAdjust="spacing" textLength="175" x="373" y="874.6035">:RegisterSNSUserController</text><rect fill="#E2E2F0" height="31.6094" rx="2.5" ry="2.5" style="stroke:#181818;stroke-width:0.5;" width="161" x="565" y="50"/><text fill="#000000" font-family="sans-serif" font-size="14" lengthAdjust="spacing" textLength="147" x="572" y="71.5332">:RegisterSNSUserStore</text><rect fill="#E2E2F0" height="31.6094" rx="2.5" ry="2.5" style="stroke:#181818;stroke-width:0.5;" width="161" x="565" y="853.0703"/><text fill="#000000" font-family="sans-serif" font-size="14" lengthAdjust="spacing" textLength="147" x="572" y="874.6035">:RegisterSNSUserStore</text><rect fill="#FFFFFF" height="743.4609" style="stroke:#181818;stroke-width:1.0;" width="10" x="44.5" y="92.6094"/><rect fill="#FFFFFF" height="30.3516" style="stroke:#181818;stroke-width:1.0;" width="10" x="241.5" y="114.9609"/><rect fill="#FFFFFF" height="660.4063" style="stroke:#181818;stroke-width:1.0;" width="10" x="241.5" y="175.6641"/><rect fill="#FFFFFF" height="28" style="stroke:#181818;stroke-width:1.0;" width="10" x="246.5" y="239.3672"/><rect fill="#FFFFFF" height="28" style="stroke:#181818;stroke-width:1.0;" width="10" x="246.5" y="312.7188"/><rect fill="#FFFFFF" height="28" style="stroke:#181818;stroke-width:1.0;" width="10" x="246.5" y="386.0703"/><rect fill="#FFFFFF" height="28" style="stroke:#181818;stroke-width:1.0;" width="10" x="246.5" y="459.4219"/><rect fill="#FFFFFF" height="30" style="stroke:#181818;stroke-width:1.0;" width="10" x="455.5" y="524.7734"/><rect fill="#FFFFFF" height="60.3516" style="stroke:#181818;stroke-width:1.0;" width="10" x="455.5" y="631.5703"/><rect fill="#FFFFFF" height="30" style="stroke:#181818;stroke-width:1.0;" width="10" x="455.5" y="768.7188"/><rect fill="#FFFFFF" height="30" style="stroke:#181818;stroke-width:1.0;" width="10" x="640.5" y="661.9219"/><polygon fill="#181818" points="229.5,110.9609,239.5,114.9609,229.5,118.9609,233.5,114.9609" style="stroke:#181818;stroke-width:1.0;"/><line style="stroke:#181818;stroke-width:1.0;" x1="54.5" x2="235.5" y1="114.9609" y2="114.9609"/><text fill="#000000" font-family="sans-serif" font-size="13" font-weight="bold" lengthAdjust="spacing" textLength="7" x="61.5" y="110.1045">1</text><text fill="#000000" font-family="sans-serif" font-size="13" lengthAdjust="spacing" textLength="152" x="72.5" y="110.1045">asks to import SNS Users</text><polygon fill="#181818" points="65.5,141.3125,55.5,145.3125,65.5,149.3125,61.5,145.3125" style="stroke:#181818;stroke-width:1.0;"/><line style="stroke:#181818;stroke-width:1.0;stroke-dasharray:2.0,2.0;" x1="59.5" x2="245.5" y1="145.3125" y2="145.3125"/><text fill="#000000" font-family="sans-serif" font-size="13" font-weight="bold" lengthAdjust="spacing" textLength="7" x="71.5" y="140.4561">2</text><text fill="#000000" font-family="sans-serif" font-size="13" lengthAdjust="spacing" textLength="138" x="82.5" y="140.4561">requests data (CSV file)</text><polygon fill="#181818" points="229.5,171.6641,239.5,175.6641,229.5,179.6641,233.5,175.6641" style="stroke:#181818;stroke-width:1.0;"/><line style="stroke:#181818;stroke-width:1.0;" x1="54.5" x2="235.5" y1="175.6641" y2="175.6641"/><text fill="#000000" font-family="sans-serif" font-size="13" font-weight="bold" lengthAdjust="spacing" textLength="7" x="61.5" y="170.8076">3</text><text fill="#000000" font-family="sans-serif" font-size="13" lengthAdjust="spacing" textLength="122" x="72.5" y="170.8076">types requested data</text><path d="M170.5,190.6641 L243.5,190.6641 L243.5,199.0156 L233.5,209.0156 L170.5,209.0156 L170.5,190.6641 " fill="#EEEEEE" style="stroke:#000000;stroke-width:1.5;"/><rect fill="none" height="616.0547" style="stroke:#000000;stroke-width:1.5;" width="565.5" x="170.5" y="190.6641"/><text fill="#000000" font-family="sans-serif" font-size="13" font-weight="bold" lengthAdjust="spacing" textLength="28" x="185.5" y="205.1592">loop</text><text fill="#000000" font-family="sans-serif" font-size="11" font-weight="bold" lengthAdjust="spacing" textLength="214" x="258.5" y="204.083">[while there are more lines in CSV file]</text><line style="stroke:#181818;stroke-width:1.0;" x1="256.5" x2="298.5" y1="231.3672" y2="231.3672"/><line style="stroke:#181818;stroke-width:1.0;" x1="298.5" x2="298.5" y1="231.3672" y2="244.3672"/><line style="stroke:#181818;stroke-width:1.0;" x1="257.5" x2="298.5" y1="244.3672" y2="244.3672"/><polygon fill="#181818" points="267.5,240.3672,257.5,244.3672,267.5,248.3672,263.5,244.3672" style="stroke:#181818;stroke-width:1.0;"/><text fill="#000000" font-family="sans-serif" font-size="13" font-weight="bold" lengthAdjust="spacing" textLength="18" x="263.5" y="226.5107">3.1</text><text fill="#000000" font-family="sans-serif" font-size="13" lengthAdjust="spacing" textLength="57" x="285.5" y="226.5107">readLine()</text><line style="stroke:#181818;stroke-width:1.0;" x1="256.5" x2="298.5" y1="304.7188" y2="304.7188"/><line style="stroke:#181818;stroke-width:1.0;" x1="298.5" x2="298.5" y1="304.7188" y2="317.7188"/><line style="stroke:#181818;stroke-width:1.0;" x1="257.5" x2="298.5" y1="317.7188" y2="317.7188"/><polygon fill="#181818" points="267.5,313.7188,257.5,317.7188,267.5,321.7188,263.5,317.7188" style="stroke:#181818;stroke-width:1.0;"/><text fill="#000000" font-family="sans-serif" font-size="13" font-weight="bold" lengthAdjust="spacing" textLength="18" x="263.5" y="299.8623">3.2</text><text fill="#000000" font-family="sans-serif" font-size="13" lengthAdjust="spacing" textLength="79" x="285.5" y="299.8623">splitData(line)</text><line style="stroke:#181818;stroke-width:1.0;" x1="256.5" x2="298.5" y1="378.0703" y2="378.0703"/><line style="stroke:#181818;stroke-width:1.0;" x1="298.5" x2="298.5" y1="378.0703" y2="391.0703"/><line style="stroke:#181818;stroke-width:1.0;" x1="257.5" x2="298.5" y1="391.0703" y2="391.0703"/><polygon fill="#181818" points="267.5,387.0703,257.5,391.0703,267.5,395.0703,263.5,391.0703" style="stroke:#181818;stroke-width:1.0;"/><text fill="#000000" font-family="sans-serif" font-size="13" font-weight="bold" lengthAdjust="spacing" textLength="18" x="263.5" y="373.2139">3.3</text><text fill="#000000" font-family="sans-serif" font-size="13" lengthAdjust="spacing" textLength="105" x="285.5" y="373.2139">validateUserData()</text><line style="stroke:#181818;stroke-width:1.0;" x1="256.5" x2="298.5" y1="451.4219" y2="451.4219"/><line style="stroke:#181818;stroke-width:1.0;" x1="298.5" x2="298.5" y1="451.4219" y2="464.4219"/><line style="stroke:#181818;stroke-width:1.0;" x1="257.5" x2="298.5" y1="464.4219" y2="464.4219"/><polygon fill="#181818" points="267.5,460.4219,257.5,464.4219,267.5,468.4219,263.5,464.4219" style="stroke:#181818;stroke-width:1.0;"/><text fill="#000000" font-family="sans-serif" font-size="13" font-weight="bold" lengthAdjust="spacing" textLength="18" x="263.5" y="446.5654">3.4</text><text fill="#000000" font-family="sans-serif" font-size="13" lengthAdjust="spacing" textLength="168" x="285.5" y="446.5654">SNSUser = createSNSUser()</text><polygon fill="#181818" points="443.5,520.7734,453.5,524.7734,443.5,528.7734,447.5,524.7734" style="stroke:#181818;stroke-width:1.0;"/><line style="stroke:#181818;stroke-width:1.0;" x1="251.5" x2="449.5" y1="524.7734" y2="524.7734"/><text fill="#000000" font-family="sans-serif" font-size="13" font-weight="bold" lengthAdjust="spacing" textLength="18" x="258.5" y="519.917">3.5</text><text fill="#000000" font-family="sans-serif" font-size="13" lengthAdjust="spacing" textLength="152" x="280.5" y="519.917">createSNSUser(SNSUser)</text><rect height="41.4453" style="stroke:#000000;stroke-width:1.5;fill:none;" width="209" x="363" y="562.7734"/><path d="M363,562.7734 L425,562.7734 L425,570.7734 L415,580.7734 L363,580.7734 L363,562.7734 " fill="#EEEEEE" style="stroke:#000000;stroke-width:2.0;"/><text fill="#000000" font-family="sans-serif" font-size="13" font-weight="bold" lengthAdjust="spacing" textLength="17" x="376" y="578.2686">ref</text><text fill="#000000" font-family="sans-serif" font-size="12" lengthAdjust="spacing" textLength="201" x="367" y="597.2305">US3_SD_createSNSUser(SNSUser)</text><polygon fill="#181818" points="443.5,627.5703,453.5,631.5703,443.5,635.5703,447.5,631.5703" style="stroke:#181818;stroke-width:1.0;"/><line style="stroke:#181818;stroke-width:1.0;" x1="251.5" x2="449.5" y1="631.5703" y2="631.5703"/><text fill="#000000" font-family="sans-serif" font-size="13" font-weight="bold" lengthAdjust="spacing" textLength="18" x="258.5" y="626.7139">3.6</text><text fill="#000000" font-family="sans-serif" font-size="13" lengthAdjust="spacing" textLength="88" x="280.5" y="626.7139">saveSNSUser()</text><polygon fill="#181818" points="628.5,657.9219,638.5,661.9219,628.5,665.9219,632.5,661.9219" style="stroke:#181818;stroke-width:1.0;"/><line style="stroke:#181818;stroke-width:1.0;" x1="465.5" x2="634.5" y1="661.9219" y2="661.9219"/><text fill="#000000" font-family="sans-serif" font-size="13" font-weight="bold" lengthAdjust="spacing" textLength="18" x="472.5" y="657.0654">3.7</text><text fill="#000000" font-family="sans-serif" font-size="13" lengthAdjust="spacing" textLength="88" x="494.5" y="657.0654">saveSNSUser()</text><rect height="41.4453" style="stroke:#000000;stroke-width:1.5;fill:none;" width="201" x="562" y="699.9219"/><path d="M562,699.9219 L624,699.9219 L624,707.9219 L614,717.9219 L562,717.9219 L562,699.9219 " fill="#EEEEEE" style="stroke:#000000;stroke-width:2.0;"/><text fill="#000000" font-family="sans-serif" font-size="13" font-weight="bold" lengthAdjust="spacing" textLength="17" x="575" y="715.417">ref</text><text fill="#000000" font-family="sans-serif" font-size="12" lengthAdjust="spacing" textLength="193" x="566" y="734.3789">US3_SD_saveSNSUser(SNSUser)</text><polygon fill="#181818" points="443.5,764.7188,453.5,768.7188,443.5,772.7188,447.5,768.7188" style="stroke:#181818;stroke-width:1.0;"/><line style="stroke:#181818;stroke-width:1.0;" x1="251.5" x2="449.5" y1="768.7188" y2="768.7188"/><text fill="#000000" font-family="sans-serif" font-size="13" font-weight="bold" lengthAdjust="spacing" textLength="18" x="258.5" y="763.8623">3.8</text><text fill="#000000" font-family="sans-serif" font-size="13" lengthAdjust="spacing" textLength="108" x="280.5" y="763.8623">sendConfirmation()</text><polygon fill="#181818" points="60.5,832.0703,50.5,836.0703,60.5,840.0703,56.5,836.0703" style="stroke:#181818;stroke-width:1.0;"/><line style="stroke:#181818;stroke-width:1.0;" x1="54.5" x2="245.5" y1="836.0703" y2="836.0703"/><text fill="#000000" font-family="sans-serif" font-size="13" font-weight="bold" lengthAdjust="spacing" textLength="7" x="66.5" y="831.2139">4</text><text fill="#000000" font-family="sans-serif" font-size="13" lengthAdjust="spacing" textLength="152" x="77.5" y="831.2139">informs operation success</text><!--MD5=[ef87c419937a3798ecca682d67103c31]
@startuml
'https://plantuml.com/sequence-diagram

autonumber

actor "Administrator" as admin

participant ":ImportSNSUsersUI" as UI
participant ":RegisterSNSUserController" as CTRL
participant ":RegisterSNSUserStore" as Store

activate admin

admin -> UI : asks to import SNS Users
activate UI

UI - -> admin : requests data (CSV file)
deactivate UI

admin -> UI : types requested data
activate UI

loop while there are more lines in CSV file
    autonumber 3.1

    UI -> UI : readLine()
    activate UI
    deactivate UI
     UI -> UI : splitData(line)
        activate UI
        deactivate UI

    UI -> UI : validateUserData()
    activate UI
    deactivate UI

    UI -> UI : SNSUser = createSNSUser()
    activate UI
    deactivate UI

    UI -> CTRL : createSNSUser(SNSUser)
    ref over CTRL : US3_SD_createSNSUser(SNSUser)
    activate CTRL
    deactivate CTRL

    UI -> CTRL : saveSNSUser()
     activate CTRL
    CTRL -> Store : saveSNSUser()
    ref over Store : US3_SD_saveSNSUser(SNSUser)

    activate Store
    deactivate CTRL
    deactivate Store
    UI -> CTRL : sendConfirmation()
        activate CTRL
        deactivate CTRL
end

autonumber 4
UI -> admin : informs operation success
deactivate UI

deactivate admin

@enduml

@startuml

autonumber

actor "Administrator" as admin

participant ":ImportSNSUsersUI" as UI
participant ":RegisterSNSUserController" as CTRL
participant ":RegisterSNSUserStore" as Store

activate admin

admin -> UI : asks to import SNS Users
activate UI

UI - -> admin : requests data (CSV file)
deactivate UI

admin -> UI : types requested data
activate UI

loop while there are more lines in CSV file
    autonumber 3.1

    UI -> UI : readLine()
    activate UI
    deactivate UI
     UI -> UI : splitData(line)
        activate UI
        deactivate UI

    UI -> UI : validateUserData()
    activate UI
    deactivate UI

    UI -> UI : SNSUser = createSNSUser()
    activate UI
    deactivate UI

    UI -> CTRL : createSNSUser(SNSUser)
    ref over CTRL : US3_SD_createSNSUser(SNSUser)
    activate CTRL
    deactivate CTRL

    UI -> CTRL : saveSNSUser()
     activate CTRL
    CTRL -> Store : saveSNSUser()
    ref over Store : US3_SD_saveSNSUser(SNSUser)

    activate Store
    deactivate CTRL
    deactivate Store
    UI -> CTRL : sendConfirmation()
        activate CTRL
        deactivate CTRL
end

autonumber 4
UI -> admin : informs operation success
deactivate UI

deactivate admin

@enduml

PlantUML version 1.2022.5(Sat Apr 30 11:55:52 BST 2022)
(GPL source distribution)
Java Runtime: OpenJDK Runtime Environment
JVM: OpenJDK 64-Bit Server VM
Default Encoding: Cp1252
Language: pt
Country: PT
--></g></svg>