@startuml
'https://plantuml.com/sequence-diagram

top to bottom direction

class SNSUser{
-Name
-Email
-CCNumber
-PhoneNumber
-SNSNumber
-Sex
-Birthdate
-Address
+getName()
+getEmail()
+getCCNumber()
+getPhoneNumber()
+getSNSNumber()
+getSex()
+getBirthdate()
+getAddress()
+setSNSUser(Name Email CCNumber PhoneNumber SNSNumber Sex Birthdate Address)

}
class RegisterSNSUserController{
+createSNSUser(snsuser)
+saveSNSUser()
}
class RegisterSNSUserStore{
-validateSNSUser(snsuser)
-addSNSUser(snsuser)
+createSNSUser (Name Email CCNumber PhoneNumber SNSNumber Sex Birthdate Address)
+saveSNSUser(snsuser)
}
class Company {
+getRegisterSNSUserStore()
}
class ImportSNSUsersUI{
+ImportSNSUsers
}
ImportSNSUsersUI ..> SNSUser
ImportSNSUsersUI ..> RegisterSNSUserController
RegisterSNSUserController ..> RegisterSNSUserStore
RegisterSNSUserController ..> SNSUser
RegisterSNSUserController ..> Company
RegisterSNSUserStore "1" --> "*"SNSUser : stores
Company "1" --> "1"RegisterSNSUserStore : adopts

@enduml