@startuml
'https://plantuml.com/sequence-diagram
autonumber
actor Receptionist
System <- Receptionist ++: Starts process to register arrival of a SNSUser
activate System
return Requests Number of such SNSUser
deactivate System
System <- Receptionist ++: Inputs SNSNumber
return Asks for confirmation
System <- Receptionist ++: Confirms/not
return Lists apoitments for the center they are in and for today
System <- Receptionist ++: Inputs confirmation
return Confirms or not sucess of action
deactivate Receptionist
@enduml