<?xml version="1.0" encoding="UTF-8" standalone="no"?><svg xmlns="http://www.w3.org/2000/svg" xmlns:xlink="http://www.w3.org/1999/xlink" contentScriptType="application/ecmascript" contentStyleType="text/css" height="694px" preserveAspectRatio="none" style="width:527px;height:694px;background:#FFFFFF;" version="1.1" viewBox="0 0 527 694" width="527px" zoomAndPan="magnify"><defs><filter height="300%" id="f1010nfd3peymg" width="300%" x="-1" y="-1"><feGaussianBlur result="blurOut" stdDeviation="2.0"/><feColorMatrix in="blurOut" result="blurOut2" type="matrix" values="0 0 0 0 0 0 0 0 0 0 0 0 0 0 0 0 0 0 .4 0"/><feOffset dx="4.0" dy="4.0" in="blurOut2" result="blurOut3"/><feBlend in="SourceGraphic" in2="blurOut3" mode="normal"/></filter></defs><g><!--MD5=[8dbe935b50738be731cb9db88d966ed4]
class WaitingRoomController--><rect codeLine="2" fill="#FEFECE" filter="url(#f1010nfd3peymg)" height="103.3438" id="WaitingRoomController" style="stroke:#A80036;stroke-width:1.5;" width="249" x="114.5" y="115"/><ellipse cx="170.25" cy="131" fill="#ADD1B2" rx="11" ry="11" style="stroke:#A80036;stroke-width:1.0;"/><path d="M172.25,127.5 Q172.4531,127 172.6875,126.75 Q172.9219,126.5 173.1875,126.5 Q173.6563,126.5 173.9531,126.7813 Q174.25,127.0625 174.25,127.7188 L174.25,129.2813 Q174.25,129.9375 173.9688,130.2188 Q173.6875,130.5 173.25,130.5 Q172.8594,130.5 172.6094,130.3281 Q172.3594,130.1563 172.25,129.7031 Q172.2031,129.3906 172.0313,129.2188 Q171.7188,128.8906 171.1563,128.7031 Q170.5938,128.5 170.0313,128.5 Q169.3281,128.5 168.7344,128.7813 Q168.1563,129.0625 167.7031,129.6875 Q167.25,130.3125 167.25,131.1719 L167.25,132.0938 Q167.25,133.125 168.0938,133.8125 Q168.9375,134.5 170.4375,134.5 Q171.3281,134.5 171.9531,134.2969 Q172.3125,134.1875 172.7188,133.8281 Q172.9844,133.625 173.125,133.5625 Q173.2656,133.5 173.4375,133.5 Q173.7656,133.5 174,133.7656 Q174.25,134.0156 174.25,134.375 Q174.25,134.7188 173.9063,135.125 Q173.4063,135.7188 172.6094,136.0469 Q171.5625,136.5 170.2813,136.5 Q168.7813,136.5 167.5781,135.9063 Q166.6094,135.4375 165.9219,134.4219 Q165.25,133.4063 165.25,132.2031 L165.25,131.1094 Q165.25,129.8594 165.8438,128.7656 Q166.4531,127.6719 167.5,127.0938 Q168.5625,126.5 169.75,126.5 Q170.4688,126.5 171.0938,126.75 Q171.7188,127 172.25,127.5 Z " fill="#000000"/><text fill="#000000" font-family="sans-serif" font-size="12" lengthAdjust="spacing" textLength="129" x="190.75" y="135.9102">WaitingRoomController</text><line style="stroke:#A80036;stroke-width:1.5;" x1="115.5" x2="362.5" y1="147" y2="147"/><line style="stroke:#A80036;stroke-width:1.5;" x1="115.5" x2="362.5" y1="155" y2="155"/><ellipse cx="125.5" cy="166" fill="#84BE84" rx="3" ry="3" style="stroke:#038048;stroke-width:1.0;"/><text fill="#000000" font-family="sans-serif" font-size="11" lengthAdjust="spacing" textLength="160" x="134.5" y="170.4189">getSNSUserByNumber(SNSuser)</text><ellipse cx="125.5" cy="179.8359" fill="#84BE84" rx="3" ry="3" style="stroke:#038048;stroke-width:1.0;"/><text fill="#000000" font-family="sans-serif" font-size="11" lengthAdjust="spacing" textLength="199" x="134.5" y="184.2549">getScheduleforSNSUserToday(SNSuser)</text><ellipse cx="125.5" cy="193.6719" fill="#84BE84" rx="3" ry="3" style="stroke:#038048;stroke-width:1.0;"/><text fill="#000000" font-family="sans-serif" font-size="11" lengthAdjust="spacing" textLength="198" x="134.5" y="198.0908">addUsertoWaitRoom(apoitment,SNSuser)</text><ellipse cx="125.5" cy="207.5078" fill="#84BE84" rx="3" ry="3" style="stroke:#038048;stroke-width:1.0;"/><text fill="#000000" font-family="sans-serif" font-size="11" lengthAdjust="spacing" textLength="223" x="134.5" y="211.9268">getUsersOnWaitingRoom(vaccenter,SNSuser)</text><!--MD5=[8a65a1bca107d762f515e66bfa3ef5e2]
class WaitRoomUI--><rect codeLine="9" fill="#FEFECE" filter="url(#f1010nfd3peymg)" height="48" id="WaitRoomUI" style="stroke:#A80036;stroke-width:1.5;" width="102" x="188" y="7"/><ellipse cx="203" cy="23" fill="#ADD1B2" rx="11" ry="11" style="stroke:#A80036;stroke-width:1.0;"/><path d="M205,19.5 Q205.2031,19 205.4375,18.75 Q205.6719,18.5 205.9375,18.5 Q206.4063,18.5 206.7031,18.7813 Q207,19.0625 207,19.7188 L207,21.2813 Q207,21.9375 206.7188,22.2188 Q206.4375,22.5 206,22.5 Q205.6094,22.5 205.3594,22.3281 Q205.1094,22.1563 205,21.7031 Q204.9531,21.3906 204.7813,21.2188 Q204.4688,20.8906 203.9063,20.7031 Q203.3438,20.5 202.7813,20.5 Q202.0781,20.5 201.4844,20.7813 Q200.9063,21.0625 200.4531,21.6875 Q200,22.3125 200,23.1719 L200,24.0938 Q200,25.125 200.8438,25.8125 Q201.6875,26.5 203.1875,26.5 Q204.0781,26.5 204.7031,26.2969 Q205.0625,26.1875 205.4688,25.8281 Q205.7344,25.625 205.875,25.5625 Q206.0156,25.5 206.1875,25.5 Q206.5156,25.5 206.75,25.7656 Q207,26.0156 207,26.375 Q207,26.7188 206.6563,27.125 Q206.1563,27.7188 205.3594,28.0469 Q204.3125,28.5 203.0313,28.5 Q201.5313,28.5 200.3281,27.9063 Q199.3594,27.4375 198.6719,26.4219 Q198,25.4063 198,24.2031 L198,23.1094 Q198,21.8594 198.5938,20.7656 Q199.2031,19.6719 200.25,19.0938 Q201.3125,18.5 202.5,18.5 Q203.2188,18.5 203.8438,18.75 Q204.4688,19 205,19.5 Z " fill="#000000"/><text fill="#000000" font-family="sans-serif" font-size="12" lengthAdjust="spacing" textLength="70" x="217" y="27.9102">WaitRoomUI</text><line style="stroke:#A80036;stroke-width:1.5;" x1="189" x2="289" y1="39" y2="39"/><line style="stroke:#A80036;stroke-width:1.5;" x1="189" x2="289" y1="47" y2="47"/><!--MD5=[72be06cc7ae02ccc98efe28a50e62246]
class SNSUser--><rect codeLine="11" fill="#FEFECE" filter="url(#f1010nfd3peymg)" height="144.8516" id="SNSUser" style="stroke:#A80036;stroke-width:1.5;" width="93" x="386.5" y="522"/><ellipse cx="405.55" cy="538" fill="#ADD1B2" rx="11" ry="11" style="stroke:#A80036;stroke-width:1.0;"/><path d="M407.55,534.5 Q407.7531,534 407.9875,533.75 Q408.2219,533.5 408.4875,533.5 Q408.9563,533.5 409.2531,533.7813 Q409.55,534.0625 409.55,534.7188 L409.55,536.2813 Q409.55,536.9375 409.2688,537.2188 Q408.9875,537.5 408.55,537.5 Q408.1594,537.5 407.9094,537.3281 Q407.6594,537.1563 407.55,536.7031 Q407.5031,536.3906 407.3313,536.2188 Q407.0188,535.8906 406.4563,535.7031 Q405.8938,535.5 405.3313,535.5 Q404.6281,535.5 404.0344,535.7813 Q403.4563,536.0625 403.0031,536.6875 Q402.55,537.3125 402.55,538.1719 L402.55,539.0938 Q402.55,540.125 403.3938,540.8125 Q404.2375,541.5 405.7375,541.5 Q406.6281,541.5 407.2531,541.2969 Q407.6125,541.1875 408.0188,540.8281 Q408.2844,540.625 408.425,540.5625 Q408.5656,540.5 408.7375,540.5 Q409.0656,540.5 409.3,540.7656 Q409.55,541.0156 409.55,541.375 Q409.55,541.7188 409.2063,542.125 Q408.7063,542.7188 407.9094,543.0469 Q406.8625,543.5 405.5813,543.5 Q404.0813,543.5 402.8781,542.9063 Q401.9094,542.4375 401.2219,541.4219 Q400.55,540.4063 400.55,539.2031 L400.55,538.1094 Q400.55,536.8594 401.1438,535.7656 Q401.7531,534.6719 402.8,534.0938 Q403.8625,533.5 405.05,533.5 Q405.7688,533.5 406.3938,533.75 Q407.0188,534 407.55,534.5 Z " fill="#000000"/><text fill="#000000" font-family="sans-serif" font-size="12" lengthAdjust="spacing" textLength="52" x="420.45" y="542.9102">SNSUser</text><line style="stroke:#A80036;stroke-width:1.5;" x1="387.5" x2="478.5" y1="554" y2="554"/><rect fill="none" height="6" style="stroke:#C82930;stroke-width:1.0;" width="6" x="394.5" y="562"/><text fill="#000000" font-family="sans-serif" font-size="11" lengthAdjust="spacing" textLength="54" x="406.5" y="569.4189">CC Number</text><rect fill="none" height="6" style="stroke:#C82930;stroke-width:1.0;" width="6" x="394.5" y="575.8359"/><text fill="#000000" font-family="sans-serif" font-size="11" lengthAdjust="spacing" textLength="27" x="406.5" y="583.2549">Name</text><rect fill="none" height="6" style="stroke:#C82930;stroke-width:1.0;" width="6" x="394.5" y="589.6719"/><text fill="#000000" font-family="sans-serif" font-size="11" lengthAdjust="spacing" textLength="67" x="406.5" y="597.0908">PhoneNumber</text><rect fill="none" height="6" style="stroke:#C82930;stroke-width:1.0;" width="6" x="394.5" y="603.5078"/><text fill="#000000" font-family="sans-serif" font-size="11" lengthAdjust="spacing" textLength="28" x="406.5" y="610.9268">E-mail</text><rect fill="none" height="6" style="stroke:#C82930;stroke-width:1.0;" width="6" x="394.5" y="617.3438"/><text fill="#000000" font-family="sans-serif" font-size="11" lengthAdjust="spacing" textLength="61" x="406.5" y="624.7627">SNS Number</text><rect fill="none" height="6" style="stroke:#C82930;stroke-width:1.0;" width="6" x="394.5" y="631.1797"/><text fill="#000000" font-family="sans-serif" font-size="11" lengthAdjust="spacing" textLength="43" x="406.5" y="638.5986">Birthdate</text><rect fill="none" height="6" style="stroke:#C82930;stroke-width:1.0;" width="6" x="394.5" y="645.0156"/><text fill="#000000" font-family="sans-serif" font-size="11" lengthAdjust="spacing" textLength="19" x="406.5" y="652.4346">Sex</text><line style="stroke:#A80036;stroke-width:1.5;" x1="387.5" x2="478.5" y1="658.8516" y2="658.8516"/><!--MD5=[9aa93189374d0270a8601841466c0d9a]
class VacCenterStore--><rect codeLine="20" fill="#FEFECE" filter="url(#f1010nfd3peymg)" height="61.8359" id="VacCenterStore" style="stroke:#A80036;stroke-width:1.5;" width="118" x="7" y="386"/><ellipse cx="22" cy="402" fill="#ADD1B2" rx="11" ry="11" style="stroke:#A80036;stroke-width:1.0;"/><path d="M24,398.5 Q24.2031,398 24.4375,397.75 Q24.6719,397.5 24.9375,397.5 Q25.4063,397.5 25.7031,397.7813 Q26,398.0625 26,398.7188 L26,400.2813 Q26,400.9375 25.7188,401.2188 Q25.4375,401.5 25,401.5 Q24.6094,401.5 24.3594,401.3281 Q24.1094,401.1563 24,400.7031 Q23.9531,400.3906 23.7813,400.2188 Q23.4688,399.8906 22.9063,399.7031 Q22.3438,399.5 21.7813,399.5 Q21.0781,399.5 20.4844,399.7813 Q19.9063,400.0625 19.4531,400.6875 Q19,401.3125 19,402.1719 L19,403.0938 Q19,404.125 19.8438,404.8125 Q20.6875,405.5 22.1875,405.5 Q23.0781,405.5 23.7031,405.2969 Q24.0625,405.1875 24.4688,404.8281 Q24.7344,404.625 24.875,404.5625 Q25.0156,404.5 25.1875,404.5 Q25.5156,404.5 25.75,404.7656 Q26,405.0156 26,405.375 Q26,405.7188 25.6563,406.125 Q25.1563,406.7188 24.3594,407.0469 Q23.3125,407.5 22.0313,407.5 Q20.5313,407.5 19.3281,406.9063 Q18.3594,406.4375 17.6719,405.4219 Q17,404.4063 17,403.2031 L17,402.1094 Q17,400.8594 17.5938,399.7656 Q18.2031,398.6719 19.25,398.0938 Q20.3125,397.5 21.5,397.5 Q22.2188,397.5 22.8438,397.75 Q23.4688,398 24,398.5 Z " fill="#000000"/><text fill="#000000" font-family="sans-serif" font-size="12" lengthAdjust="spacing" textLength="86" x="36" y="406.9102">VacCenterStore</text><line style="stroke:#A80036;stroke-width:1.5;" x1="8" x2="124" y1="418" y2="418"/><line style="stroke:#A80036;stroke-width:1.5;" x1="8" x2="124" y1="426" y2="426"/><ellipse cx="18" cy="437" fill="#84BE84" rx="3" ry="3" style="stroke:#038048;stroke-width:1.0;"/><text fill="#000000" font-family="sans-serif" font-size="11" lengthAdjust="spacing" textLength="88" x="27" y="441.4189">getVacCenterlist()</text><!--MD5=[4eca84f2e84b67bba044536989f7bbef]
class scheduleVaccineStore--><rect codeLine="23" fill="#FEFECE" filter="url(#f1010nfd3peymg)" height="61.8359" id="scheduleVaccineStore" style="stroke:#A80036;stroke-width:1.5;" width="158" x="160" y="386"/><ellipse cx="176.35" cy="402" fill="#ADD1B2" rx="11" ry="11" style="stroke:#A80036;stroke-width:1.0;"/><path d="M178.35,398.5 Q178.5531,398 178.7875,397.75 Q179.0219,397.5 179.2875,397.5 Q179.7563,397.5 180.0531,397.7813 Q180.35,398.0625 180.35,398.7188 L180.35,400.2813 Q180.35,400.9375 180.0688,401.2188 Q179.7875,401.5 179.35,401.5 Q178.9594,401.5 178.7094,401.3281 Q178.4594,401.1563 178.35,400.7031 Q178.3031,400.3906 178.1313,400.2188 Q177.8188,399.8906 177.2563,399.7031 Q176.6938,399.5 176.1313,399.5 Q175.4281,399.5 174.8344,399.7813 Q174.2563,400.0625 173.8031,400.6875 Q173.35,401.3125 173.35,402.1719 L173.35,403.0938 Q173.35,404.125 174.1938,404.8125 Q175.0375,405.5 176.5375,405.5 Q177.4281,405.5 178.0531,405.2969 Q178.4125,405.1875 178.8188,404.8281 Q179.0844,404.625 179.225,404.5625 Q179.3656,404.5 179.5375,404.5 Q179.8656,404.5 180.1,404.7656 Q180.35,405.0156 180.35,405.375 Q180.35,405.7188 180.0063,406.125 Q179.5063,406.7188 178.7094,407.0469 Q177.6625,407.5 176.3813,407.5 Q174.8813,407.5 173.6781,406.9063 Q172.7094,406.4375 172.0219,405.4219 Q171.35,404.4063 171.35,403.2031 L171.35,402.1094 Q171.35,400.8594 171.9438,399.7656 Q172.5531,398.6719 173.6,398.0938 Q174.6625,397.5 175.85,397.5 Q176.5688,397.5 177.1938,397.75 Q177.8188,398 178.35,398.5 Z " fill="#000000"/><text fill="#000000" font-family="sans-serif" font-size="12" lengthAdjust="spacing" textLength="123" x="190.65" y="406.9102">scheduleVaccineStore</text><line style="stroke:#A80036;stroke-width:1.5;" x1="161" x2="317" y1="418" y2="418"/><line style="stroke:#A80036;stroke-width:1.5;" x1="161" x2="317" y1="426" y2="426"/><ellipse cx="171" cy="437" fill="#84BE84" rx="3" ry="3" style="stroke:#038048;stroke-width:1.0;"/><text fill="#000000" font-family="sans-serif" font-size="11" lengthAdjust="spacing" textLength="132" x="180" y="441.4189">getAppointments(SNSuser)</text><!--MD5=[c58fdcae378c37e7b89ecb70b8238a20]
class VacCenter--><rect codeLine="26" fill="#FEFECE" filter="url(#f1010nfd3peymg)" height="172.5234" id="VacCenter" style="stroke:#A80036;stroke-width:1.5;" width="93" x="19.5" y="508"/><ellipse cx="36.3" cy="524" fill="#ADD1B2" rx="11" ry="11" style="stroke:#A80036;stroke-width:1.0;"/><path d="M38.3,520.5 Q38.5031,520 38.7375,519.75 Q38.9719,519.5 39.2375,519.5 Q39.7063,519.5 40.0031,519.7813 Q40.3,520.0625 40.3,520.7188 L40.3,522.2813 Q40.3,522.9375 40.0188,523.2188 Q39.7375,523.5 39.3,523.5 Q38.9094,523.5 38.6594,523.3281 Q38.4094,523.1563 38.3,522.7031 Q38.2531,522.3906 38.0813,522.2188 Q37.7688,521.8906 37.2063,521.7031 Q36.6438,521.5 36.0813,521.5 Q35.3781,521.5 34.7844,521.7813 Q34.2063,522.0625 33.7531,522.6875 Q33.3,523.3125 33.3,524.1719 L33.3,525.0938 Q33.3,526.125 34.1438,526.8125 Q34.9875,527.5 36.4875,527.5 Q37.3781,527.5 38.0031,527.2969 Q38.3625,527.1875 38.7688,526.8281 Q39.0344,526.625 39.175,526.5625 Q39.3156,526.5 39.4875,526.5 Q39.8156,526.5 40.05,526.7656 Q40.3,527.0156 40.3,527.375 Q40.3,527.7188 39.9563,528.125 Q39.4563,528.7188 38.6594,529.0469 Q37.6125,529.5 36.3313,529.5 Q34.8313,529.5 33.6281,528.9063 Q32.6594,528.4375 31.9719,527.4219 Q31.3,526.4063 31.3,525.2031 L31.3,524.1094 Q31.3,522.8594 31.8937,521.7656 Q32.5031,520.6719 33.55,520.0938 Q34.6125,519.5 35.8,519.5 Q36.5188,519.5 37.1438,519.75 Q37.7688,520 38.3,520.5 Z " fill="#000000"/><text fill="#000000" font-family="sans-serif" font-size="12" lengthAdjust="spacing" textLength="57" x="50.7" y="528.9102">VacCenter</text><line style="stroke:#A80036;stroke-width:1.5;" x1="20.5" x2="111.5" y1="540" y2="540"/><rect fill="none" height="6" style="stroke:#C82930;stroke-width:1.0;" width="6" x="27.5" y="548"/><text fill="#000000" font-family="sans-serif" font-size="11" lengthAdjust="spacing" textLength="26" x="39.5" y="555.4189">name</text><rect fill="none" height="6" style="stroke:#C82930;stroke-width:1.0;" width="6" x="27.5" y="561.8359"/><text fill="#000000" font-family="sans-serif" font-size="11" lengthAdjust="spacing" textLength="40" x="39.5" y="569.2549">address</text><rect fill="none" height="6" style="stroke:#C82930;stroke-width:1.0;" width="6" x="27.5" y="575.6719"/><text fill="#000000" font-family="sans-serif" font-size="11" lengthAdjust="spacing" textLength="67" x="39.5" y="583.0908">phoneNumber</text><rect fill="none" height="6" style="stroke:#C82930;stroke-width:1.0;" width="6" x="27.5" y="589.5078"/><text fill="#000000" font-family="sans-serif" font-size="11" lengthAdjust="spacing" textLength="53" x="39.5" y="596.9268">faxNumber</text><rect fill="none" height="6" style="stroke:#C82930;stroke-width:1.0;" width="6" x="27.5" y="603.3438"/><text fill="#000000" font-family="sans-serif" font-size="11" lengthAdjust="spacing" textLength="39" x="39.5" y="610.7627">website</text><rect fill="none" height="6" style="stroke:#C82930;stroke-width:1.0;" width="6" x="27.5" y="617.1797"/><text fill="#000000" font-family="sans-serif" font-size="11" lengthAdjust="spacing" textLength="61" x="39.5" y="624.5986">openingHour</text><rect fill="none" height="6" style="stroke:#C82930;stroke-width:1.0;" width="6" x="27.5" y="631.0156"/><text fill="#000000" font-family="sans-serif" font-size="11" lengthAdjust="spacing" textLength="57" x="39.5" y="638.4346">closingHour</text><rect fill="none" height="6" style="stroke:#C82930;stroke-width:1.0;" width="6" x="27.5" y="644.8516"/><text fill="#000000" font-family="sans-serif" font-size="11" lengthAdjust="spacing" textLength="57" x="39.5" y="652.2705">slotDuration</text><rect fill="none" height="6" style="stroke:#C82930;stroke-width:1.0;" width="6" x="27.5" y="658.6875"/><text fill="#000000" font-family="sans-serif" font-size="11" lengthAdjust="spacing" textLength="66" x="39.5" y="666.1064">maxVaccines</text><line style="stroke:#A80036;stroke-width:1.5;" x1="20.5" x2="111.5" y1="672.5234" y2="672.5234"/><!--MD5=[8d21a970f1bd1e0e0584d0ecf91221be]
class ScheduleVaccine--><rect codeLine="37" fill="#FEFECE" filter="url(#f1010nfd3peymg)" height="117.1797" id="ScheduleVaccine" style="stroke:#A80036;stroke-width:1.5;" width="127" x="175.5" y="536"/><ellipse cx="190.5" cy="552" fill="#ADD1B2" rx="11" ry="11" style="stroke:#A80036;stroke-width:1.0;"/><path d="M192.5,548.5 Q192.7031,548 192.9375,547.75 Q193.1719,547.5 193.4375,547.5 Q193.9063,547.5 194.2031,547.7813 Q194.5,548.0625 194.5,548.7188 L194.5,550.2813 Q194.5,550.9375 194.2188,551.2188 Q193.9375,551.5 193.5,551.5 Q193.1094,551.5 192.8594,551.3281 Q192.6094,551.1563 192.5,550.7031 Q192.4531,550.3906 192.2813,550.2188 Q191.9688,549.8906 191.4063,549.7031 Q190.8438,549.5 190.2813,549.5 Q189.5781,549.5 188.9844,549.7813 Q188.4063,550.0625 187.9531,550.6875 Q187.5,551.3125 187.5,552.1719 L187.5,553.0938 Q187.5,554.125 188.3438,554.8125 Q189.1875,555.5 190.6875,555.5 Q191.5781,555.5 192.2031,555.2969 Q192.5625,555.1875 192.9688,554.8281 Q193.2344,554.625 193.375,554.5625 Q193.5156,554.5 193.6875,554.5 Q194.0156,554.5 194.25,554.7656 Q194.5,555.0156 194.5,555.375 Q194.5,555.7188 194.1563,556.125 Q193.6563,556.7188 192.8594,557.0469 Q191.8125,557.5 190.5313,557.5 Q189.0313,557.5 187.8281,556.9063 Q186.8594,556.4375 186.1719,555.4219 Q185.5,554.4063 185.5,553.2031 L185.5,552.1094 Q185.5,550.8594 186.0938,549.7656 Q186.7031,548.6719 187.75,548.0938 Q188.8125,547.5 190,547.5 Q190.7188,547.5 191.3438,547.75 Q191.9688,548 192.5,548.5 Z " fill="#000000"/><text fill="#000000" font-family="sans-serif" font-size="12" lengthAdjust="spacing" textLength="95" x="204.5" y="556.9102">ScheduleVaccine</text><line style="stroke:#A80036;stroke-width:1.5;" x1="176.5" x2="301.5" y1="568" y2="568"/><rect fill="none" height="6" style="stroke:#C82930;stroke-width:1.0;" width="6" x="183.5" y="576"/><text fill="#000000" font-family="sans-serif" font-size="11" lengthAdjust="spacing" textLength="58" x="195.5" y="583.4189">SNSNumber</text><rect fill="none" height="6" style="stroke:#C82930;stroke-width:1.0;" width="6" x="183.5" y="589.8359"/><text fill="#000000" font-family="sans-serif" font-size="11" lengthAdjust="spacing" textLength="21" x="195.5" y="597.2549">data</text><rect fill="none" height="6" style="stroke:#C82930;stroke-width:1.0;" width="6" x="183.5" y="603.6719"/><text fill="#000000" font-family="sans-serif" font-size="11" lengthAdjust="spacing" textLength="22" x="195.5" y="611.0908">Time</text><rect fill="none" height="6" style="stroke:#C82930;stroke-width:1.0;" width="6" x="183.5" y="617.5078"/><text fill="#000000" font-family="sans-serif" font-size="11" lengthAdjust="spacing" textLength="59" x="195.5" y="624.9268">vaccinetype</text><rect fill="none" height="6" style="stroke:#C82930;stroke-width:1.0;" width="6" x="183.5" y="631.3438"/><text fill="#000000" font-family="sans-serif" font-size="11" lengthAdjust="spacing" textLength="70" x="195.5" y="638.7627">vaccineCenter</text><line style="stroke:#A80036;stroke-width:1.5;" x1="176.5" x2="301.5" y1="645.1797" y2="645.1797"/><!--MD5=[1b1d5723f43fb1d0b5b27c1299fe127b]
class RegisterSNSUserStore--><rect codeLine="44" fill="#FEFECE" filter="url(#f1010nfd3peymg)" height="61.8359" id="RegisterSNSUserStore" style="stroke:#A80036;stroke-width:1.5;" width="160" x="353" y="386"/><ellipse cx="368" cy="402" fill="#ADD1B2" rx="11" ry="11" style="stroke:#A80036;stroke-width:1.0;"/><path d="M370,398.5 Q370.2031,398 370.4375,397.75 Q370.6719,397.5 370.9375,397.5 Q371.4063,397.5 371.7031,397.7813 Q372,398.0625 372,398.7188 L372,400.2813 Q372,400.9375 371.7188,401.2188 Q371.4375,401.5 371,401.5 Q370.6094,401.5 370.3594,401.3281 Q370.1094,401.1563 370,400.7031 Q369.9531,400.3906 369.7813,400.2188 Q369.4688,399.8906 368.9063,399.7031 Q368.3438,399.5 367.7813,399.5 Q367.0781,399.5 366.4844,399.7813 Q365.9063,400.0625 365.4531,400.6875 Q365,401.3125 365,402.1719 L365,403.0938 Q365,404.125 365.8438,404.8125 Q366.6875,405.5 368.1875,405.5 Q369.0781,405.5 369.7031,405.2969 Q370.0625,405.1875 370.4688,404.8281 Q370.7344,404.625 370.875,404.5625 Q371.0156,404.5 371.1875,404.5 Q371.5156,404.5 371.75,404.7656 Q372,405.0156 372,405.375 Q372,405.7188 371.6563,406.125 Q371.1563,406.7188 370.3594,407.0469 Q369.3125,407.5 368.0313,407.5 Q366.5313,407.5 365.3281,406.9063 Q364.3594,406.4375 363.6719,405.4219 Q363,404.4063 363,403.2031 L363,402.1094 Q363,400.8594 363.5938,399.7656 Q364.2031,398.6719 365.25,398.0938 Q366.3125,397.5 367.5,397.5 Q368.2188,397.5 368.8438,397.75 Q369.4688,398 370,398.5 Z " fill="#000000"/><text fill="#000000" font-family="sans-serif" font-size="12" lengthAdjust="spacing" textLength="128" x="382" y="406.9102">RegisterSNSUserStore</text><line style="stroke:#A80036;stroke-width:1.5;" x1="354" x2="512" y1="418" y2="418"/><line style="stroke:#A80036;stroke-width:1.5;" x1="354" x2="512" y1="426" y2="426"/><ellipse cx="364" cy="437" fill="#84BE84" rx="3" ry="3" style="stroke:#038048;stroke-width:1.0;"/><text fill="#000000" font-family="sans-serif" font-size="11" lengthAdjust="spacing" textLength="72" x="373" y="441.4189">getSNSusers()</text><!--MD5=[02e4b9b7573f1156f41e60aa5b4e25a4]
class Company--><rect fill="#FEFECE" filter="url(#f1010nfd3peymg)" height="48" id="Company" style="stroke:#A80036;stroke-width:1.5;" width="85" x="196.5" y="278"/><ellipse cx="211.5" cy="294" fill="#ADD1B2" rx="11" ry="11" style="stroke:#A80036;stroke-width:1.0;"/><path d="M213.5,290.5 Q213.7031,290 213.9375,289.75 Q214.1719,289.5 214.4375,289.5 Q214.9063,289.5 215.2031,289.7813 Q215.5,290.0625 215.5,290.7188 L215.5,292.2813 Q215.5,292.9375 215.2188,293.2188 Q214.9375,293.5 214.5,293.5 Q214.1094,293.5 213.8594,293.3281 Q213.6094,293.1563 213.5,292.7031 Q213.4531,292.3906 213.2813,292.2188 Q212.9688,291.8906 212.4063,291.7031 Q211.8438,291.5 211.2813,291.5 Q210.5781,291.5 209.9844,291.7813 Q209.4063,292.0625 208.9531,292.6875 Q208.5,293.3125 208.5,294.1719 L208.5,295.0938 Q208.5,296.125 209.3438,296.8125 Q210.1875,297.5 211.6875,297.5 Q212.5781,297.5 213.2031,297.2969 Q213.5625,297.1875 213.9688,296.8281 Q214.2344,296.625 214.375,296.5625 Q214.5156,296.5 214.6875,296.5 Q215.0156,296.5 215.25,296.7656 Q215.5,297.0156 215.5,297.375 Q215.5,297.7188 215.1563,298.125 Q214.6563,298.7188 213.8594,299.0469 Q212.8125,299.5 211.5313,299.5 Q210.0313,299.5 208.8281,298.9063 Q207.8594,298.4375 207.1719,297.4219 Q206.5,296.4063 206.5,295.2031 L206.5,294.1094 Q206.5,292.8594 207.0938,291.7656 Q207.7031,290.6719 208.75,290.0938 Q209.8125,289.5 211,289.5 Q211.7188,289.5 212.3438,289.75 Q212.9688,290 213.5,290.5 Z " fill="#000000"/><text fill="#000000" font-family="sans-serif" font-size="12" lengthAdjust="spacing" textLength="53" x="225.5" y="298.9102">Company</text><line style="stroke:#A80036;stroke-width:1.5;" x1="197.5" x2="280.5" y1="310" y2="310"/><line style="stroke:#A80036;stroke-width:1.5;" x1="197.5" x2="280.5" y1="318" y2="318"/><!--MD5=[2c5177700b757d4f140a0549dcaaa6a8]
link WaitRoomUI to WaitingRoomController--><path codeLine="47" d="M239,55.25 C239,70.28 239,90.51 239,109.53 " fill="none" id="WaitRoomUI-to-WaitingRoomController" style="stroke:#A80036;stroke-width:1.0;stroke-dasharray:7.0,7.0;"/><polygon fill="#A80036" points="239,114.86,243,105.86,239,109.86,235,105.86,239,114.86" style="stroke:#A80036;stroke-width:1.0;"/><!--MD5=[00048e66bd1eb75c6fecd6b3aa644c51]
link WaitingRoomController to Company--><path codeLine="48" d="M239,218.35 C239,236.76 239,256.87 239,272.65 " fill="none" id="WaitingRoomController-to-Company" style="stroke:#A80036;stroke-width:1.0;stroke-dasharray:7.0,7.0;"/><polygon fill="#A80036" points="239,277.83,243,268.83,239,272.83,235,268.83,239,277.83" style="stroke:#A80036;stroke-width:1.0;"/><!--MD5=[bbc1a61d1da3a41c393b23a9eefd9f9e]
link Company to RegisterSNSUserStore--><path codeLine="49" d="M278.73,326.14 C306.94,342.57 345.22,364.87 376.59,383.14 " fill="none" id="Company-to-RegisterSNSUserStore" style="stroke:#A80036;stroke-width:1.0;stroke-dasharray:7.0,7.0;"/><polygon fill="#A80036" points="381.16,385.81,375.3982,377.8224,376.8401,383.2924,371.3701,384.7343,381.16,385.81" style="stroke:#A80036;stroke-width:1.0;"/><!--MD5=[6d3ae4733c06e7407a5f4901a0487bde]
link Company to VacCenterStore--><path codeLine="50" d="M203.57,326.14 C178.52,342.5 144.56,364.69 116.65,382.92 " fill="none" id="Company-to-VacCenterStore" style="stroke:#A80036;stroke-width:1.0;stroke-dasharray:7.0,7.0;"/><polygon fill="#A80036" points="112.22,385.81,121.9401,384.2228,116.4021,383.0695,117.5554,377.5315,112.22,385.81" style="stroke:#A80036;stroke-width:1.0;"/><!--MD5=[752c3d6d7e8097219ba821f3f6bb70fc]
link VacCenterStore to VacCenter--><path codeLine="51" d="M66,448.17 C66,463.53 66,483.1 66,502.87 " fill="none" id="VacCenterStore-to-VacCenter" style="stroke:#A80036;stroke-width:1.0;stroke-dasharray:7.0,7.0;"/><polygon fill="#A80036" points="66,507.9,70,498.9,66,502.9,62,498.9,66,507.9" style="stroke:#A80036;stroke-width:1.0;"/><!--MD5=[52f091e9d0c21681cbc6dc0ececda2f9]
link Company to scheduleVaccineStore--><path codeLine="52" d="M239,326.14 C239,341.71 239,362.53 239,380.22 " fill="none" id="Company-to-scheduleVaccineStore" style="stroke:#A80036;stroke-width:1.0;stroke-dasharray:7.0,7.0;"/><polygon fill="#A80036" points="239,385.6,243,376.6,239,380.6,235,376.6,239,385.6" style="stroke:#A80036;stroke-width:1.0;"/><!--MD5=[6c07c85918f23b077ff84d04c3c6fdcd]
link scheduleVaccineStore to ScheduleVaccine--><path codeLine="53" d="M239,448.17 C239,470.77 239,502.5 239,530.55 " fill="none" id="scheduleVaccineStore-to-ScheduleVaccine" style="stroke:#A80036;stroke-width:1.0;stroke-dasharray:7.0,7.0;"/><polygon fill="#A80036" points="239,535.74,243,526.74,239,530.74,235,526.74,239,535.74" style="stroke:#A80036;stroke-width:1.0;"/><!--MD5=[7319262c67709b3e969d5782e8824f22]
link RegisterSNSUserStore to SNSUser--><path codeLine="54" d="M433,448.17 C433,467.11 433,492.46 433,516.68 " fill="none" id="RegisterSNSUserStore-to-SNSUser" style="stroke:#A80036;stroke-width:1.0;stroke-dasharray:7.0,7.0;"/><polygon fill="#A80036" points="433,521.82,437,512.82,433,516.82,429,512.82,433,521.82" style="stroke:#A80036;stroke-width:1.0;"/><!--MD5=[b7960dc531379e32d1675886431e70b2]
@startuml

class WaitingRoomController{
+getSNSUserByNumber(SNSuser)
+getScheduleforSNSUserToday(SNSuser)
+addUsertoWaitRoom(apoitment,SNSuser)
+getUsersOnWaitingRoom(vaccenter,SNSuser)
}

class WaitRoomUI{}

class SNSUser{
-CC Number
-Name
-PhoneNumber
-E-mail
-SNS Number
-Birthdate
-Sex
}
class VacCenterStore{
+getVacCenterlist()
}
class scheduleVaccineStore{
+ getAppointments(SNSuser)
}
class VacCenter{
- name
- address
- phoneNumber
- faxNumber
- website
- openingHour
- closingHour
- slotDuration
- maxVaccines
}
class ScheduleVaccine{
- SNSNumber
- data
- Time
- vaccinetype
- vaccineCenter
}
class RegisterSNSUserStore{
+getSNSusers()
}
WaitRoomUI..>WaitingRoomController
WaitingRoomController..>Company
Company..>RegisterSNSUserStore
Company..>VacCenterStore
VacCenterStore..>VacCenter
Company..>scheduleVaccineStore
scheduleVaccineStore..>ScheduleVaccine
RegisterSNSUserStore..>SNSUser

@enduml

PlantUML version 1.2022.1(Tue Feb 01 18:19:58 GMT 2022)
(GPL source distribution)
Java Runtime: OpenJDK Runtime Environment
JVM: OpenJDK 64-Bit Server VM
Default Encoding: Cp1252
Language: pt
Country: PT
--></g></svg>