SMS
-------------------------------------------------------
Hello! DGS informs this number that Mr/Mrs has scheduled a vaccine with success.
-------------------------------------------------------
The important information is indicated below:
-Date: 19-06-2022
-Time: 11:00
-Vaccination Center: Porto Vaccination center
-------------------------------------------------------
Regards from our team.