@startuml
autonumber
actor "Receptionist" as SNSU
participant ": ScheduleVacinationUI" as UI
participant ":ScheduleVacinationController" as CTR
participant ":Company" as COMPANY
participant "vcs: VaccinationCenterStore" as vcs
participant "store: ScheduleVacinationStore" as SVSTORE
participant "sus: SNS_UserStore" as SUSSTORE
participant ":SMS_Notification" as NOTIFY
participant ": VaccinationCenterMapper" as VCMAPPER

activate SNSU
SNSU -> UI : asks to schedule a vaccine
activate UI

UI --> SNSU : requests to type the SNS User Number
deactivate UI

SNSU -> UI : types requested data
activate UI
activate UI
UI -> CTR : validateSNSUser(SNSNumber)
activate CTR
deactivate CTR

UI -> CTR : vaccinationCenterList = getVaccinationCenterList()
activate CTR
CTR -> COMPANY : vcs = getVaccinationCenterStore()
activate COMPANY
deactivate COMPANY
CTR -> vcs : vaccinationCenterList = getVaccinationCenterList()
activate vcs
deactivate vcs
CTR -> VCMAPPER : toDto(vaccinationCenterList)
activate VCMAPPER
ref over VCMAPPER
SD_VaccinationCenterMapper_toDto_list
end ref
VCMAPPER --> CTR : vaccinationCenterListDto
deactivate VCMAPPER
deactivate CTR

UI --> SNSU : requests to select the vaccination center and\n the vaccination type
deactivate UI
deactivate UI

SNSU -> UI : selects the requested data
activate UI
UI -> CTR : addVaccinationCenter(vcId)
activate CTR
CTR -> vcs : vc = getVaccinationCenter(vcId)
activate vcs
deactivate vcs
CTR -> scheduleVaccine : setVaccineCenter(vc)
activate scheduleVaccine
deactivate scheduleVaccine

deactivate CTR

UI -> CTR : VaccineTypes()
activate CTR
deactivate CTR
UI --> SNSU : verifies capacity and asks permission for \nSMS message
deactivate UI
SNSU -> UI : grants permission
activate UI
UI -> CTR : permissionGranted()
activate CTR
CTR -> NOTIFY** : createSMSNotification();
deactivate CTR


UI --> SNSU : shows all data and requests confirmation
deactivate UI

SNSU -> UI : confirms the data
activate UI
UI -> CTR : scheduleVaccine(SNSNumber, data, time, vaccinetype, vaccineCenter)
activate CTR
CTR -> SVSTORE : saveSchedule(schedule)
activate SVSTORE
SVSTORE -> SVSTORE : validateSchedule(schedule)
activate SVSTORE
deactivate SVSTORE
SVSTORE -> SVSTORE : addSchedule(schedule)
activate SVSTORE
deactivate SVSTORE

deactivate SVSTORE
deactivate CTR

UI -> CTR : notifyUser()
activate CTR
CTR -> COMPANY : sus = getRegisterSNSUserStore()
activate COMPANY
deactivate COMPANY

CTR -> SUSSTORE : user = getSNSUser(SNSNumber)
activate SUSSTORE
deactivate SUSSTORE
CTR -> NOTIFY : sendNotify(schedule,user)
activate NOTIFY
deactivate NOTIFY

deactivate CTR


UI --> SNSU : informs operation success
deactivate UI

deactivate SNSU

@enduml