@startuml
'https://plantuml.com/class-diagram

class Company{
Designation
}

class SNSUser{
-CC Number
-Name
-PhoneNumber
-E-mail
-SNS Number
-Birthdate
-Sex
}

class User {
-Name
-Email
-Password
}

class Administrator{
-Email
-Password
}

class Employee{
-Name
-ID
-Address
-Email
-Phone number
-CC number
}

class Nurse{
-Name
-Email
-Password
}

class Receptionist{
-Name
-Email
-Password
}

class CenterCoordinator{
-Name
-Email
-Password
}

class Vaccine{
-Code
-Description
-Vaccine Technology
-Dossage
-Brand
-Age Group
-Dose number
-Time between dosses
}

class VaccinationCenter{
-Name
-Address
-Phone number
-E-mail address
-Fax number
-Website address
-Maximum number of vaccines per slot
-Capacity
}

class CenterSchedule{
-Opening hours
-closing hours
}

class SlotDuration{
}


class VaccinationCertificate{
-Vaccine type
-Administration date
-Dossage
}

class RecoveryRoom{
-Recovery period
-Arrival time
}

class Notification{

}

class VaccinationDetails{
-Lot number
-Administration date
-Dosage
}

class AdverseSymptoms{
}


class VaccineType{
-Description
}

class VaccineSchedule{
-SNSUser
-Time
-Day
-VaccinationCenter
}


Company "1"--"*" Employee : employs >
Company "1"--"*" VaccinationCenter : owns >
Company "1"--"*" User : Stores >
User "1"--"1" Administrator : is a <
User "1"--"1" Employee : is a <
User "1"--"1" SNSUser : is a <
Nurse "1"--"*" Vaccine : administrated by <
Nurse "1"--"*" VaccinationDetails : registered by <
Nurse "1"--"*" AdverseSymptoms : registers >
Nurse "1"--"1" WaitingRoom : manages >
AdverseSymptoms "*"--"1" SNSUser : gained >
VaccinationDetails -- VaccinationCertificate : needs <
SNSUser "1"--"*" VaccinationCertificate : requested by <
SNSUser "1"--"*" Vaccine : requested by <
SNSUser "1"-- "*" RecoveryRoom : sent to >
SNSUser "1"--"*" VaccinationCenter : chooses >
SNSUser "1"-- "*" VaccineSchedule : requests >
CenterCoordinator "1"-- "1..*" VaccinationCenter : coordinates >
RecoveryRoom --  Notification : emits >
EmailNotification -up-|> Notification
SMSNotification -up-|> Notification
VaccineSchedule "1"--"*" Notification : emits >
VaccinationCenter "1"--"0..1" HealthcareCenter : is of >
VaccinationCenter "1"--"0..1" MassVaccinationCenter : is of >
VaccinationCenter "1"--"1" CenterSchedule : has >
VaccinationCenter "1"--"1" SlotDuration : has >
HealthcareCenter "1"--"1" ARS : associated with >
HealthcareCenter "1"--"1" AGES : associated with >
Administrator "1"--"*" VaccineType : manages >
Administrator "1"--"*" VaccinationCenter : manages >
Administrator "1"--"*" Employee : manages >
Employee "1"--"0..1" CenterCoordinator : plays as >
Employee "1"--"0..1" Receptionist : plays as >
Employee "1"--"0..1" Nurse : plays as >
Receptionist "1"--"*" SNSUser : registers >
Receptionist "1"--"0..1" WaitingRoom : manages >
Receptionist "1"--"*" VaccineSchedule : checks >
WaitingRoom "1"--"*" SNSUser : sent to <
Vaccine "1"--"1..*" VaccineType : is of >


@enduml