<?xml version="1.0" encoding="UTF-8" standalone="no"?><svg xmlns="http://www.w3.org/2000/svg" xmlns:xlink="http://www.w3.org/1999/xlink" contentStyleType="text/css" height="920px" preserveAspectRatio="none" style="width:1152px;height:920px;background:#FFFFFF;" version="1.1" viewBox="0 0 1152 920" width="1152px" zoomAndPan="magnify"><defs/><g><!--MD5=[64e2e010ba86d7988e5cd73bd64f61f9]
cluster ui--><g id="cluster_ui"><path d="M417.5,6 L432.5,6 A3.75,3.75 0 0 1 435,8.5 L442,28.4883 L604.5,28.4883 A2.5,2.5 0 0 1 607,30.9883 L607,102.5 A2.5,2.5 0 0 1 604.5,105 L417.5,105 A2.5,2.5 0 0 1 415,102.5 L415,8.5 A2.5,2.5 0 0 1 417.5,6 " style="stroke:#000000;stroke-width:1.5;fill:none;"/><line style="stroke:#000000;stroke-width:1.5;fill:none;" x1="415" x2="442" y1="28.4883" y2="28.4883"/><text fill="#000000" font-family="sans-serif" font-size="14" font-weight="bold" lengthAdjust="spacing" textLength="14" x="419" y="21.5352">ui</text></g><!--MD5=[10ea673caf457862023e152271927b45]
cluster controller--><g id="cluster_controller"><path d="M356.5,129 L427.5,129 A3.75,3.75 0 0 1 430,131.5 L437,151.4883 L665.5,151.4883 A2.5,2.5 0 0 1 668,153.9883 L668,274.5 A2.5,2.5 0 0 1 665.5,277 L356.5,277 A2.5,2.5 0 0 1 354,274.5 L354,131.5 A2.5,2.5 0 0 1 356.5,129 " style="stroke:#000000;stroke-width:1.5;fill:none;"/><line style="stroke:#000000;stroke-width:1.5;fill:none;" x1="354" x2="437" y1="151.4883" y2="151.4883"/><text fill="#000000" font-family="sans-serif" font-size="14" font-weight="bold" lengthAdjust="spacing" textLength="70" x="358" y="144.5352">controller</text></g><!--MD5=[701152d03fbf85133a1de050cfdbc7fd]
cluster Mappers--><g id="cluster_Mappers"><path d="M900.5,344 L962.5,344 A3.75,3.75 0 0 1 965,346.5 L972,366.4883 L1121.5,366.4883 A2.5,2.5 0 0 1 1124,368.9883 L1124,687.5 A2.5,2.5 0 0 1 1121.5,690 L900.5,690 A2.5,2.5 0 0 1 898,687.5 L898,346.5 A2.5,2.5 0 0 1 900.5,344 " style="stroke:#000000;stroke-width:1.5;fill:none;"/><line style="stroke:#000000;stroke-width:1.5;fill:none;" x1="898" x2="972" y1="366.4883" y2="366.4883"/><text fill="#000000" font-family="sans-serif" font-size="14" font-weight="bold" lengthAdjust="spacing" textLength="61" x="902" y="359.5352">Mappers</text></g><!--MD5=[7b8bc9ee8bb84b99fb3a3f9477c19238]
cluster DTO--><g id="cluster_DTO"><path d="M924.5,485 L958.5,485 A3.75,3.75 0 0 1 961,487.5 L968,507.4883 L1079.5,507.4883 A2.5,2.5 0 0 1 1082,509.9883 L1082,663.5 A2.5,2.5 0 0 1 1079.5,666 L924.5,666 A2.5,2.5 0 0 1 922,663.5 L922,487.5 A2.5,2.5 0 0 1 924.5,485 " style="stroke:#000000;stroke-width:1.5;fill:none;"/><line style="stroke:#000000;stroke-width:1.5;fill:none;" x1="922" x2="968" y1="507.4883" y2="507.4883"/><text fill="#000000" font-family="sans-serif" font-size="14" font-weight="bold" lengthAdjust="spacing" textLength="33" x="926" y="500.5352">DTO</text></g><!--MD5=[121a8bf1197281ab89ed693fab589f94]
cluster Domain--><g id="cluster_Domain"><path d="M8.5,301 L65.5,301 A3.75,3.75 0 0 1 68,303.5 L75,323.4883 L871.5,323.4883 A2.5,2.5 0 0 1 874,325.9883 L874,910.5 A2.5,2.5 0 0 1 871.5,913 L8.5,913 A2.5,2.5 0 0 1 6,910.5 L6,303.5 A2.5,2.5 0 0 1 8.5,301 " style="stroke:#000000;stroke-width:1.5;fill:none;"/><line style="stroke:#000000;stroke-width:1.5;fill:none;" x1="6" x2="75" y1="323.4883" y2="323.4883"/><text fill="#000000" font-family="sans-serif" font-size="14" font-weight="bold" lengthAdjust="spacing" textLength="56" x="10" y="316.5352">Domain</text></g><!--MD5=[15636c1ca4a123c16a2a1a8e90aca7a9]
cluster Model--><g id="cluster_Model"><path d="M32.5,344 L77.5,344 A3.75,3.75 0 0 1 80,346.5 L87,366.4883 L597.5,366.4883 A2.5,2.5 0 0 1 600,368.9883 L600,886.5 A2.5,2.5 0 0 1 597.5,889 L32.5,889 A2.5,2.5 0 0 1 30,886.5 L30,346.5 A2.5,2.5 0 0 1 32.5,344 " style="stroke:#000000;stroke-width:1.5;fill:none;"/><line style="stroke:#000000;stroke-width:1.5;fill:none;" x1="30" x2="87" y1="366.4883" y2="366.4883"/><text fill="#000000" font-family="sans-serif" font-size="14" font-weight="bold" lengthAdjust="spacing" textLength="44" x="34" y="359.5352">Model</text></g><!--MD5=[7ce1723ddb6e6233854253973eae5a71]
cluster Store--><g id="cluster_Store"><path d="M626.5,526 L664.5,526 A3.75,3.75 0 0 1 667,528.5 L674,548.4883 L847.5,548.4883 A2.5,2.5 0 0 1 850,550.9883 L850,622.5 A2.5,2.5 0 0 1 847.5,625 L626.5,625 A2.5,2.5 0 0 1 624,622.5 L624,528.5 A2.5,2.5 0 0 1 626.5,526 " style="stroke:#000000;stroke-width:1.5;fill:none;"/><line style="stroke:#000000;stroke-width:1.5;fill:none;" x1="624" x2="674" y1="548.4883" y2="548.4883"/><text fill="#000000" font-family="sans-serif" font-size="14" font-weight="bold" lengthAdjust="spacing" textLength="37" x="628" y="541.5352">Store</text></g><!--MD5=[bebe22018d3ad13eaaf15432bfb13d8d]
class ListWaitingRoomUI--><g id="elem_ListWaitingRoomUI"><rect codeLine="4" fill="#F1F1F1" height="48" id="ListWaitingRoomUI" rx="2.5" ry="2.5" style="stroke:#181818;stroke-width:0.5;" width="160" x="431" y="41"/><ellipse cx="446" cy="57" fill="#ADD1B2" rx="11" ry="11" style="stroke:#181818;stroke-width:1.0;"/><path d="M448.4731,63.1431 Q447.8921,63.4419 447.2529,63.5913 Q446.6138,63.7407 445.9082,63.7407 Q443.4014,63.7407 442.0815,62.0889 Q440.7617,60.437 440.7617,57.3159 Q440.7617,54.1865 442.0815,52.5347 Q443.4014,50.8828 445.9082,50.8828 Q446.6138,50.8828 447.2612,51.0322 Q447.9087,51.1816 448.4731,51.4805 L448.4731,54.2031 Q447.8423,53.6221 447.2488,53.3523 Q446.6553,53.0825 446.0244,53.0825 Q444.6797,53.0825 443.9949,54.1492 Q443.3101,55.2158 443.3101,57.3159 Q443.3101,59.4077 443.9949,60.4744 Q444.6797,61.541 446.0244,61.541 Q446.6553,61.541 447.2488,61.2712 Q447.8423,61.0015 448.4731,60.4204 Z " fill="#000000"/><text fill="#000000" font-family="sans-serif" font-size="14" lengthAdjust="spacing" textLength="128" x="460" y="62.291">ListWaitingRoomUI</text><line style="stroke:#181818;stroke-width:0.5;" x1="432" x2="590" y1="73" y2="73"/><line style="stroke:#181818;stroke-width:0.5;" x1="432" x2="590" y1="81" y2="81"/></g><!--MD5=[348bca7a610d9f3bfff225e8391660a4]
class ListWaitingRoomController--><g id="elem_ListWaitingRoomController"><rect codeLine="10" fill="#F1F1F1" height="97.4648" id="ListWaitingRoomController" rx="2.5" ry="2.5" style="stroke:#181818;stroke-width:0.5;" width="282" x="370" y="164"/><ellipse cx="414.75" cy="180" fill="#ADD1B2" rx="11" ry="11" style="stroke:#181818;stroke-width:1.0;"/><path d="M417.2231,186.1431 Q416.6421,186.4419 416.0029,186.5913 Q415.3638,186.7407 414.6582,186.7407 Q412.1514,186.7407 410.8315,185.0889 Q409.5117,183.437 409.5117,180.3159 Q409.5117,177.1865 410.8315,175.5347 Q412.1514,173.8828 414.6582,173.8828 Q415.3638,173.8828 416.0112,174.0322 Q416.6587,174.1816 417.2231,174.4805 L417.2231,177.2031 Q416.5923,176.6221 415.9988,176.3523 Q415.4053,176.0825 414.7744,176.0825 Q413.4297,176.0825 412.7449,177.1492 Q412.0601,178.2158 412.0601,180.3159 Q412.0601,182.4077 412.7449,183.4744 Q413.4297,184.541 414.7744,184.541 Q415.4053,184.541 415.9988,184.2712 Q416.5923,184.0015 417.2231,183.4204 Z " fill="#000000"/><text fill="#000000" font-family="sans-serif" font-size="14" lengthAdjust="spacing" textLength="184" x="435.25" y="185.291">ListWaitingRoomController</text><line style="stroke:#181818;stroke-width:0.5;" x1="371" x2="651" y1="196" y2="196"/><line style="stroke:#181818;stroke-width:0.5;" x1="371" x2="651" y1="204" y2="204"/><ellipse cx="381" cy="215" fill="#84BE84" rx="3" ry="3" style="stroke:#038048;stroke-width:1.0;"/><text fill="#000000" font-family="sans-serif" font-size="14" lengthAdjust="spacing" textLength="248" x="390" y="221.5352">getWaitingRoom(VaccinationCenter)</text><ellipse cx="381" cy="231.4883" fill="#84BE84" rx="3" ry="3" style="stroke:#038048;stroke-width:1.0;"/><text fill="#000000" font-family="sans-serif" font-size="14" lengthAdjust="spacing" textLength="256" x="390" y="238.0234">createWaitingRoomList(waitingRoom)</text><ellipse cx="381" cy="247.9766" fill="#84BE84" rx="3" ry="3" style="stroke:#038048;stroke-width:1.0;"/><text fill="#000000" font-family="sans-serif" font-size="14" lengthAdjust="spacing" textLength="146" x="390" y="254.5117">getWaitingRoomList()</text></g><!--MD5=[ca97d4c77a459a6783a95679b9821773]
class SNSUserMapper--><g id="elem_SNSUserMapper"><rect codeLine="28" fill="#F1F1F1" height="80.9766" id="SNSUserMapper" rx="2.5" ry="2.5" style="stroke:#181818;stroke-width:0.5;" width="193" x="914.5" y="379"/><ellipse cx="952.9" cy="395" fill="#ADD1B2" rx="11" ry="11" style="stroke:#181818;stroke-width:1.0;"/><path d="M955.3731,401.1431 Q954.7921,401.4419 954.1529,401.5913 Q953.5138,401.7407 952.8082,401.7407 Q950.3014,401.7407 948.9815,400.0889 Q947.6617,398.437 947.6617,395.3159 Q947.6617,392.1865 948.9815,390.5347 Q950.3014,388.8828 952.8082,388.8828 Q953.5138,388.8828 954.1612,389.0322 Q954.8087,389.1816 955.3731,389.4805 L955.3731,392.2031 Q954.7423,391.6221 954.1488,391.3523 Q953.5553,391.0825 952.9244,391.0825 Q951.5797,391.0825 950.8949,392.1492 Q950.2101,393.2158 950.2101,395.3159 Q950.2101,397.4077 950.8949,398.4744 Q951.5797,399.541 952.9244,399.541 Q953.5553,399.541 954.1488,399.2712 Q954.7423,399.0015 955.3731,398.4204 Z " fill="#000000"/><text fill="#000000" font-family="sans-serif" font-size="14" lengthAdjust="spacing" textLength="109" x="972.1" y="400.291">SNSUserMapper</text><line style="stroke:#181818;stroke-width:0.5;" x1="915.5" x2="1106.5" y1="411" y2="411"/><line style="stroke:#181818;stroke-width:0.5;" x1="915.5" x2="1106.5" y1="419" y2="419"/><ellipse cx="925.5" cy="430" fill="#84BE84" rx="3" ry="3" style="stroke:#038048;stroke-width:1.0;"/><text fill="#000000" font-family="sans-serif" font-size="14" lengthAdjust="spacing" textLength="111" x="934.5" y="436.5352">toDTO(SNSUser)</text><ellipse cx="925.5" cy="446.4883" fill="#84BE84" rx="3" ry="3" style="stroke:#038048;stroke-width:1.0;"/><text fill="#000000" font-family="sans-serif" font-size="14" lengthAdjust="spacing" textLength="167" x="934.5" y="453.0234">toListDTO(waitingRoom)</text></g><!--MD5=[4765fcf5d6db66eebf98d526c81910ad]
class SNSUserDTO--><g id="elem_SNSUserDTO"><rect codeLine="19" fill="#F1F1F1" height="130.4414" id="SNSUserDTO" rx="2.5" ry="2.5" style="stroke:#181818;stroke-width:0.5;" width="127" x="938.5" y="520"/><ellipse cx="957.1" cy="536" fill="#ADD1B2" rx="11" ry="11" style="stroke:#181818;stroke-width:1.0;"/><path d="M959.5731,542.1431 Q958.9921,542.4419 958.3529,542.5913 Q957.7138,542.7407 957.0082,542.7407 Q954.5014,542.7407 953.1815,541.0889 Q951.8617,539.437 951.8617,536.3159 Q951.8617,533.1865 953.1815,531.5347 Q954.5014,529.8828 957.0082,529.8828 Q957.7138,529.8828 958.3612,530.0322 Q959.0087,530.1816 959.5731,530.4805 L959.5731,533.2031 Q958.9423,532.6221 958.3488,532.3523 Q957.7553,532.0825 957.1244,532.0825 Q955.7797,532.0825 955.0949,533.1492 Q954.4101,534.2158 954.4101,536.3159 Q954.4101,538.4077 955.0949,539.4744 Q955.7797,540.541 957.1244,540.541 Q957.7553,540.541 958.3488,540.2712 Q958.9423,540.0015 959.5731,539.4204 Z " fill="#000000"/><text fill="#000000" font-family="sans-serif" font-size="14" lengthAdjust="spacing" textLength="87" x="971.9" y="541.291">SNSUserDTO</text><line style="stroke:#181818;stroke-width:0.5;" x1="939.5" x2="1064.5" y1="552" y2="552"/><rect fill="none" height="6" style="stroke:#C82930;stroke-width:1.0;" width="6" x="946.5" y="560"/><text fill="#000000" font-family="sans-serif" font-size="14" lengthAdjust="spacing" textLength="39" x="958.5" y="569.5352">Name</text><rect fill="none" height="6" style="stroke:#C82930;stroke-width:1.0;" width="6" x="946.5" y="576.4883"/><text fill="#000000" font-family="sans-serif" font-size="14" lengthAdjust="spacing" textLength="25" x="958.5" y="586.0234">Sex</text><rect fill="none" height="6" style="stroke:#C82930;stroke-width:1.0;" width="6" x="946.5" y="592.9766"/><text fill="#000000" font-family="sans-serif" font-size="14" lengthAdjust="spacing" textLength="62" x="958.5" y="602.5117">Birthdate</text><rect fill="none" height="6" style="stroke:#C82930;stroke-width:1.0;" width="6" x="946.5" y="609.4648"/><text fill="#000000" font-family="sans-serif" font-size="14" lengthAdjust="spacing" textLength="84" x="958.5" y="619">SNS number</text><rect fill="none" height="6" style="stroke:#C82930;stroke-width:1.0;" width="6" x="946.5" y="625.9531"/><text fill="#000000" font-family="sans-serif" font-size="14" lengthAdjust="spacing" textLength="101" x="958.5" y="635.4883">Phone number</text><line style="stroke:#181818;stroke-width:0.5;" x1="939.5" x2="1064.5" y1="642.4414" y2="642.4414"/></g><!--MD5=[02e4b9b7573f1156f41e60aa5b4e25a4]
class Company--><g id="elem_Company"><rect codeLine="37" fill="#F1F1F1" height="80.9766" id="Company" rx="2.5" ry="2.5" style="stroke:#181818;stroke-width:0.5;" width="164" x="239" y="379"/><ellipse cx="284.25" cy="395" fill="#ADD1B2" rx="11" ry="11" style="stroke:#181818;stroke-width:1.0;"/><path d="M286.7231,401.1431 Q286.1421,401.4419 285.5029,401.5913 Q284.8638,401.7407 284.1582,401.7407 Q281.6514,401.7407 280.3315,400.0889 Q279.0117,398.437 279.0117,395.3159 Q279.0117,392.1865 280.3315,390.5347 Q281.6514,388.8828 284.1582,388.8828 Q284.8638,388.8828 285.5112,389.0322 Q286.1587,389.1816 286.7231,389.4805 L286.7231,392.2031 Q286.0923,391.6221 285.4988,391.3523 Q284.9053,391.0825 284.2744,391.0825 Q282.9297,391.0825 282.2449,392.1492 Q281.5601,393.2158 281.5601,395.3159 Q281.5601,397.4077 282.2449,398.4744 Q282.9297,399.541 284.2744,399.541 Q284.9053,399.541 285.4988,399.2712 Q286.0923,399.0015 286.7231,398.4204 Z " fill="#000000"/><text fill="#000000" font-family="sans-serif" font-size="14" lengthAdjust="spacing" textLength="65" x="304.75" y="400.291">Company</text><line style="stroke:#181818;stroke-width:0.5;" x1="240" x2="402" y1="411" y2="411"/><rect fill="none" height="6" style="stroke:#C82930;stroke-width:1.0;" width="6" x="247" y="419"/><text fill="#000000" font-family="sans-serif" font-size="14" lengthAdjust="spacing" textLength="81" x="259" y="428.5352">designation</text><line style="stroke:#181818;stroke-width:1.0;" x1="240" x2="402" y1="435.4883" y2="435.4883"/><ellipse cx="250" cy="446.4883" fill="#84BE84" rx="3" ry="3" style="stroke:#038048;stroke-width:1.0;"/><text fill="#000000" font-family="sans-serif" font-size="14" lengthAdjust="spacing" textLength="138" x="259" y="453.0234">getVacCenterStore()</text></g><!--MD5=[72be06cc7ae02ccc98efe28a50e62246]
class SNSUser--><g id="elem_SNSUser"><rect codeLine="43" fill="#F1F1F1" height="163.418" id="SNSUser" rx="2.5" ry="2.5" style="stroke:#181818;stroke-width:0.5;" width="127" x="456.5" y="710"/><ellipse cx="488.6" cy="726" fill="#ADD1B2" rx="11" ry="11" style="stroke:#181818;stroke-width:1.0;"/><path d="M491.0731,732.1431 Q490.4921,732.4419 489.8529,732.5913 Q489.2138,732.7407 488.5082,732.7407 Q486.0014,732.7407 484.6815,731.0889 Q483.3617,729.437 483.3617,726.3159 Q483.3617,723.1865 484.6815,721.5347 Q486.0014,719.8828 488.5082,719.8828 Q489.2138,719.8828 489.8612,720.0322 Q490.5087,720.1816 491.0731,720.4805 L491.0731,723.2031 Q490.4423,722.6221 489.8488,722.3523 Q489.2553,722.0825 488.6244,722.0825 Q487.2797,722.0825 486.5949,723.1492 Q485.9101,724.2158 485.9101,726.3159 Q485.9101,728.4077 486.5949,729.4744 Q487.2797,730.541 488.6244,730.541 Q489.2553,730.541 489.8488,730.2712 Q490.4423,730.0015 491.0731,729.4204 Z " fill="#000000"/><text fill="#000000" font-family="sans-serif" font-size="14" lengthAdjust="spacing" textLength="57" x="506.4" y="731.291">SNSUser</text><line style="stroke:#181818;stroke-width:0.5;" x1="457.5" x2="582.5" y1="742" y2="742"/><rect fill="none" height="6" style="stroke:#C82930;stroke-width:1.0;" width="6" x="464.5" y="750"/><text fill="#000000" font-family="sans-serif" font-size="14" lengthAdjust="spacing" textLength="39" x="476.5" y="759.5352">Name</text><rect fill="none" height="6" style="stroke:#C82930;stroke-width:1.0;" width="6" x="464.5" y="766.4883"/><text fill="#000000" font-family="sans-serif" font-size="14" lengthAdjust="spacing" textLength="25" x="476.5" y="776.0234">Sex</text><rect fill="none" height="6" style="stroke:#C82930;stroke-width:1.0;" width="6" x="464.5" y="782.9766"/><text fill="#000000" font-family="sans-serif" font-size="14" lengthAdjust="spacing" textLength="62" x="476.5" y="792.5117">Birthdate</text><rect fill="none" height="6" style="stroke:#C82930;stroke-width:1.0;" width="6" x="464.5" y="799.4648"/><text fill="#000000" font-family="sans-serif" font-size="14" lengthAdjust="spacing" textLength="84" x="476.5" y="809">SNS number</text><rect fill="none" height="6" style="stroke:#C82930;stroke-width:1.0;" width="6" x="464.5" y="815.9531"/><text fill="#000000" font-family="sans-serif" font-size="14" lengthAdjust="spacing" textLength="101" x="476.5" y="825.4883">Phone number</text><rect fill="none" height="6" style="stroke:#C82930;stroke-width:1.0;" width="6" x="464.5" y="832.4414"/><text fill="#000000" font-family="sans-serif" font-size="14" lengthAdjust="spacing" textLength="56" x="476.5" y="841.9766">Address</text><rect fill="none" height="6" style="stroke:#C82930;stroke-width:1.0;" width="6" x="464.5" y="848.9297"/><text fill="#000000" font-family="sans-serif" font-size="14" lengthAdjust="spacing" textLength="37" x="476.5" y="858.4648">Email</text><line style="stroke:#181818;stroke-width:0.5;" x1="457.5" x2="582.5" y1="865.418" y2="865.418"/></g><!--MD5=[de60e6d4f424ae4d0522096f76a59010]
class VaccinationCenter--><g id="elem_VaccinationCenter"><rect codeLine="53" fill="#F1F1F1" height="64.4883" id="VaccinationCenter" rx="2.5" ry="2.5" style="stroke:#181818;stroke-width:0.5;" width="157" x="46.5" y="387.5"/><ellipse cx="61.5" cy="403.5" fill="#ADD1B2" rx="11" ry="11" style="stroke:#181818;stroke-width:1.0;"/><path d="M63.9731,409.6431 Q63.3921,409.9419 62.7529,410.0913 Q62.1138,410.2407 61.4082,410.2407 Q58.9014,410.2407 57.5815,408.5889 Q56.2617,406.937 56.2617,403.8159 Q56.2617,400.6865 57.5815,399.0347 Q58.9014,397.3828 61.4082,397.3828 Q62.1138,397.3828 62.7612,397.5322 Q63.4087,397.6816 63.9731,397.9805 L63.9731,400.7031 Q63.3423,400.1221 62.7488,399.8523 Q62.1553,399.5825 61.5244,399.5825 Q60.1797,399.5825 59.4949,400.6492 Q58.8101,401.7158 58.8101,403.8159 Q58.8101,405.9077 59.4949,406.9744 Q60.1797,408.041 61.5244,408.041 Q62.1553,408.041 62.7488,407.7712 Q63.3423,407.5015 63.9731,406.9204 Z " fill="#000000"/><text fill="#000000" font-family="sans-serif" font-size="14" lengthAdjust="spacing" textLength="125" x="75.5" y="408.791">VaccinationCenter</text><line style="stroke:#181818;stroke-width:0.5;" x1="47.5" x2="202.5" y1="419.5" y2="419.5"/><line style="stroke:#181818;stroke-width:0.5;" x1="47.5" x2="202.5" y1="427.5" y2="427.5"/><ellipse cx="57.5" cy="438.5" fill="#84BE84" rx="3" ry="3" style="stroke:#038048;stroke-width:1.0;"/><text fill="#000000" font-family="sans-serif" font-size="14" lengthAdjust="spacing" textLength="123" x="66.5" y="445.0352">getWaitingRoom()</text></g><!--MD5=[aaa7e27c4ec43917c82a021675d2c87a]
class WaitingRoom--><g id="elem_WaitingRoom"><rect codeLine="57" fill="#F1F1F1" height="48" id="WaitingRoom" rx="2.5" ry="2.5" style="stroke:#181818;stroke-width:0.5;" width="123" x="260.5" y="561"/><ellipse cx="275.5" cy="577" fill="#ADD1B2" rx="11" ry="11" style="stroke:#181818;stroke-width:1.0;"/><path d="M277.9731,583.1431 Q277.3921,583.4419 276.7529,583.5913 Q276.1138,583.7407 275.4082,583.7407 Q272.9014,583.7407 271.5815,582.0889 Q270.2617,580.437 270.2617,577.3159 Q270.2617,574.1865 271.5815,572.5347 Q272.9014,570.8828 275.4082,570.8828 Q276.1138,570.8828 276.7612,571.0322 Q277.4087,571.1816 277.9731,571.4805 L277.9731,574.2031 Q277.3423,573.6221 276.7488,573.3523 Q276.1553,573.0825 275.5244,573.0825 Q274.1797,573.0825 273.4949,574.1492 Q272.8101,575.2158 272.8101,577.3159 Q272.8101,579.4077 273.4949,580.4744 Q274.1797,581.541 275.5244,581.541 Q276.1553,581.541 276.7488,581.2712 Q277.3423,581.0015 277.9731,580.4204 Z " fill="#000000"/><text fill="#000000" font-family="sans-serif" font-size="14" lengthAdjust="spacing" textLength="91" x="289.5" y="582.291">WaitingRoom</text><line style="stroke:#181818;stroke-width:0.5;" x1="261.5" x2="382.5" y1="593" y2="593"/><line style="stroke:#181818;stroke-width:0.5;" x1="261.5" x2="382.5" y1="601" y2="601"/></g><!--MD5=[7b3e8f70d80133538393dc99d446cc4d]
class WaitingRoomList--><g id="elem_WaitingRoomList"><rect codeLine="61" fill="#F1F1F1" height="48" id="WaitingRoomList" rx="2.5" ry="2.5" style="stroke:#181818;stroke-width:0.5;" width="146" x="438" y="395.5"/><ellipse cx="453" cy="411.5" fill="#ADD1B2" rx="11" ry="11" style="stroke:#181818;stroke-width:1.0;"/><path d="M455.4731,417.6431 Q454.8921,417.9419 454.2529,418.0913 Q453.6138,418.2407 452.9082,418.2407 Q450.4014,418.2407 449.0815,416.5889 Q447.7617,414.937 447.7617,411.8159 Q447.7617,408.6865 449.0815,407.0347 Q450.4014,405.3828 452.9082,405.3828 Q453.6138,405.3828 454.2612,405.5322 Q454.9087,405.6816 455.4731,405.9805 L455.4731,408.7031 Q454.8423,408.1221 454.2488,407.8523 Q453.6553,407.5825 453.0244,407.5825 Q451.6797,407.5825 450.9949,408.6492 Q450.3101,409.7158 450.3101,411.8159 Q450.3101,413.9077 450.9949,414.9744 Q451.6797,416.041 453.0244,416.041 Q453.6553,416.041 454.2488,415.7712 Q454.8423,415.5015 455.4731,414.9204 Z " fill="#000000"/><text fill="#000000" font-family="sans-serif" font-size="14" lengthAdjust="spacing" textLength="114" x="467" y="416.791">WaitingRoomList</text><line style="stroke:#181818;stroke-width:0.5;" x1="439" x2="583" y1="427.5" y2="427.5"/><line style="stroke:#181818;stroke-width:0.5;" x1="439" x2="583" y1="435.5" y2="435.5"/></g><!--MD5=[a29876ea2f21a6ca48ea477740122fd8]
class VaccinationCenterStore--><g id="elem_VaccinationCenterStore"><rect codeLine="67" fill="#F1F1F1" height="48" id="VaccinationCenterStore" rx="2.5" ry="2.5" style="stroke:#181818;stroke-width:0.5;" width="193" x="640.5" y="561"/><ellipse cx="655.5" cy="577" fill="#ADD1B2" rx="11" ry="11" style="stroke:#181818;stroke-width:1.0;"/><path d="M657.9731,583.1431 Q657.3921,583.4419 656.7529,583.5913 Q656.1138,583.7407 655.4082,583.7407 Q652.9014,583.7407 651.5815,582.0889 Q650.2617,580.437 650.2617,577.3159 Q650.2617,574.1865 651.5815,572.5347 Q652.9014,570.8828 655.4082,570.8828 Q656.1138,570.8828 656.7612,571.0322 Q657.4087,571.1816 657.9731,571.4805 L657.9731,574.2031 Q657.3423,573.6221 656.7488,573.3523 Q656.1553,573.0825 655.5244,573.0825 Q654.1797,573.0825 653.4949,574.1492 Q652.8101,575.2158 652.8101,577.3159 Q652.8101,579.4077 653.4949,580.4744 Q654.1797,581.541 655.5244,581.541 Q656.1553,581.541 656.7488,581.2712 Q657.3423,581.0015 657.9731,580.4204 Z " fill="#000000"/><text fill="#000000" font-family="sans-serif" font-size="14" lengthAdjust="spacing" textLength="161" x="669.5" y="582.291">VaccinationCenterStore</text><line style="stroke:#181818;stroke-width:0.5;" x1="641.5" x2="832.5" y1="593" y2="593"/><line style="stroke:#181818;stroke-width:0.5;" x1="641.5" x2="832.5" y1="601" y2="601"/></g><!--MD5=[863b126a8c99db7c2e11d434a21165a2]
link ListWaitingRoomUI to ListWaitingRoomController--><g id="link_ListWaitingRoomUI_ListWaitingRoomController"><path codeLine="75" d="M511,89.05 C511,107.76 511,134.85 511,158.8 " fill="none" id="ListWaitingRoomUI-to-ListWaitingRoomController" style="stroke:#181818;stroke-width:1.0;stroke-dasharray:7.0,7.0;"/><polygon fill="#181818" points="511,163.86,515,154.86,511,158.86,507,154.86,511,163.86" style="stroke:#181818;stroke-width:1.0;"/></g><!--MD5=[0d88a6f0f66bed4d1a6535979947ddcb]
link ListWaitingRoomController to Company--><g id="link_ListWaitingRoomController_Company"><path codeLine="77" d="M453.91,261.24 C442.66,271.38 431.2,282.27 421,293 C396.6,318.67 371.77,349.8 352.95,374.63 " fill="none" id="ListWaitingRoomController-to-Company" style="stroke:#181818;stroke-width:1.0;stroke-dasharray:7.0,7.0;"/><polygon fill="#181818" points="349.75,378.88,358.3691,374.1145,352.766,374.892,351.9884,369.2889,349.75,378.88" style="stroke:#181818;stroke-width:1.0;"/></g><!--MD5=[484583aa3114e8cbe071a102b4548b38]
link ListWaitingRoomController to SNSUserMapper--><g id="link_ListWaitingRoomController_SNSUserMapper"><path codeLine="78" d="M626.97,261.05 C712.53,296.13 827.83,343.4 909.71,376.97 " fill="none" id="ListWaitingRoomController-to-SNSUserMapper" style="stroke:#181818;stroke-width:1.0;stroke-dasharray:7.0,7.0;"/><polygon fill="#181818" points="914.56,378.96,907.7532,371.8419,909.9345,377.0613,904.7152,379.2427,914.56,378.96" style="stroke:#181818;stroke-width:1.0;"/></g><!--MD5=[9c1185525340148f84a65ccd63954969]
link ListWaitingRoomController to WaitingRoomList--><g id="link_ListWaitingRoomController_WaitingRoomList"><path codeLine="79" d="M511,261.05 C511,301.02 511,356.81 511,390.13 " fill="none" id="ListWaitingRoomController-to-WaitingRoomList" style="stroke:#181818;stroke-width:1.0;"/><polygon fill="#181818" points="511,395.28,515,386.28,511,390.28,507,386.28,511,395.28" style="stroke:#181818;stroke-width:1.0;"/><text fill="#000000" font-family="sans-serif" font-size="13" lengthAdjust="spacing" textLength="8" x="502.3875" y="282.1892">1</text><text fill="#000000" font-family="sans-serif" font-size="13" lengthAdjust="spacing" textLength="8" x="501.975" y="384.7599">1</text></g><!--MD5=[bc0d5b4bfe6e1bf0a8fced13bc4bdd47]
link Company to VaccinationCenterStore--><g id="link_Company_VaccinationCenterStore"><path codeLine="81" d="M403.08,455.02 C409.09,456.89 415.1,458.58 421,460 C498.71,478.64 525.75,447.44 600,477 C644.63,494.77 686.72,531.81 712.18,557.28 " fill="none" id="Company-to-VaccinationCenterStore" style="stroke:#181818;stroke-width:1.0;"/><polygon fill="#181818" points="715.82,560.95,712.3217,551.7434,712.2988,557.4002,706.642,557.3773,715.82,560.95" style="stroke:#181818;stroke-width:1.0;"/><text fill="#000000" font-family="sans-serif" font-size="13" lengthAdjust="spacing" textLength="8" x="411.0155" y="455.1868">1</text><text fill="#000000" font-family="sans-serif" font-size="13" lengthAdjust="spacing" textLength="8" x="701.0529" y="550.081">1</text></g><!--MD5=[8c304936b446fd8cea914e03fbadd4b7]
link VaccinationCenterStore to VaccinationCenter--><g id="link_VaccinationCenterStore_VaccinationCenter"><path codeLine="83" d="M716.42,560.99 C691.7,535.16 647.56,494.58 600,477 C521.13,447.85 304.13,478.01 222,460 C214.06,458.26 205.93,455.92 197.92,453.25 " fill="none" id="VaccinationCenterStore-to-VaccinationCenter" style="stroke:#181818;stroke-width:1.0;stroke-dasharray:7.0,7.0;"/><polygon fill="#181818" points="192.96,451.54,200.1669,458.2527,197.6875,453.1682,202.772,450.6888,192.96,451.54" style="stroke:#181818;stroke-width:1.0;"/></g><!--MD5=[de78e1efbcb885042a1719c3cec87a53]
link VaccinationCenter to WaitingRoom--><g id="link_VaccinationCenter_WaitingRoom"><path codeLine="84" d="M162.52,451.64 C199.42,482.27 255.15,528.52 290.01,557.45 " fill="none" id="VaccinationCenter-to-WaitingRoom" style="stroke:#181818;stroke-width:1.0;stroke-dasharray:7.0,7.0;"/><polygon fill="#181818" points="294.16,560.89,289.7874,552.065,290.3119,557.6975,284.6794,558.222,294.16,560.89" style="stroke:#181818;stroke-width:1.0;"/></g><!--MD5=[24c2fd327ed292dae31da7e02ad85038]
link SNSUserMapper to SNSUser--><g id="link_SNSUserMapper_SNSUser"><path codeLine="86" d="M1070.55,460.08 C1075.1,465.25 1079.06,470.9 1082,477 C1124.66,565.47 1145.56,623.12 1082,698 C1019.45,771.68 724.72,786.77 588.88,789.79 " fill="none" id="SNSUserMapper-to-SNSUser" style="stroke:#181818;stroke-width:1.0;stroke-dasharray:7.0,7.0;"/><polygon fill="#181818" points="583.72,789.9,592.7982,793.7192,588.719,789.8,592.6382,785.7208,583.72,789.9" style="stroke:#181818;stroke-width:1.0;"/></g><!--MD5=[ae916cb482fc4c7c1d4ca903972b92f5]
link SNSUserMapper to SNSUserDTO--><g id="link_SNSUserMapper_SNSUserDTO"><path codeLine="87" d="M1008.82,460.08 C1007.92,476.49 1006.84,496.03 1005.82,514.68 " fill="none" id="SNSUserMapper-to-SNSUserDTO" style="stroke:#181818;stroke-width:1.0;stroke-dasharray:7.0,7.0;"/><polygon fill="#181818" points="1005.53,519.92,1010.0133,511.1508,1005.8018,514.9274,1002.0252,510.7159,1005.53,519.92" style="stroke:#181818;stroke-width:1.0;"/></g><!--MD5=[3cf2534974d3244cce832bfd01410882]
link SNSUserMapper to WaitingRoomList--><g id="link_SNSUserMapper_WaitingRoomList"><path codeLine="88" d="M914.31,419.5 C806.01,419.5 697.7,419.5 589.4,419.5 " fill="none" id="SNSUserMapper-to-WaitingRoomList" style="stroke:#181818;stroke-width:1.0;stroke-dasharray:7.0,7.0;"/><polygon fill="#181818" points="584.24,419.5,593.24,423.5,589.24,419.5,593.24,415.5,584.24,419.5" style="stroke:#181818;stroke-width:1.0;"/></g><!--MD5=[1dfd2b8cef5257ed6efd914f274c3279]
link WaitingRoom to SNSUser--><g id="link_WaitingRoom_SNSUser"><path codeLine="90" d="M344.33,609.06 C370.49,636.08 415.05,682.11 452.75,721.04 " fill="none" id="WaitingRoom-to-SNSUser" style="stroke:#181818;stroke-width:1.0;stroke-dasharray:7.0,7.0;"/><polygon fill="#181818" points="456.37,724.78,452.9648,715.5385,452.8848,721.1948,447.2285,721.1148,456.37,724.78" style="stroke:#181818;stroke-width:1.0;"/></g><!--MD5=[ca4d132d59f0a21a42edadbcfc07db0d]
link WaitingRoomList to SNSUserDTO--><g id="link_WaitingRoomList_SNSUserDTO"><path codeLine="91" d="M584.33,423.32 C654.78,428.17 763.06,441.34 850,477 C879.64,489.16 909.14,507.97 934.16,526.45 " fill="none" id="WaitingRoomList-to-SNSUserDTO" style="stroke:#181818;stroke-width:1.0;stroke-dasharray:7.0,7.0;"/><polygon fill="#181818" points="938.46,529.66,933.66,521.06,934.46,526.66,928.86,527.46,938.46,529.66" style="stroke:#181818;stroke-width:1.0;"/></g><!--MD5=[1b9ec935a83426f0b76f890e6fdd1e2f]
link SNSUserDTO to SNSUser--><g id="link_SNSUserDTO_SNSUser"><path codeLine="93" d="M938.39,640.88 C912.35,661.14 881.08,682.83 850,698 C764.67,739.66 657.48,765.33 588.85,778.75 " fill="none" id="SNSUserDTO-to-SNSUser" style="stroke:#181818;stroke-width:1.0;"/><polygon fill="#181818" points="583.56,779.77,593.1587,781.9756,588.4678,778.8141,591.6293,774.1232,583.56,779.77" style="stroke:#181818;stroke-width:1.0;"/><text fill="#000000" font-family="sans-serif" font-size="13" lengthAdjust="spacing" textLength="8" x="922.5726" y="644.0347">1</text><text fill="#000000" font-family="sans-serif" font-size="13" lengthAdjust="spacing" textLength="6" x="591.672" y="774.9882">*</text></g><!--MD5=[e40673535c7a57734816211623a2798d]
@startuml


package ui{
    class ListWaitingRoomUI{

    }
}

package controller{
    class ListWaitingRoomController{
        +getWaitingRoom(VaccinationCenter)
        +createWaitingRoomList(waitingRoom)
        +getWaitingRoomList()
    }
}

package Mappers{
    package DTO{
        class SNSUserDTO{
            -Name
            -Sex
            -Birthdate
            -SNS number
            -Phone number
        }
    }

    class SNSUserMapper{
        +toDTO(SNSUser)
        +toListDTO(waitingRoom)
    }
}


package Domain{
    package Model{
        class Company{
            -designation
            - - - -
            +getVacCenterStore()
        }

        class SNSUser{
            -Name
            -Sex
            -Birthdate
            -SNS number
            -Phone number
            -Address
            -Email
        }

        class VaccinationCenter{
            +getWaitingRoom()
        }

        class WaitingRoom{

        }

        class WaitingRoomList{

        }
    }

    package Store{
        class VaccinationCenterStore{

        }
    }

}


ListWaitingRoomUI ..> ListWaitingRoomController

ListWaitingRoomController ..> Company
ListWaitingRoomController ..> SNSUserMapper
ListWaitingRoomController "1"->"1" WaitingRoomList

Company "1"- ->"1" VaccinationCenterStore

VaccinationCenterStore ..> VaccinationCenter
VaccinationCenter ..> WaitingRoom

SNSUserMapper ..> SNSUser
SNSUserMapper ..> SNSUserDTO
SNSUserMapper ..> WaitingRoomList

WaitingRoom ..> SNSUser
WaitingRoomList ..> SNSUserDTO

SNSUserDTO "1"- ->"*" SNSUser

@enduml

PlantUML version 1.2022.5(Sat Apr 30 11:55:52 WEST 2022)
(GPL source distribution)
Java Runtime: OpenJDK Runtime Environment
JVM: OpenJDK 64-Bit Server VM
Default Encoding: UTF-8
Language: pt
Country: PT
--></g></svg>