@startuml


package ui{
    class ListWaitingRoomUI{

    }
}

package controller{
    class ListWaitingRoomController{
        +getWaitingRoom(VaccinationCenter)
        +createWaitingRoomList(waitingRoom)
        +getWaitingRoomList()
    }
}

package Mappers{
    package DTO{
        class SNSUserDTO{
            -Name
            -Sex
            -Birthdate
            -SNS number
            -Phone number
        }
    }

    class SNSUserMapper{
        +toDTO(SNSUser)
        +toListDTO(waitingRoom)
    }
}


package Domain{
    package Model{
        class Company{
            -designation
            ----
            +getVacCenterStore()
        }

        class SNSUser{
            -Name
            -Sex
            -Birthdate
            -SNS number
            -Phone number
            -Address
            -Email
        }

        class VaccinationCenter{
            +getWaitingRoom()
        }

        class WaitingRoom{

        }

        class WaitingRoomList{

        }
    }

    package Store{
        class VaccinationCenterStore{

        }
    }

}


ListWaitingRoomUI ..> ListWaitingRoomController

ListWaitingRoomController ..> Company
ListWaitingRoomController ..> SNSUserMapper
ListWaitingRoomController "1"->"1" WaitingRoomList

Company "1"-->"1" VaccinationCenterStore

VaccinationCenterStore ..> VaccinationCenter
VaccinationCenter ..> WaitingRoom

SNSUserMapper ..> SNSUser
SNSUserMapper ..> SNSUserDTO
SNSUserMapper ..> WaitingRoomList

WaitingRoom ..> SNSUser
WaitingRoomList ..> SNSUserDTO

SNSUserDTO "1"-->"*" SNSUser

@enduml