<?xml version="1.0" encoding="UTF-8" standalone="no"?><svg xmlns="http://www.w3.org/2000/svg" xmlns:xlink="http://www.w3.org/1999/xlink" contentStyleType="text/css" height="489px" preserveAspectRatio="none" style="width:1784px;height:489px;background:#FFFFFF;" version="1.1" viewBox="0 0 1784 489" width="1784.4px" zoomAndPan="magnify"><defs/><g><rect fill="#FFFFFF" height="379.3641" style="stroke:#181818;stroke-width:0.6;" width="6" x="13.5" y="55.5656"/><rect fill="#FFFFFF" height="18.2109" style="stroke:#181818;stroke-width:0.6;" width="6" x="560.1" y="68.9766"/><rect fill="#FFFFFF" height="163.2656" style="stroke:#181818;stroke-width:0.6;" width="6" x="560.1" y="105.3984"/><rect fill="#FFFFFF" height="142.6547" style="stroke:#181818;stroke-width:0.6;" width="6" x="560.1" y="286.875"/><rect fill="#FFFFFF" height="126.8438" style="stroke:#181818;stroke-width:0.6;" width="6" x="671.1" y="123.6094"/><rect fill="#FFFFFF" height="102.0328" style="stroke:#181818;stroke-width:0.6;" width="6" x="671.1" y="305.0859"/><rect fill="#FFFFFF" height="18" style="stroke:#181818;stroke-width:0.6;" width="6" x="770.7" y="141.8203"/><rect fill="#FFFFFF" height="83.8219" style="stroke:#181818;stroke-width:0.6;" width="6" x="770.7" y="323.2969"/><rect fill="#FFFFFF" height="16.8" style="stroke:#181818;stroke-width:0.6;" width="6" x="773.7" y="346.3078"/><rect fill="#FFFFFF" height="16.8" style="stroke:#181818;stroke-width:0.6;" width="6" x="773.7" y="390.3187"/><rect fill="#FFFFFF" height="18" style="stroke:#181818;stroke-width:0.6;" width="6" x="1217.7" y="196.2422"/><rect fill="#FFFFFF" height="18" style="stroke:#181818;stroke-width:0.6;" width="6" x="1217.7" y="232.4531"/><line style="stroke:#181818;stroke-width:0.3;stroke-dasharray:5.0,5.0;" x1="16.2" x2="16.2" y1="49.5656" y2="440.3297"/><line style="stroke:#181818;stroke-width:0.3;stroke-dasharray:5.0,5.0;" x1="563.1" x2="563.1" y1="49.5656" y2="440.3297"/><line style="stroke:#181818;stroke-width:0.3;stroke-dasharray:5.0,5.0;" x1="674.1" x2="674.1" y1="49.5656" y2="440.3297"/><line style="stroke:#181818;stroke-width:0.3;stroke-dasharray:5.0,5.0;" x1="773.7" x2="773.7" y1="49.5656" y2="440.3297"/><line style="stroke:#181818;stroke-width:0.3;stroke-dasharray:5.0,5.0;" x1="1220.4" x2="1220.4" y1="49.5656" y2="440.3297"/><line style="stroke:#181818;stroke-width:0.3;stroke-dasharray:5.0,5.0;" x1="1736.7" x2="1736.7" y1="49.5656" y2="440.3297"/><text fill="#000000" font-family="sans-serif" font-size="8.4" lengthAdjust="spacing" textLength="23.4" x="3" y="47.7199">Admin</text><ellipse cx="16.5" cy="8.1" fill="#E2E2F0" rx="4.8" ry="4.8" style="stroke:#181818;stroke-width:0.3;"/><path d="M16.5,12.9 L16.5,29.1 M8.7,17.7 L24.3,17.7 M16.5,29.1 L8.7,38.1 M16.5,29.1 L24.3,38.1 " fill="none" style="stroke:#181818;stroke-width:0.3;"/><text fill="#000000" font-family="sans-serif" font-size="8.4" lengthAdjust="spacing" textLength="23.4" x="3" y="448.4496">Admin</text><ellipse cx="16.5" cy="455.3953" fill="#E2E2F0" rx="4.8" ry="4.8" style="stroke:#181818;stroke-width:0.3;"/><path d="M16.5,460.1953 L16.5,476.3953 M8.7,464.9953 L24.3,464.9953 M16.5,476.3953 L8.7,485.3953 M16.5,476.3953 L24.3,485.3953 " fill="none" style="stroke:#181818;stroke-width:0.3;"/><rect fill="#E2E2F0" height="18.9656" rx="1.5" ry="1.5" style="stroke:#181818;stroke-width:0.3;" width="90" x="518.1" y="30"/><text fill="#000000" font-family="sans-serif" font-size="8.4" lengthAdjust="spacing" textLength="81.6" x="522.3" y="42.9199">:RegisterVacCenterUI</text><rect fill="#E2E2F0" height="18.9656" rx="1.5" ry="1.5" style="stroke:#181818;stroke-width:0.3;" width="90" x="518.1" y="439.7297"/><text fill="#000000" font-family="sans-serif" font-size="8.4" lengthAdjust="spacing" textLength="81.6" x="522.3" y="452.6496">:RegisterVacCenterUI</text><rect fill="#E2E2F0" height="18.9656" rx="1.5" ry="1.5" style="stroke:#181818;stroke-width:0.3;" width="120" x="614.1" y="30"/><text fill="#000000" font-family="sans-serif" font-size="8.4" lengthAdjust="spacing" textLength="111.6" x="618.3" y="42.9199">:RegisterVacCenterController</text><rect fill="#E2E2F0" height="18.9656" rx="1.5" ry="1.5" style="stroke:#181818;stroke-width:0.3;" width="120" x="614.1" y="439.7297"/><text fill="#000000" font-family="sans-serif" font-size="8.4" lengthAdjust="spacing" textLength="111.6" x="618.3" y="452.6496">:RegisterVacCenterController</text><rect fill="#E2E2F0" height="18.9656" rx="1.5" ry="1.5" style="stroke:#181818;stroke-width:0.3;" width="46.8" x="750.3" y="30"/><text fill="#000000" font-family="sans-serif" font-size="8.4" lengthAdjust="spacing" textLength="38.4" x="754.5" y="42.9199">:Company</text><rect fill="#E2E2F0" height="18.9656" rx="1.5" ry="1.5" style="stroke:#181818;stroke-width:0.3;" width="46.8" x="750.3" y="439.7297"/><text fill="#000000" font-family="sans-serif" font-size="8.4" lengthAdjust="spacing" textLength="38.4" x="754.5" y="452.6496">:Company</text><rect fill="#E2E2F0" height="18.9656" rx="1.5" ry="1.5" style="stroke:#181818;stroke-width:0.3;" width="42.6" x="1199.4" y="30"/><text fill="#000000" font-family="sans-serif" font-size="8.4" lengthAdjust="spacing" textLength="34.2" x="1203.6" y="42.9199">:VCStore</text><rect fill="#E2E2F0" height="18.9656" rx="1.5" ry="1.5" style="stroke:#181818;stroke-width:0.3;" width="42.6" x="1199.4" y="439.7297"/><text fill="#000000" font-family="sans-serif" font-size="8.4" lengthAdjust="spacing" textLength="34.2" x="1203.6" y="452.6496">:VCStore</text><rect fill="#E2E2F0" height="18.9656" rx="1.5" ry="1.5" style="stroke:#181818;stroke-width:0.3;" width="88.8" x="1692.3" y="30"/><text fill="#000000" font-family="sans-serif" font-size="8.4" lengthAdjust="spacing" textLength="80.4" x="1696.5" y="42.9199">vc:VaccinationCenter</text><rect fill="#E2E2F0" height="18.9656" rx="1.5" ry="1.5" style="stroke:#181818;stroke-width:0.3;" width="88.8" x="1692.3" y="439.7297"/><text fill="#000000" font-family="sans-serif" font-size="8.4" lengthAdjust="spacing" textLength="80.4" x="1696.5" y="452.6496">vc:VaccinationCenter</text><rect fill="#FFFFFF" height="379.3641" style="stroke:#181818;stroke-width:0.6;" width="6" x="13.5" y="55.5656"/><rect fill="#FFFFFF" height="18.2109" style="stroke:#181818;stroke-width:0.6;" width="6" x="560.1" y="68.9766"/><rect fill="#FFFFFF" height="163.2656" style="stroke:#181818;stroke-width:0.6;" width="6" x="560.1" y="105.3984"/><rect fill="#FFFFFF" height="142.6547" style="stroke:#181818;stroke-width:0.6;" width="6" x="560.1" y="286.875"/><rect fill="#FFFFFF" height="126.8438" style="stroke:#181818;stroke-width:0.6;" width="6" x="671.1" y="123.6094"/><rect fill="#FFFFFF" height="102.0328" style="stroke:#181818;stroke-width:0.6;" width="6" x="671.1" y="305.0859"/><rect fill="#FFFFFF" height="18" style="stroke:#181818;stroke-width:0.6;" width="6" x="770.7" y="141.8203"/><rect fill="#FFFFFF" height="83.8219" style="stroke:#181818;stroke-width:0.6;" width="6" x="770.7" y="323.2969"/><rect fill="#FFFFFF" height="16.8" style="stroke:#181818;stroke-width:0.6;" width="6" x="773.7" y="346.3078"/><rect fill="#FFFFFF" height="16.8" style="stroke:#181818;stroke-width:0.6;" width="6" x="773.7" y="390.3187"/><rect fill="#FFFFFF" height="18" style="stroke:#181818;stroke-width:0.6;" width="6" x="1217.7" y="196.2422"/><rect fill="#FFFFFF" height="18" style="stroke:#181818;stroke-width:0.6;" width="6" x="1217.7" y="232.4531"/><polygon fill="#181818" points="552.9,66.5766,558.9,68.9766,552.9,71.3766,555.3,68.9766" style="stroke:#181818;stroke-width:0.6;"/><line style="stroke:#181818;stroke-width:0.6;" x1="19.5" x2="556.5" y1="68.9766" y2="68.9766"/><text fill="#000000" font-family="sans-serif" font-size="7.8" font-weight="bold" lengthAdjust="spacing" textLength="4.2" x="23.7" y="66.0627">1</text><text fill="#000000" font-family="sans-serif" font-size="7.8" lengthAdjust="spacing" textLength="147.6" x="30.3" y="66.0627">asks to register a new Vaccination Center.</text><polygon fill="#181818" points="26.1,84.7875,20.1,87.1875,26.1,89.5875,23.7,87.1875" style="stroke:#181818;stroke-width:0.6;"/><line style="stroke:#181818;stroke-width:0.6;stroke-dasharray:2.0,2.0;" x1="22.5" x2="562.5" y1="87.1875" y2="87.1875"/><text fill="#000000" font-family="sans-serif" font-size="7.8" font-weight="bold" lengthAdjust="spacing" textLength="4.2" x="29.7" y="84.2736">2</text><text fill="#000000" font-family="sans-serif" font-size="7.8" lengthAdjust="spacing" textLength="519.6" x="36.3" y="84.2736">Request data(name,address,Phone number,e-maill,fax number,website,opening and closing hours,slot duration,maximum number of vaccines per slot)</text><polygon fill="#181818" points="552.9,102.9984,558.9,105.3984,552.9,107.7984,555.3,105.3984" style="stroke:#181818;stroke-width:0.6;"/><line style="stroke:#181818;stroke-width:0.6;" x1="19.5" x2="556.5" y1="105.3984" y2="105.3984"/><text fill="#000000" font-family="sans-serif" font-size="7.8" font-weight="bold" lengthAdjust="spacing" textLength="4.2" x="23.7" y="102.4846">3</text><text fill="#000000" font-family="sans-serif" font-size="7.8" lengthAdjust="spacing" textLength="76.8" x="30.3" y="102.4846">inserts the information</text><polygon fill="#181818" points="663.9,121.2094,669.9,123.6094,663.9,126.0094,666.3,123.6094" style="stroke:#181818;stroke-width:0.6;"/><line style="stroke:#181818;stroke-width:0.6;" x1="566.1" x2="667.5" y1="123.6094" y2="123.6094"/><text fill="#000000" font-family="sans-serif" font-size="7.8" font-weight="bold" lengthAdjust="spacing" textLength="4.2" x="570.3" y="120.6955">4</text><text fill="#000000" font-family="sans-serif" font-size="7.8" lengthAdjust="spacing" textLength="59.4" x="576.9" y="120.6955">CreateVacCenter</text><polygon fill="#181818" points="763.5,139.4203,769.5,141.8203,763.5,144.2203,765.9,141.8203" style="stroke:#181818;stroke-width:0.6;"/><line style="stroke:#181818;stroke-width:0.6;" x1="677.1" x2="767.1" y1="141.8203" y2="141.8203"/><text fill="#000000" font-family="sans-serif" font-size="7.8" font-weight="bold" lengthAdjust="spacing" textLength="4.2" x="681.3" y="138.9064">5</text><text fill="#000000" font-family="sans-serif" font-size="7.8" lengthAdjust="spacing" textLength="75.6" x="687.9" y="138.9064">vcStore = getVCStore</text><polygon fill="#181818" points="1213.5,175.6313,1219.5,178.0313,1213.5,180.4313,1215.9,178.0313" style="stroke:#181818;stroke-width:0.6;"/><line style="stroke:#181818;stroke-width:0.6;" x1="677.1" x2="1217.1" y1="178.0313" y2="178.0313"/><text fill="#000000" font-family="sans-serif" font-size="7.8" font-weight="bold" lengthAdjust="spacing" textLength="4.2" x="681.3" y="175.1174">6</text><text fill="#000000" font-family="sans-serif" font-size="7.8" lengthAdjust="spacing" textLength="522.6" x="687.9" y="175.1174">vc = createVC(name,address,Phone number,e-maill,fax number,website,opening and closing hours,slot duration,maximum number of vaccines per slot)</text><polygon fill="#181818" points="1729.5,193.8422,1735.5,196.2422,1729.5,198.6422,1731.9,196.2422" style="stroke:#181818;stroke-width:0.6;"/><line style="stroke:#181818;stroke-width:0.6;" x1="1223.7" x2="1733.1" y1="196.2422" y2="196.2422"/><text fill="#000000" font-family="sans-serif" font-size="7.8" font-weight="bold" lengthAdjust="spacing" textLength="4.2" x="1227.9" y="193.3283">7</text><text fill="#000000" font-family="sans-serif" font-size="7.8" lengthAdjust="spacing" textLength="495" x="1234.5" y="193.3283">create(name,address,Phone number,e-maill,fax number,website,opening and closing hours,slot duration,maximum number of vaccines per slot)</text><polygon fill="#181818" points="1210.5,230.0531,1216.5,232.4531,1210.5,234.8531,1212.9,232.4531" style="stroke:#181818;stroke-width:0.6;"/><line style="stroke:#181818;stroke-width:0.6;" x1="677.1" x2="1214.1" y1="232.4531" y2="232.4531"/><text fill="#000000" font-family="sans-serif" font-size="7.8" font-weight="bold" lengthAdjust="spacing" textLength="4.2" x="681.3" y="229.5393">8</text><text fill="#000000" font-family="sans-serif" font-size="7.8" lengthAdjust="spacing" textLength="48.6" x="687.9" y="229.5393">validateVC(vc)</text><polygon fill="#181818" points="26.1,266.2641,20.1,268.6641,26.1,271.0641,23.7,268.6641" style="stroke:#181818;stroke-width:0.6;"/><line style="stroke:#181818;stroke-width:0.6;stroke-dasharray:2.0,2.0;" x1="22.5" x2="562.5" y1="268.6641" y2="268.6641"/><text fill="#000000" font-family="sans-serif" font-size="7.8" font-weight="bold" lengthAdjust="spacing" textLength="4.2" x="29.7" y="265.7502">9</text><text fill="#000000" font-family="sans-serif" font-size="7.8" lengthAdjust="spacing" textLength="142.8" x="36.3" y="265.7502">shows the data and request conformation</text><polygon fill="#181818" points="552.9,284.475,558.9,286.875,552.9,289.275,555.3,286.875" style="stroke:#181818;stroke-width:0.6;"/><line style="stroke:#181818;stroke-width:0.6;" x1="19.5" x2="556.5" y1="286.875" y2="286.875"/><text fill="#000000" font-family="sans-serif" font-size="7.8" font-weight="bold" lengthAdjust="spacing" textLength="8.4" x="23.7" y="283.9611">10</text><text fill="#000000" font-family="sans-serif" font-size="7.8" lengthAdjust="spacing" textLength="60" x="34.5" y="283.9611">confirms the data</text><polygon fill="#181818" points="663.9,302.6859,669.9,305.0859,663.9,307.4859,666.3,305.0859" style="stroke:#181818;stroke-width:0.6;"/><line style="stroke:#181818;stroke-width:0.6;" x1="566.1" x2="667.5" y1="305.0859" y2="305.0859"/><text fill="#000000" font-family="sans-serif" font-size="7.8" font-weight="bold" lengthAdjust="spacing" textLength="8.4" x="570.3" y="302.1721">11</text><text fill="#000000" font-family="sans-serif" font-size="7.8" lengthAdjust="spacing" textLength="57" x="581.1" y="302.1721">saveVacCenter()</text><polygon fill="#181818" points="763.5,320.8969,769.5,323.2969,763.5,325.6969,765.9,323.2969" style="stroke:#181818;stroke-width:0.6;"/><line style="stroke:#181818;stroke-width:0.6;" x1="677.1" x2="767.1" y1="323.2969" y2="323.2969"/><text fill="#000000" font-family="sans-serif" font-size="7.8" font-weight="bold" lengthAdjust="spacing" textLength="8.4" x="681.3" y="320.383">12</text><text fill="#000000" font-family="sans-serif" font-size="7.8" lengthAdjust="spacing" textLength="64.2" x="692.1" y="320.383">saveVacCenter(vc)</text><line style="stroke:#181818;stroke-width:0.6;" x1="779.7" x2="804.9" y1="341.5078" y2="341.5078"/><line style="stroke:#181818;stroke-width:0.6;" x1="804.9" x2="804.9" y1="341.5078" y2="349.3078"/><line style="stroke:#181818;stroke-width:0.6;" x1="780.3" x2="804.9" y1="349.3078" y2="349.3078"/><polygon fill="#181818" points="786.3,346.9078,780.3,349.3078,786.3,351.7078,783.9,349.3078" style="stroke:#181818;stroke-width:0.6;"/><text fill="#000000" font-family="sans-serif" font-size="7.8" font-weight="bold" lengthAdjust="spacing" textLength="8.4" x="783.9" y="338.5939">13</text><text fill="#000000" font-family="sans-serif" font-size="7.8" lengthAdjust="spacing" textLength="48.6" x="794.7" y="338.5939">validateVC(vc)</text><line style="stroke:#181818;stroke-width:0.6;" x1="779.7" x2="804.9" y1="385.5188" y2="385.5188"/><line style="stroke:#181818;stroke-width:0.6;" x1="804.9" x2="804.9" y1="385.5188" y2="393.3187"/><line style="stroke:#181818;stroke-width:0.6;" x1="780.3" x2="804.9" y1="393.3187" y2="393.3187"/><polygon fill="#181818" points="786.3,390.9188,780.3,393.3187,786.3,395.7188,783.9,393.3187" style="stroke:#181818;stroke-width:0.6;"/><text fill="#000000" font-family="sans-serif" font-size="7.8" font-weight="bold" lengthAdjust="spacing" textLength="8.4" x="783.9" y="382.6049">14</text><text fill="#000000" font-family="sans-serif" font-size="7.8" lengthAdjust="spacing" textLength="35.4" x="794.7" y="382.6049">addVC(vc)</text><polygon fill="#181818" points="26.1,427.1297,20.1,429.5297,26.1,431.9297,23.7,429.5297" style="stroke:#181818;stroke-width:0.6;"/><line style="stroke:#181818;stroke-width:0.6;stroke-dasharray:2.0,2.0;" x1="22.5" x2="562.5" y1="429.5297" y2="429.5297"/><text fill="#000000" font-family="sans-serif" font-size="7.8" font-weight="bold" lengthAdjust="spacing" textLength="8.4" x="29.7" y="426.6158">15</text><text fill="#000000" font-family="sans-serif" font-size="7.8" lengthAdjust="spacing" textLength="109.8" x="40.5" y="426.6158">informs operation was a sucess</text><!--MD5=[0088de8fb427b5adb434bca0990ecc21]
@startuml
autonumber
actor "Admin" as Admin

participant ":RegisterVacCenterUI" as UI
participant ":RegisterVacCenterController" as CTRL
participant ":Company" as Company
participant ":VCStore" as VCS
participant "vc:VaccinationCenter" as VC


activate Admin
Admin -> UI : asks to register a new Vaccination Center.

activate UI
UI - -> Admin : Request data(name,address,Phone number,e-maill,fax number,website,opening and closing hours,slot duration,maximum number of vaccines per slot)
Deactivate UI

Admin -> UI :inserts the information
activate UI
UI -> CTRL :CreateVacCenter
activate CTRL

CTRL -> Company : vcStore = getVCStore
activate Company
deactivate Company

CTRL -> VCS : vc = createVC(name,address,Phone number,e-maill,fax number,website,opening and closing hours,slot duration,maximum number of vaccines per slot)
VCS -> VC : create(name,address,Phone number,e-maill,fax number,website,opening and closing hours,slot duration,maximum number of vaccines per slot)
activate VCS
Deactivate VCS
CTRL -> VCS : validateVC(vc)
activate VCS
Deactivate VCS


deactivate CTRL


UI - -> Admin : shows the data and request conformation
deactivate UI
Admin -> UI : confirms the data
activate UI
UI -> CTRL : saveVacCenter()
activate CTRL
CTRL -> Company : saveVacCenter(vc)
activate Company
Company -> Company : validateVC(vc)
activate Company
deactivate Company
Company -> Company : addVC(vc)
activate Company
deactivate Company
deactivate Company
deactivate CTRL
UI - -> Admin : informs operation was a sucess
deactivate UI
@enduml

PlantUML version 1.2022.4(Sat Apr 09 14:29:17 BST 2022)
(GPL source distribution)
Java Runtime: OpenJDK Runtime Environment
JVM: OpenJDK 64-Bit Server VM
Default Encoding: Cp1252
Language: pt
Country: PT
--></g></svg>