@startuml
autonumber
actor "Nurse" as nurse

activate nurse

nurse -> ":System" : Request to register administration of a vaccine
activate ":System"
":System" --> nurse : asks for Vaccination Center
deactivate ":System"
nurse -> ":System": Types option
activate ":System"
":System" --> nurse : asks for user
deactivate ":System"
nurse -> ":System": Types option
activate ":System"
":System" --> nurse : asks for vaccine
deactivate ":System"
nurse -> ":System": Types option
activate ":System"
":System" --> nurse : informs operation (in)success
deactivate ":System"

deactivate nurse

@enduml