<?xml version="1.0" encoding="UTF-8" standalone="no"?><svg xmlns="http://www.w3.org/2000/svg" xmlns:xlink="http://www.w3.org/1999/xlink" contentStyleType="text/css" height="493px" preserveAspectRatio="none" style="width:625px;height:493px;background:#FFFFFF;" version="1.1" viewBox="0 0 625 493" width="625px" zoomAndPan="magnify"><defs/><g><!--MD5=[02e4b9b7573f1156f41e60aa5b4e25a4]
class Company--><g id="elem_Company"><rect codeLine="2" fill="#F1F1F1" height="83.2188" id="Company" rx="2.5" ry="2.5" style="stroke:#181818;stroke-width:0.5;" width="157" x="107.5" y="260"/><ellipse cx="151.75" cy="276" fill="#ADD1B2" rx="11" ry="11" style="stroke:#181818;stroke-width:1.0;"/><path d="M153.75,272.5 Q153.9531,272 154.1875,271.75 Q154.4219,271.5 154.6875,271.5 Q155.1563,271.5 155.4531,271.7813 Q155.75,272.0625 155.75,272.7188 L155.75,274.2813 Q155.75,274.9375 155.4688,275.2188 Q155.1875,275.5 154.75,275.5 Q154.3594,275.5 154.1094,275.3281 Q153.8594,275.1563 153.75,274.7031 Q153.7031,274.3906 153.5313,274.2188 Q153.2188,273.8906 152.6563,273.7031 Q152.0938,273.5 151.5313,273.5 Q150.8281,273.5 150.2344,273.7813 Q149.6563,274.0625 149.2031,274.6875 Q148.75,275.3125 148.75,276.1719 L148.75,277.0938 Q148.75,278.125 149.5938,278.8125 Q150.4375,279.5 151.9375,279.5 Q152.8281,279.5 153.4531,279.2969 Q153.8125,279.1875 154.2188,278.8281 Q154.4844,278.625 154.625,278.5625 Q154.7656,278.5 154.9375,278.5 Q155.2656,278.5 155.5,278.7656 Q155.75,279.0156 155.75,279.375 Q155.75,279.7188 155.4063,280.125 Q154.9063,280.7188 154.1094,281.0469 Q153.0625,281.5 151.7813,281.5 Q150.2813,281.5 149.0781,280.9063 Q148.1094,280.4375 147.4219,279.4219 Q146.75,278.4063 146.75,277.2031 L146.75,276.1094 Q146.75,274.8594 147.3438,273.7656 Q147.9531,272.6719 149,272.0938 Q150.0625,271.5 151.25,271.5 Q151.9688,271.5 152.5938,271.75 Q153.2188,272 153.75,272.5 Z " fill="#000000"/><text fill="#000000" font-family="sans-serif" font-size="14" lengthAdjust="spacing" textLength="60" x="172.25" y="281.7285">Company</text><line style="stroke:#181818;stroke-width:0.5;" x1="108.5" x2="263.5" y1="292" y2="292"/><rect fill="none" height="6" style="stroke:#C82930;stroke-width:1.0;" width="6" x="115.5" y="300"/><text fill="#000000" font-family="sans-serif" font-size="14" lengthAdjust="spacing" textLength="73" x="127.5" y="310.5332">designation</text><line style="stroke:#181818;stroke-width:0.5;" x1="108.5" x2="263.5" y1="317.6094" y2="317.6094"/><ellipse cx="118.5" cy="328.6094" fill="#84BE84" rx="3" ry="3" style="stroke:#038048;stroke-width:1.0;"/><text fill="#000000" font-family="sans-serif" font-size="14" lengthAdjust="spacing" textLength="131" x="127.5" y="336.1426">getVacCenterStore()</text></g><!--MD5=[43895cb9d3ee1dacec195611b822e58e]
class VaccineSelectionController--><g id="elem_VaccineSelectionController"><rect codeLine="9" fill="#F1F1F1" height="83.2188" id="VaccineSelectionController" rx="2.5" ry="2.5" style="stroke:#181818;stroke-width:0.5;" width="220" x="170" y="116"/><ellipse cx="193.1" cy="132" fill="#ADD1B2" rx="11" ry="11" style="stroke:#181818;stroke-width:1.0;"/><path d="M195.1,128.5 Q195.3031,128 195.5375,127.75 Q195.7719,127.5 196.0375,127.5 Q196.5063,127.5 196.8031,127.7813 Q197.1,128.0625 197.1,128.7188 L197.1,130.2813 Q197.1,130.9375 196.8188,131.2188 Q196.5375,131.5 196.1,131.5 Q195.7094,131.5 195.4594,131.3281 Q195.2094,131.1563 195.1,130.7031 Q195.0531,130.3906 194.8813,130.2188 Q194.5688,129.8906 194.0063,129.7031 Q193.4438,129.5 192.8813,129.5 Q192.1781,129.5 191.5844,129.7813 Q191.0063,130.0625 190.5531,130.6875 Q190.1,131.3125 190.1,132.1719 L190.1,133.0938 Q190.1,134.125 190.9438,134.8125 Q191.7875,135.5 193.2875,135.5 Q194.1781,135.5 194.8031,135.2969 Q195.1625,135.1875 195.5688,134.8281 Q195.8344,134.625 195.975,134.5625 Q196.1156,134.5 196.2875,134.5 Q196.6156,134.5 196.85,134.7656 Q197.1,135.0156 197.1,135.375 Q197.1,135.7188 196.7563,136.125 Q196.2563,136.7188 195.4594,137.0469 Q194.4125,137.5 193.1313,137.5 Q191.6313,137.5 190.4281,136.9063 Q189.4594,136.4375 188.7719,135.4219 Q188.1,134.4063 188.1,133.2031 L188.1,132.1094 Q188.1,130.8594 188.6938,129.7656 Q189.3031,128.6719 190.35,128.0938 Q191.4125,127.5 192.6,127.5 Q193.3188,127.5 193.9438,127.75 Q194.5688,128 195.1,128.5 Z " fill="#000000"/><text fill="#000000" font-family="sans-serif" font-size="14" lengthAdjust="spacing" textLength="170" x="208.9" y="137.7285">VaccineSelectionController</text><line style="stroke:#181818;stroke-width:0.5;" x1="171" x2="389" y1="148" y2="148"/><line style="stroke:#181818;stroke-width:0.5;" x1="171" x2="389" y1="156" y2="156"/><rect fill="#F24D5C" height="6" style="stroke:#C82930;stroke-width:1.0;" width="6" x="178" y="164"/><text fill="#000000" font-family="sans-serif" font-size="14" lengthAdjust="spacing" textLength="194" x="190" y="174.5332">VaccineSelectionSNSN(center)</text><rect fill="#F24D5C" height="6" style="stroke:#C82930;stroke-width:1.0;" width="6" x="178" y="181.6094"/><text fill="#000000" font-family="sans-serif" font-size="14" lengthAdjust="spacing" textLength="174" x="190" y="192.1426">VaccineSelectionVacType()</text></g><!--MD5=[d0a5a65fe6f1caee67ac0dcb4193126d]
class VaccineAdministrationUI--><g id="elem_VaccineAdministrationUI"><rect codeLine="14" fill="#F1F1F1" height="48" id="VaccineAdministrationUI" rx="2.5" ry="2.5" style="stroke:#181818;stroke-width:0.5;" width="183" x="309.5" y="7"/><ellipse cx="324.5" cy="23" fill="#ADD1B2" rx="11" ry="11" style="stroke:#181818;stroke-width:1.0;"/><path d="M326.5,19.5 Q326.7031,19 326.9375,18.75 Q327.1719,18.5 327.4375,18.5 Q327.9063,18.5 328.2031,18.7813 Q328.5,19.0625 328.5,19.7188 L328.5,21.2813 Q328.5,21.9375 328.2188,22.2188 Q327.9375,22.5 327.5,22.5 Q327.1094,22.5 326.8594,22.3281 Q326.6094,22.1563 326.5,21.7031 Q326.4531,21.3906 326.2813,21.2188 Q325.9688,20.8906 325.4063,20.7031 Q324.8438,20.5 324.2813,20.5 Q323.5781,20.5 322.9844,20.7813 Q322.4063,21.0625 321.9531,21.6875 Q321.5,22.3125 321.5,23.1719 L321.5,24.0938 Q321.5,25.125 322.3438,25.8125 Q323.1875,26.5 324.6875,26.5 Q325.5781,26.5 326.2031,26.2969 Q326.5625,26.1875 326.9688,25.8281 Q327.2344,25.625 327.375,25.5625 Q327.5156,25.5 327.6875,25.5 Q328.0156,25.5 328.25,25.7656 Q328.5,26.0156 328.5,26.375 Q328.5,26.7188 328.1563,27.125 Q327.6563,27.7188 326.8594,28.0469 Q325.8125,28.5 324.5313,28.5 Q323.0313,28.5 321.8281,27.9063 Q320.8594,27.4375 320.1719,26.4219 Q319.5,25.4063 319.5,24.2031 L319.5,23.1094 Q319.5,21.8594 320.0938,20.7656 Q320.7031,19.6719 321.75,19.0938 Q322.8125,18.5 324,18.5 Q324.7188,18.5 325.3438,18.75 Q325.9688,19 326.5,19.5 Z " fill="#000000"/><text fill="#000000" font-family="sans-serif" font-size="14" lengthAdjust="spacing" textLength="151" x="338.5" y="28.7285">VaccineAdministrationUI</text><line style="stroke:#181818;stroke-width:0.5;" x1="310.5" x2="491.5" y1="39" y2="39"/><line style="stroke:#181818;stroke-width:0.5;" x1="310.5" x2="491.5" y1="47" y2="47"/></g><!--MD5=[f8d2b21678b6ea5d90e779ee6463ca37]
class Utils--><g id="elem_Utils"><rect codeLine="17" fill="#F1F1F1" height="65.6094" id="Utils" rx="2.5" ry="2.5" style="stroke:#181818;stroke-width:0.5;" width="149" x="299.5" y="268.5"/><ellipse cx="356.75" cy="284.5" fill="#ADD1B2" rx="11" ry="11" style="stroke:#181818;stroke-width:1.0;"/><path d="M358.75,281 Q358.9531,280.5 359.1875,280.25 Q359.4219,280 359.6875,280 Q360.1563,280 360.4531,280.2813 Q360.75,280.5625 360.75,281.2188 L360.75,282.7813 Q360.75,283.4375 360.4688,283.7188 Q360.1875,284 359.75,284 Q359.3594,284 359.1094,283.8281 Q358.8594,283.6563 358.75,283.2031 Q358.7031,282.8906 358.5313,282.7188 Q358.2188,282.3906 357.6563,282.2031 Q357.0938,282 356.5313,282 Q355.8281,282 355.2344,282.2813 Q354.6563,282.5625 354.2031,283.1875 Q353.75,283.8125 353.75,284.6719 L353.75,285.5938 Q353.75,286.625 354.5938,287.3125 Q355.4375,288 356.9375,288 Q357.8281,288 358.4531,287.7969 Q358.8125,287.6875 359.2188,287.3281 Q359.4844,287.125 359.625,287.0625 Q359.7656,287 359.9375,287 Q360.2656,287 360.5,287.2656 Q360.75,287.5156 360.75,287.875 Q360.75,288.2188 360.4063,288.625 Q359.9063,289.2188 359.1094,289.5469 Q358.0625,290 356.7813,290 Q355.2813,290 354.0781,289.4063 Q353.1094,288.9375 352.4219,287.9219 Q351.75,286.9063 351.75,285.7031 L351.75,284.6094 Q351.75,283.3594 352.3438,282.2656 Q352.9531,281.1719 354,280.5938 Q355.0625,280 356.25,280 Q356.9688,280 357.5938,280.25 Q358.2188,280.5 358.75,281 Z " fill="#000000"/><text fill="#000000" font-family="sans-serif" font-size="14" lengthAdjust="spacing" textLength="26" x="377.25" y="290.2285">Utils</text><line style="stroke:#181818;stroke-width:0.5;" x1="300.5" x2="447.5" y1="300.5" y2="300.5"/><line style="stroke:#181818;stroke-width:0.5;" x1="300.5" x2="447.5" y1="308.5" y2="308.5"/><rect fill="#F24D5C" height="6" style="stroke:#C82930;stroke-width:1.0;" width="6" x="307.5" y="316.5"/><text fill="#000000" font-family="sans-serif" font-size="14" lengthAdjust="spacing" textLength="123" x="319.5" y="327.0332">chooseVacCenter()</text></g><!--MD5=[b40b910ee0318f7c8963585ae57881dd]
class RegisterVacineStore--><g id="elem_RegisterVacineStore"><rect codeLine="20" fill="#F1F1F1" height="65.6094" id="RegisterVacineStore" rx="2.5" ry="2.5" style="stroke:#181818;stroke-width:0.5;" width="162" x="7" y="421"/><ellipse cx="22" cy="437" fill="#ADD1B2" rx="11" ry="11" style="stroke:#181818;stroke-width:1.0;"/><path d="M24,433.5 Q24.2031,433 24.4375,432.75 Q24.6719,432.5 24.9375,432.5 Q25.4063,432.5 25.7031,432.7813 Q26,433.0625 26,433.7188 L26,435.2813 Q26,435.9375 25.7188,436.2188 Q25.4375,436.5 25,436.5 Q24.6094,436.5 24.3594,436.3281 Q24.1094,436.1563 24,435.7031 Q23.9531,435.3906 23.7813,435.2188 Q23.4688,434.8906 22.9063,434.7031 Q22.3438,434.5 21.7813,434.5 Q21.0781,434.5 20.4844,434.7813 Q19.9063,435.0625 19.4531,435.6875 Q19,436.3125 19,437.1719 L19,438.0938 Q19,439.125 19.8438,439.8125 Q20.6875,440.5 22.1875,440.5 Q23.0781,440.5 23.7031,440.2969 Q24.0625,440.1875 24.4688,439.8281 Q24.7344,439.625 24.875,439.5625 Q25.0156,439.5 25.1875,439.5 Q25.5156,439.5 25.75,439.7656 Q26,440.0156 26,440.375 Q26,440.7188 25.6563,441.125 Q25.1563,441.7188 24.3594,442.0469 Q23.3125,442.5 22.0313,442.5 Q20.5313,442.5 19.3281,441.9063 Q18.3594,441.4375 17.6719,440.4219 Q17,439.4063 17,438.2031 L17,437.1094 Q17,435.8594 17.5938,434.7656 Q18.2031,433.6719 19.25,433.0938 Q20.3125,432.5 21.5,432.5 Q22.2188,432.5 22.8438,432.75 Q23.4688,433 24,433.5 Z " fill="#000000"/><text fill="#000000" font-family="sans-serif" font-size="14" lengthAdjust="spacing" textLength="130" x="36" y="442.7285">RegisterVacineStore</text><line style="stroke:#181818;stroke-width:0.5;" x1="8" x2="168" y1="453" y2="453"/><line style="stroke:#181818;stroke-width:0.5;" x1="8" x2="168" y1="461" y2="461"/><rect fill="#F24D5C" height="6" style="stroke:#C82930;stroke-width:1.0;" width="6" x="15" y="469"/><text fill="#000000" font-family="sans-serif" font-size="14" lengthAdjust="spacing" textLength="109" x="27" y="479.5332">get newVaccine()</text></g><!--MD5=[f8249b525ef5fd0f85a96dfc61142191]
class VaccineCenterStore--><g id="elem_VaccineCenterStore"><rect codeLine="23" fill="#F1F1F1" height="65.6094" id="VaccineCenterStore" rx="2.5" ry="2.5" style="stroke:#181818;stroke-width:0.5;" width="159" x="204.5" y="421"/><ellipse cx="219.5" cy="437" fill="#ADD1B2" rx="11" ry="11" style="stroke:#181818;stroke-width:1.0;"/><path d="M221.5,433.5 Q221.7031,433 221.9375,432.75 Q222.1719,432.5 222.4375,432.5 Q222.9063,432.5 223.2031,432.7813 Q223.5,433.0625 223.5,433.7188 L223.5,435.2813 Q223.5,435.9375 223.2188,436.2188 Q222.9375,436.5 222.5,436.5 Q222.1094,436.5 221.8594,436.3281 Q221.6094,436.1563 221.5,435.7031 Q221.4531,435.3906 221.2813,435.2188 Q220.9688,434.8906 220.4063,434.7031 Q219.8438,434.5 219.2813,434.5 Q218.5781,434.5 217.9844,434.7813 Q217.4063,435.0625 216.9531,435.6875 Q216.5,436.3125 216.5,437.1719 L216.5,438.0938 Q216.5,439.125 217.3438,439.8125 Q218.1875,440.5 219.6875,440.5 Q220.5781,440.5 221.2031,440.2969 Q221.5625,440.1875 221.9688,439.8281 Q222.2344,439.625 222.375,439.5625 Q222.5156,439.5 222.6875,439.5 Q223.0156,439.5 223.25,439.7656 Q223.5,440.0156 223.5,440.375 Q223.5,440.7188 223.1563,441.125 Q222.6563,441.7188 221.8594,442.0469 Q220.8125,442.5 219.5313,442.5 Q218.0313,442.5 216.8281,441.9063 Q215.8594,441.4375 215.1719,440.4219 Q214.5,439.4063 214.5,438.2031 L214.5,437.1094 Q214.5,435.8594 215.0938,434.7656 Q215.7031,433.6719 216.75,433.0938 Q217.8125,432.5 219,432.5 Q219.7188,432.5 220.3438,432.75 Q220.9688,433 221.5,433.5 Z " fill="#000000"/><text fill="#000000" font-family="sans-serif" font-size="14" lengthAdjust="spacing" textLength="127" x="233.5" y="442.7285">VaccineCenterStore</text><line style="stroke:#181818;stroke-width:0.5;" x1="205.5" x2="362.5" y1="453" y2="453"/><line style="stroke:#181818;stroke-width:0.5;" x1="205.5" x2="362.5" y1="461" y2="461"/><rect fill="#F24D5C" height="6" style="stroke:#C82930;stroke-width:1.0;" width="6" x="212.5" y="469"/><text fill="#000000" font-family="sans-serif" font-size="14" lengthAdjust="spacing" textLength="90" x="224.5" y="479.5332">get vacStore()</text></g><!--MD5=[b2ad0f3bd9b33827ab07a82c71c31d00]
class sendSMSMessage--><g id="elem_sendSMSMessage"><rect codeLine="26" fill="#F1F1F1" height="65.6094" id="sendSMSMessage" rx="2.5" ry="2.5" style="stroke:#181818;stroke-width:0.5;" width="193" x="425.5" y="124.5"/><ellipse cx="460.3" cy="140.5" fill="#ADD1B2" rx="11" ry="11" style="stroke:#181818;stroke-width:1.0;"/><path d="M462.3,137 Q462.5031,136.5 462.7375,136.25 Q462.9719,136 463.2375,136 Q463.7063,136 464.0031,136.2813 Q464.3,136.5625 464.3,137.2188 L464.3,138.7813 Q464.3,139.4375 464.0188,139.7188 Q463.7375,140 463.3,140 Q462.9094,140 462.6594,139.8281 Q462.4094,139.6563 462.3,139.2031 Q462.2531,138.8906 462.0813,138.7188 Q461.7688,138.3906 461.2063,138.2031 Q460.6438,138 460.0813,138 Q459.3781,138 458.7844,138.2813 Q458.2063,138.5625 457.7531,139.1875 Q457.3,139.8125 457.3,140.6719 L457.3,141.5938 Q457.3,142.625 458.1438,143.3125 Q458.9875,144 460.4875,144 Q461.3781,144 462.0031,143.7969 Q462.3625,143.6875 462.7688,143.3281 Q463.0344,143.125 463.175,143.0625 Q463.3156,143 463.4875,143 Q463.8156,143 464.05,143.2656 Q464.3,143.5156 464.3,143.875 Q464.3,144.2188 463.9563,144.625 Q463.4563,145.2188 462.6594,145.5469 Q461.6125,146 460.3313,146 Q458.8313,146 457.6281,145.4063 Q456.6594,144.9375 455.9719,143.9219 Q455.3,142.9063 455.3,141.7031 L455.3,140.6094 Q455.3,139.3594 455.8938,138.2656 Q456.5031,137.1719 457.55,136.5938 Q458.6125,136 459.8,136 Q460.5188,136 461.1438,136.25 Q461.7688,136.5 462.3,137 Z " fill="#000000"/><text fill="#000000" font-family="sans-serif" font-size="14" lengthAdjust="spacing" textLength="117" x="478.7" y="146.2285">sendSMSMessage</text><line style="stroke:#181818;stroke-width:0.5;" x1="426.5" x2="617.5" y1="156.5" y2="156.5"/><line style="stroke:#181818;stroke-width:0.5;" x1="426.5" x2="617.5" y1="164.5" y2="164.5"/><rect fill="#F24D5C" height="6" style="stroke:#C82930;stroke-width:1.0;" width="6" x="433.5" y="172.5"/><text fill="#000000" font-family="sans-serif" font-size="14" lengthAdjust="spacing" textLength="167" x="445.5" y="183.0332">sendSMSRecoveryRoom()</text></g><!--MD5=[1073aeba8edcd6b4ecd9883295a9e4c4]
link VaccineAdministrationUI to VaccineSelectionController--><g id="link_VaccineAdministrationUI_VaccineSelectionController"><path codeLine="30" d="M378.52,55.13 C363.02,71.08 341.91,92.8 323.21,112.04 " fill="none" id="VaccineAdministrationUI-to-VaccineSelectionController" style="stroke:#181818;stroke-width:1.0;stroke-dasharray:7.0,7.0;"/><polygon fill="#181818" points="319.5,115.86,328.6415,112.1948,322.9852,112.2748,322.9052,106.6185,319.5,115.86" style="stroke:#181818;stroke-width:1.0;"/></g><!--MD5=[77420ad0f078aec419d42c88b5222fc9]
link VaccineSelectionController to Utils--><g id="link_VaccineSelectionController_Utils"><path codeLine="31" d="M306.94,199.19 C320.45,219.61 336.7,244.15 349.81,263.96 " fill="none" id="VaccineSelectionController-to-Utils" style="stroke:#181818;stroke-width:1.0;stroke-dasharray:7.0,7.0;"/><polygon fill="#181818" points="352.73,268.37,351.0813,258.6601,349.9631,264.2054,344.4178,263.0872,352.73,268.37" style="stroke:#181818;stroke-width:1.0;"/></g><!--MD5=[0a230fcf0ea244cb61374a97f8b8507c]
link VaccineSelectionController to Company--><g id="link_VaccineSelectionController_Company"><path codeLine="32" d="M253.06,199.19 C241.46,216.72 227.85,237.28 215.93,255.28 " fill="none" id="VaccineSelectionController-to-Company" style="stroke:#181818;stroke-width:1.0;stroke-dasharray:7.0,7.0;"/><polygon fill="#181818" points="212.94,259.8,221.2396,254.4974,215.697,255.6288,214.5656,250.0862,212.94,259.8" style="stroke:#181818;stroke-width:1.0;"/></g><!--MD5=[24a802dafe4a9853fd27ea481c0e75f7]
link Company to RegisterVacineStore--><g id="link_Company_RegisterVacineStore"><path codeLine="33" d="M159.48,343.23 C144.6,366.08 126.19,394.35 111.78,416.48 " fill="none" id="Company-to-RegisterVacineStore" style="stroke:#181818;stroke-width:1.0;"/><polygon fill="#181818" points="108.95,420.82,117.2074,415.452,111.6739,416.6271,110.4988,411.0937,108.95,420.82" style="stroke:#181818;stroke-width:1.0;"/><text fill="#000000" font-family="sans-serif" font-size="13" lengthAdjust="spacing" textLength="30" x="141" y="387.4951">owns</text><text fill="#000000" font-family="sans-serif" font-size="13" lengthAdjust="spacing" textLength="7" x="147.6956" y="364.6614">1</text><text fill="#000000" font-family="sans-serif" font-size="13" lengthAdjust="spacing" textLength="5" x="107.7553" y="409.8983">*</text></g><!--MD5=[c26f78c806406f100efb659cdcdabe5b]
link Company to VaccineCenterStore--><g id="link_Company_VaccineCenterStore"><path codeLine="34" d="M212.52,343.23 C227.4,366.08 245.81,394.35 260.22,416.48 " fill="none" id="Company-to-VaccineCenterStore" style="stroke:#181818;stroke-width:1.0;"/><polygon fill="#181818" points="263.05,420.82,261.5012,411.0937,260.3261,416.6271,254.7926,415.452,263.05,420.82" style="stroke:#181818;stroke-width:1.0;"/><text fill="#000000" font-family="sans-serif" font-size="13" lengthAdjust="spacing" textLength="30" x="242" y="387.4951">owns</text><text fill="#000000" font-family="sans-serif" font-size="13" lengthAdjust="spacing" textLength="7" x="209.1888" y="364.6614">1</text><text fill="#000000" font-family="sans-serif" font-size="13" lengthAdjust="spacing" textLength="5" x="253.2134" y="409.8983">*</text></g><!--MD5=[a8b1149ed53aebd03da08fe50cdcefaa]
link VaccineAdministrationUI to sendSMSMessage--><g id="link_VaccineAdministrationUI_sendSMSMessage"><path codeLine="35" d="M423.48,55.13 C441.31,73.47 466.55,99.45 487.02,120.51 " fill="none" id="VaccineAdministrationUI-to-sendSMSMessage" style="stroke:#181818;stroke-width:1.0;stroke-dasharray:7.0,7.0;"/><polygon fill="#181818" points="490.52,124.11,487.1148,114.8685,487.0348,120.5248,481.3785,120.4448,490.52,124.11" style="stroke:#181818;stroke-width:1.0;"/></g><!--MD5=[a509c653365261c08d9bcfe3724e7c0b]
@startuml

class Company {
  -designation
  +getVacCenterStore()

 }


 class VaccineSelectionController {
-VaccineSelectionSNSN(center)
-VaccineSelectionVacType()
 }

 class VaccineAdministrationUI {

 }
class Utils{
-chooseVacCenter()
}
class RegisterVacineStore{
-get newVaccine()
}
class VaccineCenterStore{
-get vacStore()
}
class sendSMSMessage {
-sendSMSRecoveryRoom()
}

 VaccineAdministrationUI ..> VaccineSelectionController
 VaccineSelectionController ..> Utils
 VaccineSelectionController ..> Company
 Company "1" - -> "*" RegisterVacineStore : owns
 Company "1" - -> "*" VaccineCenterStore: owns
 VaccineAdministrationUI ..> sendSMSMessage






@enduml

PlantUML version 1.2022.5(Sat Apr 30 11:55:52 BST 2022)
(GPL source distribution)
Java Runtime: OpenJDK Runtime Environment
JVM: OpenJDK 64-Bit Server VM
Default Encoding: Cp1252
Language: pt
Country: PT
--></g></svg>